狀態		計時器	X	Y 	角度	系統時間
呈現開始		Start	起-台灣彩券	終-寶雅	解5	09:02:53.772
呈現結束		End	起-台灣彩券	終-寶雅	解5	09:02:55.773
思考開始		Start	起-台灣彩券	終-寶雅	解5	09:02:55.788
思考結束		End	起-台灣彩券	終-寶雅	解5	09:02:59.789
距離判斷		Start	起-台灣彩券	終-寶雅	解5	09:02:59.810
距離判斷		End	起-台灣彩券	終-寶雅	10步	09:03:05.088
location	0	0	8	90	09:03:07.140
location	1	0	8	90	09:03:07.388
location	2	0	8	90	09:03:07.638
location	3	0	8	90	09:03:07.888
location	4	0	8	90	09:03:08.138
location	5	0	8	135	09:03:08.391
location	6	0	8	135	09:03:08.638
location	7	0	8	135	09:03:08.888
location	8	0	8	180	09:03:09.138
location	9	0	8	180	09:03:09.387
location	10	0	9	180	09:03:09.654
location	11	0	10	180	09:03:09.904
location	12	0	10	180	09:03:10.153
location	13	0	11	180	09:03:10.403
location	14	0	11	180	09:03:10.653
location	15	0	11	135	09:03:10.903
location	16	0	11	135	09:03:11.154
location	17	0	11	90	09:03:11.387
location	18	0	11	90	09:03:11.638
location	19	1	11	90	09:03:11.888
location	20	2	11	90	09:03:12.137
location	21	3	11	90	09:03:12.387
location	22	4	11	90	09:03:12.654
location	23	4	11	90	09:03:12.903
location	24	4	11	45	09:03:13.153
location	25	4	11	0	09:03:13.388
location	26	4	11	0	09:03:13.638
location	27	4	10	0	09:03:13.889
location	28	4	9	0	09:03:14.139
location	29	4	9	0	09:03:14.387
location	30	4	9	315	09:03:14.638
location	31	4	9	270	09:03:14.904
location	32	4	9	270	09:03:15.153
location	33	4	9	270	09:03:15.403
location	34	4	9	270	09:03:15.653
location	35	4	9	270	09:03:15.903
location	36	4	9	270	09:03:16.153
location	37	4	9	270	09:03:16.403
location	38	4	9	270	09:03:16.653
location	39	4	9	315	09:03:16.903
location	40	4	9	315	09:03:17.153
location	41	4	9	0	09:03:17.403
location	42	4	9	0	09:03:17.637
location	43	4	8	0	09:03:17.887
location	44	4	7	0	09:03:18.137
location	45	4	6	0	09:03:18.404
location	46	4	6	0	09:03:18.654
location	47	4	6	45	09:03:18.903
location	48	4	6	90	09:03:19.154
location	49	4	6	90	09:03:19.387
location	50	4	6	90	09:03:19.637
location	51	4	6	90	09:03:19.904
location	52	4	6	90	09:03:20.137
location	53	4	6	90	09:03:20.387
location	54	4	6	90	09:03:20.637
location	55	4	6	90	09:03:20.887
location	56	4	6	90	09:03:21.137
location	57	4	6	90	09:03:21.387
location	58	4	6	90	09:03:21.637
location	59	4	6	90	09:03:21.887
location	60	4	6	90	09:03:22.137
location	61	4	6	90	09:03:22.387
location	62	4	6	90	09:03:22.637
location	63	4	6	90	09:03:22.887
location	64	4	6	90	09:03:23.137
