狀態		計時器	X	Y 	角度	系統時間
location	0	0	0	180	08:43:59.379
location	1	0	0	180	08:43:59.628
location	2	0	0	180	08:43:59.878
location	3	0	0	180	08:44:00.127
location	4	0	0	180	08:44:00.378
location	5	0	0	180	08:44:00.627
location	6	0	0	180	08:44:00.878
location	7	0	0	180	08:44:01.128
location	8	0	0	180	08:44:01.378
location	9	0	0	180	08:44:01.627
location	10	0	0	180	08:44:01.878
location	11	0	0	180	08:44:02.128
location	12	0	0	180	08:44:02.378
location	13	0	0	180	08:44:02.628
location	14	0	0	180	08:44:02.879
location	15	0	0	180	08:44:03.128
location	16	0	0	180	08:44:03.378
location	17	0	0	180	08:44:03.626
location	18	0	0	135	08:44:03.880
location	19	0	0	135	08:44:04.129
location	20	0	0	135	08:44:04.377
location	21	0	0	135	08:44:04.628
location	22	0	0	90	08:44:04.878
location	23	0	0	90	08:44:05.126
location	24	0	0	90	08:44:05.376
location	25	0	0	90	08:44:05.627
location	26	0	0	135	08:44:05.877
location	27	0	0	135	08:44:06.130
location	28	0	0	135	08:44:06.379
location	29	0	0	135	08:44:06.629
location	30	0	0	180	08:44:06.879
location	31	0	1	180	08:44:07.128
location	32	0	2	180	08:44:07.377
location	33	0	3	180	08:44:07.628
location	34	0	3	180	08:44:07.877
location	35	0	3	180	08:44:08.127
location	36	0	3	180	08:44:08.377
location	37	0	3	180	08:44:08.627
location	38	0	3	180	08:44:08.877
location	39	0	3	180	08:44:09.127
location	40	0	3	180	08:44:09.378
location	41	0	3	180	08:44:09.627
location	42	0	3	180	08:44:09.878
location	43	0	3	180	08:44:10.128
location	44	0	3	180	08:44:10.378
