5.0188 	WARNING 	User requested fullscreen with size [1280  720], but screen is actually [1440, 900]. Using actual size
6.1641 	EXP 	Created window1 = Window(allowGUI=True, allowStencil=False, autoLog=True, backendConf=UNKNOWN, backgroundFit=<method-wrapper '__getattribute__' of attributeSetter object at 0x7fdec2fc89d0>, backgroundImage=<method-wrapper '__getattribute__' of attributeSetter object at 0x7fdec2fc8970>, bitsMode=UNKNOWN, blendMode='avg', bpc=(8, 8, 8), color=array([-1., -1., -1.]), colorSpace='rgb', depthBits=8, fullscr=<method-wrapper '__getattribute__' of attributeSetter object at 0x7fdec2fc87f0>, gamma=None, gammaErrorPolicy='raise', lms=UNKNOWN, monitor=<psychopy.monitors.calibTools.Monitor object at 0x7fdec8a09fd0>, multiSample=False, name='window1', numSamples=2, pos=[360.0, 225.0], screen=0, size=array([2880, 1800]), stencilBits=0, stereo=False, title='PsychoPy', units='norm', useFBO=True, useRetina=True, viewOri=0.0, viewPos=None, viewScale=None, waitBlanking=True, winType='pyglet')
6.1644 	EXP 	window1: mouseVisible = True
6.1644 	EXP 	window1: backgroundImage = ''
6.1645 	EXP 	window1: backgroundFit = 'none'
6.1680 	EXP 	window1: Attempting to measure frame rate of screen (0) ...
6.1681 	EXP 	window1: recordFrameIntervals = False
6.2529 	EXP 	window1: recordFrameIntervals = True
6.3633 	WARNING 	t of last frame was 10.90ms (=1/91)
6.3967 	WARNING 	t of last frame was 11.00ms (=1/90)
6.4133 	WARNING 	t of last frame was 10.49ms (=1/95)
6.4301 	WARNING 	t of last frame was 10.30ms (=1/97)
6.4471 	WARNING 	Multiple dropped frames have occurred - I'll stop bothering you about them!
7.0871 	WARNING 	Couldn't measure a consistent frame rate!
  - Is your graphics card set to sync to vertical blank?
  - Are you running other processes on your computer?

7.0892 	EXP 	window1: mouseVisible = False
8.8336 	EXP 	ACTI-RIT-20220216-MRI-a1: status = STARTED
8.8592 	EXP 	window1: mouseVisible = True
