8.1562 	WARNING 	User requested fullscreen with size [1280  720], but screen is actually [1440, 900]. Using actual size
9.0416 	EXP 	Created window1 = Window(allowGUI=True, allowStencil=False, autoLog=True, backendConf=UNKNOWN, backgroundFit=<method-wrapper '__getattribute__' of attributeSetter object at 0x7fccd9f407f0>, backgroundImage=<method-wrapper '__getattribute__' of attributeSetter object at 0x7fccd9f40790>, bitsMode=UNKNOWN, blendMode='avg', bpc=(8, 8, 8), color=array([-1., -1., -1.]), colorSpace='rgb', depthBits=8, fullscr=<method-wrapper '__getattribute__' of attributeSetter object at 0x7fccd9f40610>, gamma=None, gammaErrorPolicy='raise', lms=UNKNOWN, monitor=<psychopy.monitors.calibTools.Monitor object at 0x7fccda1d1df0>, multiSample=False, name='window1', numSamples=2, pos=[360.0, 225.0], screen=0, size=array([2880, 1800]), stencilBits=0, stereo=False, title='PsychoPy', units='norm', useFBO=True, useRetina=True, viewOri=0.0, viewPos=None, viewScale=None, waitBlanking=True, winType='pyglet')
9.0418 	EXP 	window1: mouseVisible = True
9.0418 	EXP 	window1: backgroundImage = ''
9.0418 	EXP 	window1: backgroundFit = 'none'
9.0452 	EXP 	window1: Attempting to measure frame rate of screen (0) ...
9.0452 	EXP 	window1: recordFrameIntervals = False
9.1333 	EXP 	window1: recordFrameIntervals = True
9.2170 	WARNING 	t of last frame was 10.67ms (=1/93)
9.2504 	WARNING 	t of last frame was 11.23ms (=1/89)
9.3668 	WARNING 	t of last frame was 10.26ms (=1/97)
9.4503 	WARNING 	t of last frame was 10.72ms (=1/93)
9.5166 	WARNING 	Multiple dropped frames have occurred - I'll stop bothering you about them!
9.8423 	EXP 	Screen (0) actual frame rate measured at 117.43Hz
9.8423 	EXP 	window1: recordFrameIntervals = False
9.8435 	EXP 	window1: mouseVisible = False
11.5814 	EXP 	ACTI-RIT-20220216-MRI-a1: status = STARTED
11.6012 	EXP 	window1: mouseVisible = True
