﻿Win,Lose,Value,RealValue,Label,ChoiceDur,ITIDur1,ITIDur2,trials.thisRepN,trials.thisTrialN,trials.thisN,trials.thisIndex,thisRow.t,notes,Welcome.started,Welcome.stopped,Review1.started,Review1.stopped,Review2.started,Review2.stopped,ScannerPulse.started,ScannerPulse.stopped,LongITI1.started,longiti1.started,longiti1.stopped,LongITI1.stopped,Choice.started,choice.started,choice_key.started,choice.stopped,choice_key.stopped,Choice.stopped,choice_key.keys,choice_key.rt,choice_key.duration,LBracket,RBracket,Gainsign,RespCheck,Outcome,totalsum,ITI1.started,ITI1.stopped,Feedback.started,feedback.started,Feedback.stopped,cond,ITI2.started,ITI2.stopped,feedback.stopped,LongITI2.started,LongITI2.stopped,BreakWindow.started,BreakWindow.stopped,participant,session,starting_score,date,expName,psychopyVersion,frameRate,expStart,
54,46,12,12,ProbMM_valueL,3,1,3,0,0,0,0,45.88532519998262,,0.004277899977751076,7.93389499996556,7.933925299963448,8.850982499949168,8.851021699956618,9.669508099963423,9.669543500000145,25.802215099975,25.802251699962653,25.817418599966913,45.88532519998262,45.80177399999229,45.84063279995462,45.88532519998262,45.88532519998262,48.88429009995889,48.88429009995889,48.8688968999777,1,0.880995899962727,None,,,+,,12,3963,48.86996659997385,49.8690021999646,49.869040999969,49.89134329999797,51.38523409998743,A_GAIN,51.385264199983794,54.385340699984226,,,,,,0001,001,3951,2024-04-17_13h50.24.569,ADMT_r5,2023.2.3,60.044372800842154,2024-04-17 13h50.36.632723 -0500,
95,5,1,-1,ProbHH_valueL,3,5,1,0,1,1,1,54.404481299978215,,,,,,,,,,,,,,54.38577759999316,54.404481299978215,54.404481299978215,57.417988599976525,57.417988599976525,57.402452699956484,1,0.9525098000303842,None,,,,,-1,3962,57.40299499995308,62.4023646999849,62.40239079995081,62.41788959997939,63.90273399994476,A_LOSS,63.90277469996363,64.90239099995233,63.91845679999096,,,,,0001,001,3951,2024-04-17_13h50.24.569,ADMT_r5,2023.2.3,60.044372800842154,2024-04-17 13h50.36.632723 -0500,
6,94,15,15,ProbLL_valueL,3,3,1,0,2,2,2,64.92292989999987,,,,,,,,,,,,,,64.902950699965,64.92292989999987,64.92292989999987,67.93423749995418,67.93423749995418,67.91873339994345,2,1.0198834000038914,None,(,),+,,15,3962,67.91924569994444,70.91868119995343,70.918717499997,70.9365087999613,72.43536059994949,R_GAIN,72.43539389997022,73.43538119998993,,,,,,0001,001,3951,2024-04-17_13h50.24.569,ADMT_r5,2023.2.3,60.044372800842154,2024-04-17 13h50.36.632723 -0500,
47,53,1294,1294,ProbMM_valueSH,1.5,1,3,0,3,3,3,73.45172519999323,,,,,,,,,,,,,,73.43580029997975,73.45172519999323,73.45172519999323,74.95196319994284,74.95196319994284,74.93514049996156,1,1.0234349999809638,None,,,+,,1294,5256,74.93558289995417,75.93522949999897,75.93526049994398,75.95115289994283,77.43579559994396,A_GAIN,77.43583539995598,80.43584159994498,,,,,,0001,001,3951,2024-04-17_13h50.24.569,ADMT_r5,2023.2.3,60.044372800842154,2024-04-17 13h50.36.632723 -0500,
48,52,17,17,ProbMM_valueL,3,1,1,0,4,4,4,80.45375879999483,,,,,,,,,,,,,,80.43639669998083,80.45375879999483,80.45375879999483,83.46885119995568,83.46885119995568,83.45301939995261,2,1.5370890999911353,None,(,),+,,17,5256,83.45362159999786,84.45201029995224,84.45203519996721,84.46786169998813,85.95215609995648,R_GAIN,85.95219389995327,86.95189989998471,,,,,,0001,001,3951,2024-04-17_13h50.24.569,ADMT_r5,2023.2.3,60.044372800842154,2024-04-17 13h50.36.632723 -0500,
15,85,81,-81,ProbLL_valueH,3,1,1,0,5,5,5,86.97362469998188,,,,,,,,,,,,,,86.95238939998671,86.97362469998188,86.97362469998188,89.98475369997323,89.98475369997323,89.96952899999451,2,0.9997940000030212,None,(,),,,-81,5256,89.97002339997562,90.96872529998654,90.96875299996464,90.9847692999756,92.46926359995268,R_LOSS,92.46929289994296,93.46949399996083,92.4855697999592,,,,,0001,001,3951,2024-04-17_13h50.24.569,ADMT_r5,2023.2.3,60.044372800842154,2024-04-17 13h50.36.632723 -0500,
49,51,7,-7,ProbMM_valueL,3,3,2,0,6,6,6,93.48899709997931,,,,,,,,,,,,,,93.46992749994388,93.48899709997931,93.48899709997931,96.50180079997517,96.50180079997517,96.48563119996106,1,1.7115315000410192,None,,,,,-7,5249,96.48617429996375,99.48633109999355,99.48636929999338,99.50487969996175,101.00204559997655,A_LOSS,101.00207879999653,103.00205569999525,,,,,,0001,001,3951,2024-04-17_13h50.24.569,ADMT_r5,2023.2.3,60.044372800842154,2024-04-17 13h50.36.632723 -0500,
20,80,80,-80,ProbLL_valueH,3,2,2,0,7,7,7,103.01801549998345,,,,,,,,,,,,,,103.00250279996544,103.01801549998345,103.01801549998345,106.01803679997101,106.01803679997101,106.00284839997767,2,1.2648583999834955,None,(,),,,-80,5249,106.00352109997766,108.0018718999927,108.00190049997764,108.01794569997583,109.50234859995544,R_LOSS,109.50238549994538,111.50218869996024,,,,,,0001,001,3951,2024-04-17_13h50.24.569,ADMT_r5,2023.2.3,60.044372800842154,2024-04-17 13h50.36.632723 -0500,
48,52,91,-91,ProbMM_valueH,3,1,1,0,8,8,8,111.52229549997719,,,,,,,,,,,,,,111.50266639998881,111.52229549997719,111.52229549997719,114.5347088999697,114.5347088999697,114.51966329995776,1,1.7039758000173606,None,,,,,-91,5158,114.52021509996848,115.51960259996122,115.51963849994354,115.53734369995072,117.03534519998357,A_LOSS,117.0353771999944,118.03544169996167,,,,,,0001,001,3951,2024-04-17_13h50.24.569,ADMT_r5,2023.2.3,60.044372800842154,2024-04-17 13h50.36.632723 -0500,
55,45,1360,-1360,ProbMM_valueSH,1.5,1,1,0,9,9,9,118.05561109998962,,,,,,,,,,,,,,118.03595789999235,118.05561109998962,118.05561109998962,119.56780329998583,119.56780329998583,119.5528569999733,1,1.3216064000152983,None,,,,,-1360,3798,119.553495799948,120.55323069996666,120.55327419994865,120.57317059999332,122.06828449998284,A_LOSS,122.06831939995755,123.06849849998252,,,,,,0001,001,3951,2024-04-17_13h50.24.569,ADMT_r5,2023.2.3,60.044372800842154,2024-04-17 13h50.36.632723 -0500,
50,50,16,16,ProbMM_valueL,3,2,1,0,10,10,10,123.08655699994415,,,,,,,,,,,,,,123.06892299995525,123.08655699994415,123.08655699994415,126.10146449995227,126.10146449995227,126.08570789999794,1,1.1788436999777332,None,,,+,,16,3814,126.0862965999986,128.08576989994617,128.08580729999812,128.10454569995636,129.6023132999544,A_GAIN,129.60234839998884,130.60289199999534,,,,,,0001,001,3951,2024-04-17_13h50.24.569,ADMT_r5,2023.2.3,60.044372800842154,2024-04-17 13h50.36.632723 -0500,
49,51,1169,1169,ProbMM_valueSH,1.5,2,2,0,11,11,11,130.62478519999422,,,,,,,,,,,,,,130.6034651999944,130.62478519999422,130.62478519999422,132.13474059995497,132.13474059995497,132.11900329997297,1,1.4253011000109836,None,,,+,,1169,4983,132.11962839995977,134.1197692999849,134.1198044999619,134.13750819995767,135.63513799995417,A_GAIN,135.63516629999503,137.63671599997906,,,,,,0001,001,3951,2024-04-17_13h50.24.569,ADMT_r5,2023.2.3,60.044372800842154,2024-04-17 13h50.36.632723 -0500,
12,88,96,-96,ProbLL_valueH,3,1,8,0,12,12,12,137.65998009999748,,,,,,,,,,,,,,137.63738069997635,137.65998009999748,137.65998009999748,140.6683267999906,140.6683267999906,140.65321759996004,2,1.2878202000283636,None,(,),,,-96,4983,140.6538155999733,141.65345659997547,141.65349539997987,141.67264569998952,143.16863899998134,R_LOSS,143.1686729999492,151.16963479999686,,,,,,0001,001,3951,2024-04-17_13h50.24.569,ADMT_r5,2023.2.3,60.044372800842154,2024-04-17 13h50.36.632723 -0500,
9,91,19,-19,ProbLL_valueL,3,2,8,0,13,13,13,151.1938309999532,,,,,,,,,,,,,,151.1702560999547,151.1938309999532,151.1938309999532,154.20137299998896,154.20137299998896,154.18599569995422,2,0.9684638999751769,None,(,),,,-19,4983,154.18662389996462,156.18622559995856,156.1862601999892,156.2043782999972,157.70269129995722,R_LOSS,157.70272459997796,165.70343379996484,,,,,,0001,001,3951,2024-04-17_13h50.24.569,ADMT_r5,2023.2.3,60.044372800842154,2024-04-17 13h50.36.632723 -0500,
87,13,2,2,ProbHH_valueL,3,1,2,0,14,14,14,165.7249430999509,,,,,,,,,,,,,,165.70402239996474,165.7249430999509,165.7249430999509,168.73575639998307,168.73575639998307,168.71987639996223,1,1.1464591000112705,None,,,+,,2,4985,168.72036769997794,169.71959179994883,169.71962019999046,169.7352916999953,171.21893529995577,A_GAIN,171.21896489994833,173.2192019999493,171.23572229995625,,,,,0001,001,3951,2024-04-17_13h50.24.569,ADMT_r5,2023.2.3,60.044372800842154,2024-04-17 13h50.36.632723 -0500,
53,47,81,-81,ProbMM_valueH,3,5,1,0,15,15,15,173.24172959994758,,,,,,,,,,,,,,173.2197165999678,173.24172959994758,173.24172959994758,176.25159029994393,176.25159029994393,176.23635179997655,1,0.9420449999743141,None,,,,,-81,4904,176.23698859999422,181.23567189997993,181.23570389999077,181.25224019994494,182.73612869996578,A_LOSS,182.7361668999656,183.73666819999926,,,,,,0001,001,3951,2024-04-17_13h50.24.569,ADMT_r5,2023.2.3,60.044372800842154,2024-04-17 13h50.36.632723 -0500,
80,20,95,95,ProbHH_valueH,3,2,1,0,16,16,16,183.75697269994998,,,,,,,,,,,,,,183.7371650999994,183.75697269994998,183.75697269994998,186.76910789997783,186.76910789997783,186.7534306999878,1,1.4758599000051618,None,,,+,,95,4999,186.75393919995986,188.75351679994492,188.7535517999786,188.7715598999639,190.2685803999775,A_GAIN,190.2686124999891,191.2692225999781,,,,,,0001,001,3951,2024-04-17_13h50.24.569,ADMT_r5,2023.2.3,60.044372800842154,2024-04-17 13h50.36.632723 -0500,
7,93,18,-18,ProbLL_valueL,3,1,4,0,17,17,17,191.2897938999813,,,,,,,,,,,,,,191.26974019996123,191.2897938999813,191.2897938999813,194.30170039995573,194.30170039995573,194.28609639999922,2,1.0180102999438532,None,(,),,,-18,4999,194.28672909998568,195.28591189999133,195.28594919998432,195.30403089994797,196.7862058999599,R_LOSS,196.78624509996735,200.7869675999973,,,,,,0001,001,3951,2024-04-17_13h50.24.569,ADMT_r5,2023.2.3,60.044372800842154,2024-04-17 13h50.36.632723 -0500,
10,90,16,-16,ProbLL_valueL,3,5,3,0,18,18,18,200.80879799998365,,,,,,,,,,,,,,200.78755239996826,200.80879799998365,200.80879799998365,203.81944849999854,203.81944849999854,203.80345689994283,2,1.6549113999935798,None,(,),,,-16,4999,203.80397059995448,208.80380749999313,208.8038434999762,208.82240179996006,210.31876619998366,R_LOSS,210.31880039995303,213.31995249999454,,,,,,0001,001,3951,2024-04-17_13h50.24.569,ADMT_r5,2023.2.3,60.044372800842154,2024-04-17 13h50.36.632723 -0500,
82,18,1,1,ProbHH_valueL,3,3,3,0,19,19,19,213.342908599996,,,,,,,,,,,,,,213.32060809998075,213.342908599996,213.342908599996,216.3519559999695,216.3519559999695,216.3362525999546,1,1.266731699986849,None,,,+,,1,5000,216.33688639994944,219.33589239994762,219.33592369995313,219.3529419999686,220.83645899995463,A_GAIN,220.8364965999499,223.83624609996332,,,,,,0001,001,3951,2024-04-17_13h50.24.569,ADMT_r5,2023.2.3,60.044372800842154,2024-04-17 13h50.36.632723 -0500,
86,14,96,96,ProbHH_valueH,3,1,2,0,20,20,20,223.85460129997227,,,,,,,,,,,,,,223.83664839999983,223.85460129997227,223.85460129997227,226.86974569997983,226.86974569997983,226.85297239996726,1,0.9765475000021979,None,,,+,,96,5096,226.85345989995403,227.8536446999642,227.8536793999956,227.87128529994516,229.3690414999728,A_GAIN,229.36907829996198,231.3696621999843,,,,,,0001,001,3951,2024-04-17_13h50.24.569,ADMT_r5,2023.2.3,60.044372800842154,2024-04-17 13h50.36.632723 -0500,
52,48,1247,1247,ProbMM_valueSH,1.5,2,4,0,21,21,21,231.3932851999998,,,,,,,,,,,,,,231.3702981999959,231.3932851999998,231.3932851999998,232.90315169998212,232.90315169998212,232.88679139997112,1,0.9670637000235729,None,,,+,,1247,6343,232.8874635999673,234.9036590999458,234.9036924999673,234.92187209997792,236.41916139994282,A_GAIN,236.41919889999554,240.41964389994973,,,,,,0001,001,3951,2024-04-17_13h50.24.569,ADMT_r5,2023.2.3,60.044372800842154,2024-04-17 13h50.36.632723 -0500,
94,6,97,97,ProbHH_valueH,3,2,1,0,22,22,22,240.4417060999549,,,,,,,,,,,,,,240.4203016999527,240.4417060999549,240.4417060999549,243.4523195999791,243.4523195999791,243.43626729998505,1,1.0976040000095963,None,,,+,,97,6440,243.43686289998004,245.43616689997725,245.43619969999418,245.4534553999547,246.93654719996266,A_GAIN,246.93658219999634,247.93651069997577,,,,,,0001,001,3951,2024-04-17_13h50.24.569,ADMT_r5,2023.2.3,60.044372800842154,2024-04-17 13h50.36.632723 -0500,
56,44,4,4,ProbMM_valueL,3,2,3,0,23,23,23,247.95799659995828,,,,,,,,,,,,,,247.93705269997008,247.95799659995828,247.95799659995828,250.9698870999855,250.9698870999855,250.9534429999767,1,1.0097581999725662,None,,,+,,4,6444,250.95410539995646,252.9532874999568,252.95332389994292,252.9729669999797,254.4697561999783,A_GAIN,254.469793199969,257.4697721999837,,,,,,0001,001,3951,2024-04-17_13h50.24.569,ADMT_r5,2023.2.3,60.044372800842154,2024-04-17 13h50.36.632723 -0500,
81,19,14,14,ProbHH_valueL,3,2,3,0,24,24,24,257.4928314999561,,,,,,,,,,,,,,257.47037909994833,257.4928314999561,257.4928314999561,260.50210249994416,260.50210249994416,260.48638339998433,1,1.2512294999905862,None,,,+,,14,6458,260.48701879999135,262.48590369999874,262.48592689994257,262.5018728999421,263.98680299997795,A_GAIN,263.9868401999702,266.9872031999985,,,,,,0001,001,3951,2024-04-17_13h50.24.569,ADMT_r5,2023.2.3,60.044372800842154,2024-04-17 13h50.36.632723 -0500,
48,52,18,-18,ProbMM_valueL,3,5,4,0,25,25,25,267.00764749996597,,,,,,,,,,,,,,266.98772049997933,267.00764749996597,267.00764749996597,270.01926979998825,270.01926979998825,270.00329759996384,2,1.4030801999615505,None,(,),,,-18,6458,270.00384319998557,275.0040194999892,275.00405519997,275.0223807999864,276.51876629999606,R_LOSS,276.51879369997187,280.5206652999623,,,,,,0001,001,3951,2024-04-17_13h50.24.569,ADMT_r5,2023.2.3,60.044372800842154,2024-04-17 13h50.36.632723 -0500,
20,80,80,-80,ProbLL_valueH,3,1,3,0,26,26,26,280.54289929999504,,,,,,,,,,,,,,280.5212450999534,280.54289929999504,280.54289929999504,283.5526179999579,283.5526179999579,283.53684709995287,2,1.289529500005301,None,(,),,,-80,6458,283.53729009995004,284.53764579998096,284.53768079995643,284.5571456999751,286.0527306999429,R_LOSS,286.0527651999728,289.0535009999876,,,,,,0001,001,3951,2024-04-17_13h50.24.569,ADMT_r5,2023.2.3,60.044372800842154,2024-04-17 13h50.36.632723 -0500,
53,47,86,86,ProbMM_valueH,3,1,4,0,27,27,27,289.0741676999605,,,,,,,,,,,,,,289.05389229999855,289.0741676999605,289.0741676999605,292.08659839996835,292.08659839996835,292.07055869995384,1,1.436685300024692,None,,,+,,86,6544,292.0710187999648,293.0704648999963,293.0705075999722,293.08924909995403,294.5870787999593,A_GAIN,294.5871128999861,298.58780139999,,,,,,0001,001,3951,2024-04-17_13h50.24.569,ADMT_r5,2023.2.3,60.044372800842154,2024-04-17 13h50.36.632723 -0500,
11,89,9,9,ProbLL_valueL,3,2,1,0,28,28,28,298.6091421999736,,,,,,,,,,,,,,298.5883896999876,298.6091421999736,298.6091421999736,301.61895599996205,301.61895599996205,301.6034632999799,2,1.707964000001084,None,(,),+,,9,6544,301.6040567999589,303.6040827999823,303.60411799995927,303.62178569997195,305.1198994999868,R_GAIN,305.1199372999836,306.120051099977,,,,,,0001,001,3951,2024-04-17_13h50.24.569,ADMT_r5,2023.2.3,60.044372800842154,2024-04-17 13h50.36.632723 -0500,
41,59,1048,1048,ProbMM_valueSH,1.5,5,8,0,29,29,29,306.1425599999493,,,,,,,,,,,,,,306.1205496999901,306.1425599999493,306.1425599999493,307.6535032999818,307.6535032999818,307.6368948999443,None,,,,,,Please respond!!!,0,6544,307.63717969995923,312.6374306999496,312.6374640999711,312.6622076999629,314.15300029999344,Dummy,314.15303229994606,322.1541139999754,,,,,,0001,001,3951,2024-04-17_13h50.24.569,ADMT_r5,2023.2.3,60.044372800842154,2024-04-17 13h50.36.632723 -0500,
89,11,97,97,ProbHH_valueH,3,3,4,0,30,30,30,322.1757532999618,,,,,,,,,,,,,,322.1547009999631,322.1757532999618,322.1757532999618,325.1867902999511,325.1867902999511,325.1700315999915,1,1.2889584999647923,None,,,+,,97,6641,325.17054649995407,328.1711543999845,328.1711970999604,328.1917624999769,329.6872970999684,A_GAIN,329.6873335999553,333.6875922999461,,,,,,0001,001,3951,2024-04-17_13h50.24.569,ADMT_r5,2023.2.3,60.044372800842154,2024-04-17 13h50.36.632723 -0500,
87,13,19,19,ProbHH_valueL,3,1,1,0,31,31,31,333.70727559999796,,,,,,,,,,,,,,333.6881182999932,333.70727559999796,333.70727559999796,336.71978269994725,336.71978269994725,336.7045228999923,1,1.181246199994348,None,,,+,,19,6660,336.7051106999861,337.70436569995945,337.70440069999313,337.72163209994324,339.22051639994606,A_GAIN,339.2205545999459,340.2202049999614,,,,,,0001,001,3951,2024-04-17_13h50.24.569,ADMT_r5,2023.2.3,60.044372800842154,2024-04-17 13h50.36.632723 -0500,
83,17,83,83,ProbHH_valueH,3,2,3,0,32,32,32,340.23953279998386,,,,,,,,,,,,,,340.22064399998635,340.23953279998386,340.23953279998386,343.2526237999555,343.2526237999555,343.23715249996167,1,1.6686758000287227,None,,,+,,83,6743,343.23766639997484,345.23684829997364,345.2368786999723,345.25483389996225,346.7374323999975,A_GAIN,346.7374695999897,349.73724229994696,,,,,,0001,001,3951,2024-04-17_13h50.24.569,ADMT_r5,2023.2.3,60.044372800842154,2024-04-17 13h50.36.632723 -0500,
49,51,1292,1292,ProbMM_valueSH,1.5,1,1,0,33,33,33,349.7569819999626,,,,,,,,,,,,,,349.73767719999887,349.7569819999626,349.7569819999626,351.2694988999865,351.2694988999865,351.2544774999842,2,1.3677712999633513,None,(,),+,,1292,6743,351.2550551999593,352.2545659999596,352.2546019000001,352.2740498999483,353.7705022999435,R_GAIN,353.7705358999665,354.7706944999518,,,,,,0001,001,3951,2024-04-17_13h50.24.569,ADMT_r5,2023.2.3,60.044372800842154,2024-04-17 13h50.36.632723 -0500,
22,78,81,-81,ProbLL_valueH,3,2,4,0,34,34,34,354.78910479997285,,,,,,,,,,,,,,354.7711060999427,354.78910479997285,354.78910479997285,357.80328769999323,357.80328769999323,357.7878342999611,2,1.7881268000346608,None,(,),,,-81,6743,357.78834699996514,359.78748799994355,359.78751729999203,359.8056620999705,361.3031004999648,R_LOSS,361.3031311999657,365.30473369994434,,,,,,0001,001,3951,2024-04-17_13h50.24.569,ADMT_r5,2023.2.3,60.044372800842154,2024-04-17 13h50.36.632723 -0500,
51,49,1301,1301,ProbMM_valueSH,1.5,2,1,0,35,35,35,365.3271117999684,,,,,,,,,,,,,,365.3053508999874,365.3271117999684,365.3271117999684,366.83742189995246,366.83742189995246,366.8214167999686,1,0.970895099977497,None,,,+,,1301,8044,366.82199329999276,368.82073879998643,368.82076589995995,368.85374959994806,370.33716679998906,A_GAIN,370.33720329997595,371.33750159997726,,,,,,0001,001,3951,2024-04-17_13h50.24.569,ADMT_r5,2023.2.3,60.044372800842154,2024-04-17 13h50.36.632723 -0500,
84,16,14,14,ProbHH_valueL,3,1,4,0,36,36,36,371.3582380999578,,,,,,,,,,,,,,371.3380866999505,371.3582380999578,371.3582380999578,374.36991799995303,374.36991799995303,374.3547522999579,1,1.802355699997861,None,,,+,,14,8058,374.35542049998185,375.3538278999622,375.3538537999848,375.3694877999951,376.85434699995676,A_GAIN,376.8543836999452,380.85452859994257,,,,,,0001,001,3951,2024-04-17_13h50.24.569,ADMT_r5,2023.2.3,60.044372800842154,2024-04-17 13h50.36.632723 -0500,
87,13,87,87,ProbHH_valueH,3,1,1,0,37,37,37,380.87458169995807,,,,,,,,,,,,,,380.8549791999976,380.87458169995807,380.87458169995807,383.88679699995555,383.88679699995555,383.87167779996525,1,1.3992810999625362,None,,,+,,87,8145,383.87226259999443,384.87174459995003,384.8717811999959,384.890251899953,386.3867021999904,A_GAIN,386.38673489994835,387.38760709995404,,,,,,0001,001,3951,2024-04-17_13h50.24.569,ADMT_r5,2023.2.3,60.044372800842154,2024-04-17 13h50.36.632723 -0500,
17,83,84,-84,ProbLL_valueH,3,5,1,0,38,38,38,387.40881669998635,,,,,,,,,,,,,,387.3881825999706,387.40881669998635,387.40881669998635,390.4199714999995,390.4199714999995,390.40406339999754,2,1.7841523000388406,None,(,),,,-84,8145,390.40466439997545,395.4042569999583,395.40429409994977,395.42423629999394,396.9044698999496,R_LOSS,396.9045074999449,397.9040220999741,,,,,,0001,001,3951,2024-04-17_13h50.24.569,ADMT_r5,2023.2.3,60.044372800842154,2024-04-17 13h50.36.632723 -0500,
77,23,95,95,ProbHH_valueH,3,5,3,0,39,39,39,397.91953879996436,,,,,,,,,,,,,,397.90443639998557,397.91953879996436,397.91953879996436,400.9208428999991,400.9208428999991,400.90478159999475,1,1.9157438999973238,None,,,+,,95,8240,400.9053379999823,405.90512099995976,405.90515569999116,405.92279209999833,407.42017429997213,A_GAIN,407.4202074999921,410.4211518999655,,,,,,0001,001,3951,2024-04-17_13h50.24.569,ADMT_r5,2023.2.3,60.044372800842154,2024-04-17 13h50.36.632723 -0500,
21,79,10,-10,ProbLL_valueL,3,1,3,0,40,40,40,410.44090959994355,,,,,,,,,,,,,,410.421643699985,410.44090959994355,410.44090959994355,413.45332049997523,413.45332049997523,413.4375614999444,2,1.0405354999820702,None,(,),,,-10,8240,413.43819789995905,414.4378073999542,414.437843599997,414.4571765999426,415.95444389997283,R_LOSS,415.95447569998214,418.9552897999529,,,,,,0001,001,3951,2024-04-17_13h50.24.569,ADMT_r5,2023.2.3,60.044372800842154,2024-04-17 13h50.36.632723 -0500,
41,59,7,-7,ProbMM_valueL,3,2,1,0,41,41,41,418.97659469995415,,,,,,,,,,,,,,418.9558650999679,418.97659469995415,418.97659469995415,421.9869611999602,421.9869611999602,421.9718469999498,2,1.629496300010942,None,(,),,,-7,8240,421.97243459994206,423.97153739997884,423.97156529995846,423.9866359999869,425.47161769995,R_LOSS,425.4716585999704,426.47129649994895,425.4867373999441,,,,,0001,001,3951,2024-04-17_13h50.24.569,ADMT_r5,2023.2.3,60.044372800842154,2024-04-17 13h50.36.632723 -0500,
46,54,91,-91,ProbMM_valueH,3,2,2,0,42,42,42,426.4925672999816,,,,,,,,,,,,,,426.47191669995664,426.4925672999816,426.4925672999816,429.50330019998364,429.50330019998364,429.4877468999475,2,1.6267169000348076,None,(,),,,-91,8240,429.48838919994887,431.48765579995234,431.4876910999883,431.5065914999577,432.98796179995406,R_LOSS,432.98800079996,434.988719499961,,,,,,0001,001,3951,2024-04-17_13h50.24.569,ADMT_r5,2023.2.3,60.044372800842154,2024-04-17 13h50.36.632723 -0500,
43,57,80,-80,ProbMM_valueH,3,1,8,0,43,43,43,435.01023869996425,,,,,,,,,,,,,,434.9893034999841,435.01023869996425,435.01023869996425,438.0211078999564,438.0211078999564,438.004604799964,2,1.490484700014349,None,(,),,,-80,8240,438.00517099996796,439.0043959999457,439.00442149996525,439.02040429995395,440.5045791999437,R_LOSS,440.504619299958,448.5052088999655,440.5209891999839,,,,,0001,001,3951,2024-04-17_13h50.24.569,ADMT_r5,2023.2.3,60.044372800842154,2024-04-17 13h50.36.632723 -0500,
10,90,93,-93,ProbLL_valueH,3,3,1,0,44,44,44,448.52678499999456,,,,,,,,,,,,,,448.5058280999656,448.52678499999456,448.52678499999456,451.53670689999126,451.53670689999126,451.5212405999773,2,1.145117299980484,None,(,),,,-93,8240,451.5218302999856,454.52111299999524,454.5211446999456,454.53856149996864,456.0212656999938,R_LOSS,456.0213021999807,457.0217125999625,,,,,,0001,001,3951,2024-04-17_13h50.24.569,ADMT_r5,2023.2.3,60.044372800842154,2024-04-17 13h50.36.632723 -0500,
80,20,85,85,ProbHH_valueH,3,1,8,0,45,45,45,457.0404864999582,,,,,,,,,,,,,,457.0221213999903,457.0404864999582,457.0404864999582,460.05448609997984,460.05448609997984,460.0383703999687,1,1.1788727999664843,None,,,+,,85,8325,460.038868899981,461.03785619995324,461.03788329998497,461.0545092999819,462.5380529999966,A_GAIN,462.5380904999911,470.5376863999991,462.5537986999843,,,,,0001,001,3951,2024-04-17_13h50.24.569,ADMT_r5,2023.2.3,60.044372800842154,2024-04-17 13h50.36.632723 -0500,
25,75,80,-80,ProbLL_valueH,3,2,3,0,46,46,46,470.5567665999988,,,,,,,,,,,,,,470.53820359997917,470.5567665999988,470.5567665999988,473.57042439997895,473.57042439997895,473.5547471999889,2,1.077600699965842,None,(,),,,-80,8325,473.55537969997386,475.5533446999616,475.55336529994383,475.5696785999462,477.0538772,R_LOSS,477.05390599998645,480.0545321999816,,,,,,0001,001,3951,2024-04-17_13h50.24.569,ADMT_r5,2023.2.3,60.044372800842154,2024-04-17 13h50.36.632723 -0500,
46,54,1359,1359,ProbMM_valueSH,1.5,3,3,0,47,47,47,480.071991099976,,,,,,,,,,,,,,480.05492199998116,480.071991099976,480.071991099976,481.5872540999553,481.5872540999553,481.5714612999582,2,1.2804573000175878,None,(,),+,,1359,8325,481.57203859998845,484.57156149996445,484.5715991999605,484.59019779996015,486.0884266999783,R_GAIN,486.08846789994277,489.0891572999535,,,,,,0001,001,3951,2024-04-17_13h50.24.569,ADMT_r5,2023.2.3,60.044372800842154,2024-04-17 13h50.36.632723 -0500,
43,57,8,-8,ProbMM_valueL,3,1,8,0,48,48,48,489.1105342999799,,,,,,,,,,,,,,489.0897639999748,489.1105342999799,489.1105342999799,492.12086589995306,492.12086589995306,492.1055563999689,2,1.0637861999566667,None,(,),,,-8,8325,492.1060637999908,493.1053700999473,493.1053964999737,493.12118389998795,494.60551389999455,R_LOSS,494.6055563999689,502.60436619998654,494.6207108999952,,,,,0001,001,3951,2024-04-17_13h50.24.569,ADMT_r5,2023.2.3,60.044372800842154,2024-04-17 13h50.36.632723 -0500,
45,55,95,95,ProbMM_valueH,3,3,3,0,49,49,49,502.62016609997954,,,,,,,,,,,,,,502.6047473999788,502.62016609997954,502.62016609997954,505.6207860999857,505.6207860999857,505.6042467999505,2,1.5169042000197805,None,(,),+,,95,8325,505.60465159994783,508.60417269996833,508.60419699997874,508.6207824999583,510.10434989997884,R_GAIN,510.104378399963,513.1057058999431,,,,,,0001,001,3951,2024-04-17_13h50.24.569,ADMT_r5,2023.2.3,60.044372800842154,2024-04-17 13h50.36.632723 -0500,
94,6,19,19,ProbHH_valueL,3,2,1,0,50,50,50,513.1271734999609,,,,,,,,,,,,,,513.1062657999573,513.1271734999609,513.1271734999609,516.1374643999734,516.1374643999734,516.1222201999626,1,1.3975324999773875,None,,,+,,19,8344,516.122829299944,518.1225574999698,518.1225971999811,518.1437361999997,519.6378724999959,A_GAIN,519.6379110999987,520.6385372999939,,,,,,0001,001,3951,2024-04-17_13h50.24.569,ADMT_r5,2023.2.3,60.044372800842154,2024-04-17 13h50.36.632723 -0500,
11,89,17,17,ProbLL_valueL,3,2,2,0,51,51,51,520.6608189999824,,,,,,,,,,,,,,520.6392156999791,520.6608189999824,520.6608189999824,523.6705276999855,523.6705276999855,523.6548969999421,2,1.9426450000028126,None,(,),+,,17,8344,523.6555418999633,525.6550521999598,525.6550864999881,525.6736469999887,527.1717694999534,R_GAIN,527.1718051999924,529.1718130999943,,,,,,0001,001,3951,2024-04-17_13h50.24.569,ADMT_r5,2023.2.3,60.044372800842154,2024-04-17 13h50.36.632723 -0500,
95,5,5,5,ProbHH_valueL,3,2,8,0,52,52,52,529.1910037999623,,,,,,,,,,,,,,529.1723477999913,529.1910037999623,529.1910037999623,532.2051167999743,532.2051167999743,532.1882819999591,1,2.0771509999758564,None,,,+,,5,8349,532.1887529999949,534.1883867999422,534.1884157999884,534.2051636999822,535.6882021999918,A_GAIN,535.6882560999948,543.6883407999994,535.7042662999593,,,,,0001,001,3951,2024-04-17_13h50.24.569,ADMT_r5,2023.2.3,60.044372800842154,2024-04-17 13h50.36.632723 -0500,
17,83,20,-20,ProbLL_valueL,3,1,1,0,53,53,53,543.7040658999467,,,,,,,,,,,,,,543.688866099983,543.7040658999467,543.7040658999467,546.7043365999707,546.7043365999707,546.6890024999739,None,,,,,,Please respond!!!,0,8349,546.6893438999541,547.6891985999537,547.6892382999649,547.7103697999846,549.2046068999916,Dummy,549.2046368999872,550.2053115999443,,,,,,0001,001,3951,2024-04-17_13h50.24.569,ADMT_r5,2023.2.3,60.044372800842154,2024-04-17 13h50.36.632723 -0500,
51,49,84,-84,ProbMM_valueH,3,2,1,0,54,54,54,550.2270760999527,,,,,,,,,,,,,,550.2058470999473,550.2270760999527,550.2270760999527,553.2377303999965,553.2377303999965,553.2221156999585,2,1.5035423000226729,None,(,),,,-84,8349,553.2227424999583,555.2217036999646,555.221728399978,555.2379328999668,556.7216459999909,R_LOSS,556.721678199945,557.7214772999869,556.7373058999656,,,,,0001,001,3951,2024-04-17_13h50.24.569,ADMT_r5,2023.2.3,60.044372800842154,2024-04-17 13h50.36.632723 -0500,
49,51,97,97,ProbMM_valueH,3,2,3,0,55,55,55,557.7418930999702,,,,,,,,,,,,,,557.7219726999756,557.7418930999702,557.7418930999702,560.7543142999639,560.7543142999639,560.7376392999431,2,1.6788361999788322,None,(,),+,,97,8349,560.7379262999748,562.7382077999646,562.738238699967,562.7566769999685,564.2549035999691,R_GAIN,564.2549414999667,567.2553411999834,,,,,,0001,001,3951,2024-04-17_13h50.24.569,ADMT_r5,2023.2.3,60.044372800842154,2024-04-17 13h50.36.632723 -0500,
,,,,,,,,,,,,,,,,,,,,,,,,,,,,,,,,,,,,,,,,,,,,,,,,,,567.2554483999847,587.255365399993,587.2553880999913,591.2727507999516,,,,,,,,,
