﻿Win,Lose,Value,RealValue,Label,ChoiceDur,ITIDur1,ITIDur2,trials.thisRepN,trials.thisTrialN,trials.thisN,trials.thisIndex,thisRow.t,notes,Welcome.started,Welcome.stopped,Review1.started,Review1.stopped,Review2.started,Review2.stopped,ScannerPulse.started,ScannerPulse.stopped,LongITI1.started,longiti1.started,longiti1.stopped,LongITI1.stopped,Choice.started,choice.started,choice_key.started,choice.stopped,choice_key.stopped,Choice.stopped,choice_key.keys,choice_key.rt,choice_key.duration,LBracket,RBracket,Gainsign,RespCheck,Outcome,totalsum,ITI1.started,ITI1.stopped,Feedback.started,feedback.started,Feedback.stopped,cond,ITI2.started,ITI2.stopped,feedback.stopped,LongITI2.started,LongITI2.stopped,BreakWindow.started,BreakWindow.stopped,participant,session,starting_score,date,expName,psychopyVersion,frameRate,expStart,
5,95,91,-91,ProbLL_valueH,3,2,1,0,0,0,0,40.27331289998256,,0.003950399986933917,1.8932851999998093,1.8933192999684252,2.774354499997571,2.774384899996221,3.8411564999842085,3.8411912999581546,20.19248729996616,20.192511799978092,20.208057999960147,40.27331289998256,40.191964800003916,40.23108699999284,40.27331289998256,40.27331289998256,43.275259499961976,43.275259499961976,43.25959889998194,2,1.3254152999725193,None,(,),,,-91,2520,43.26070839999011,45.2581050999579,45.25812029995723,45.27440499997465,46.75867859995924,R_LOSS,46.75870979996398,47.7592117000022,,,,,,0001,001,2520,2024-04-17_13h36.22.497,ADMT_r4,2023.2.3,60.00621663549489,2024-04-17 13h36.59.711158 -0500,
79,21,6,6,ProbHH_valueL,3,1,1,0,1,1,1,47.774531599949114,,,,,,,,,,,,,,47.75948569999309,47.774531599949114,47.774531599949114,50.77508819999639,50.77508819999639,50.759630399988964,1,1.4091423000209033,None,,,+,,6,2526,50.760202799981926,51.759081800002605,51.75911240000278,51.77484109997749,53.259405299962964,A_GAIN,53.25944199995138,54.258973599993624,53.27520989999175,,,,,0001,001,2520,2024-04-17_13h36.22.497,ADMT_r4,2023.2.3,60.00621663549489,2024-04-17 13h36.59.711158 -0500,
60,40,86,86,ProbMM_valueH,3,1,8,0,2,2,2,54.28141759999562,,,,,,,,,,,,,,54.25950649997685,54.28141759999562,54.28141759999562,57.29158009996172,57.29158009996172,57.275767699989956,1,1.310796199948527,None,,,+,,86,2612,57.276325099985115,58.27550869999686,58.2755354999681,58.29139829997439,59.77565719996346,A_GAIN,59.77569019998191,67.77547499997308,,,,,,0001,001,2520,2024-04-17_13h36.22.497,ADMT_r4,2023.2.3,60.00621663549489,2024-04-17 13h36.59.711158 -0500,
13,87,96,-96,ProbLL_valueH,3,1,4,0,3,3,3,67.79962529998738,,,,,,,,,,,,,,67.77592709998135,67.79962529998738,67.79962529998738,70.80823909997707,70.80823909997707,70.7922869999893,2,1.4555017999955453,None,(,),,,-96,2612,70.79284029995324,71.79259779996937,71.79262899997411,71.8106412999914,73.30883829999948,R_LOSS,73.308871599962,77.30883120000362,,,,,,0001,001,2520,2024-04-17_13h36.22.497,ADMT_r4,2023.2.3,60.00621663549489,2024-04-17 13h36.59.711158 -0500,
87,13,82,82,ProbHH_valueH,3,1,1,0,4,4,4,77.3247149999952,,,,,,,,,,,,,,77.30927410000004,77.3247149999952,77.3247149999952,80.32505359995412,80.32505359995412,80.30893169995397,1,1.2393153000157326,None,,,+,,82,2694,80.30949009995675,81.30888589995448,81.30892139999196,81.3267751999665,82.82559849997051,A_GAIN,82.82563069998287,83.82587429997511,,,,,,0001,001,2520,2024-04-17_13h36.22.497,ADMT_r4,2023.2.3,60.00621663549489,2024-04-17 13h36.59.711158 -0500,
18,82,83,-83,ProbLL_valueH,3,2,3,0,5,5,5,83.84629799996037,,,,,,,,,,,,,,83.82633929996518,83.84629799996037,83.84629799996037,86.85912280000048,86.85912280000048,86.84333000000333,2,1.457083599991165,None,(,),,,-83,2694,86.8440319999936,88.84208009997383,88.84210559999337,88.85820679995231,90.34283449995564,R_LOSS,90.34287079999922,93.34348859998863,,,,,,0001,001,2520,2024-04-17_13h36.22.497,ADMT_r4,2023.2.3,60.00621663549489,2024-04-17 13h36.59.711158 -0500,
57,43,1171,1171,ProbMM_valueSH,1.5,1,3,0,6,6,6,93.36743359995307,,,,,,,,,,,,,,93.3441108999541,93.36743359995307,93.36743359995307,94.87579259998165,94.87579259998165,94.86005759995896,1,1.0443990000057966,None,,,+,,1171,3865,94.86064799997257,95.86002039996674,95.8600494999555,95.87609049997991,97.36051359999692,A_GAIN,97.36055429995758,100.35982650000369,97.37571039999602,,,,,0001,001,2520,2024-04-17_13h36.22.497,ADMT_r4,2023.2.3,60.00621663549489,2024-04-17 13h36.59.711158 -0500,
11,89,93,-93,ProbLL_valueH,3,2,1,0,7,7,7,100.37887570000021,,,,,,,,,,,,,,100.36035869998159,100.37887570000021,100.37887570000021,103.392240999965,103.392240999965,103.37644459999865,2,1.4218708000262268,None,(,),,,-93,3865,103.37699239997892,105.37605969997821,105.37608539999928,105.39205949997995,106.8767155999667,R_LOSS,106.87675629998557,107.87659699999494,106.89250119996723,,,,,0001,001,2520,2024-04-17_13h36.22.497,ADMT_r4,2023.2.3,60.00621663549489,2024-04-17 13h36.59.711158 -0500,
59,41,90,-90,ProbMM_valueH,3,2,1,0,8,8,8,107.89794439997058,,,,,,,,,,,,,,107.87719899998046,107.89794439997058,107.89794439997058,110.90905859996565,110.90905859996565,110.8934150999994,1,1.364642400003504,None,,,,,-90,3775,110.89398779999465,112.89330110000446,112.89333729998907,112.91183349996572,114.40927479998209,A_LOSS,114.40930589998607,115.40973319998011,,,,,,0001,001,2520,2024-04-17_13h36.22.497,ADMT_r4,2023.2.3,60.00621663549489,2024-04-17 13h36.59.711158 -0500,
46,54,1469,1469,ProbMM_valueSH,1.5,2,3,0,9,9,9,115.43194989999756,,,,,,,,,,,,,,115.41031029995065,115.43194989999756,115.43194989999756,116.94242859998485,116.94242859998485,116.92646699998295,2,1.3931786000030115,None,(,),+,,1469,3775,116.92697959998623,118.92607259994838,118.92609639995499,118.94184589997167,120.42623059998732,R_GAIN,120.42626719997497,123.4266106999712,120.44187929999316,,,,,0001,001,2520,2024-04-17_13h36.22.497,ADMT_r4,2023.2.3,60.00621663549489,2024-04-17 13h36.59.711158 -0500,
53,47,95,-95,ProbMM_valueH,3,3,1,0,10,10,10,123.44570969999768,,,,,,,,,,,,,,123.42713500000536,123.44570969999768,123.44570969999768,126.4590249999892,126.4590249999892,126.4429950999911,1,1.202436099993065,None,,,,,-95,3680,126.44351189996814,129.44285789999412,129.44288619997678,129.458450599981,130.9434545999975,A_LOSS,130.94349419994978,131.94342699996196,130.95917309995275,,,,,0001,001,2520,2024-04-17_13h36.22.497,ADMT_r4,2023.2.3,60.00621663549489,2024-04-17 13h36.59.711158 -0500,
50,50,1435,-1435,ProbMM_valueSH,1.5,2,2,0,11,11,11,131.96660599997267,,,,,,,,,,,,,,131.94405449996702,131.96660599997267,131.96660599997267,133.4755831999937,133.4755831999937,133.45992860000115,1,1.3176405999693088,None,,,,,-1435,2245,133.46057739999378,135.45952189998934,135.4595700999489,135.47682479996,136.9601858999813,A_LOSS,136.96022489998722,138.96005880000303,136.9759484999813,,,,,0001,001,2520,2024-04-17_13h36.22.497,ADMT_r4,2023.2.3,60.00621663549489,2024-04-17 13h36.59.711158 -0500,
81,19,10,-10,ProbHH_valueL,3,2,2,0,12,12,12,138.98163389996625,,,,,,,,,,,,,,138.96064760000445,138.98163389996625,138.98163389996625,141.99256639997475,141.99256639997475,141.97691349999513,1,1.2996674999594688,None,,,,,-10,2235,141.97759859997313,143.97686739999335,143.97690339997644,143.9963128999807,145.49240749998717,A_LOSS,145.49243889999343,147.49265119998017,,,,,,0001,001,2520,2024-04-17_13h36.22.497,ADMT_r4,2023.2.3,60.00621663549489,2024-04-17 13h36.59.711158 -0500,
58,42,7,-7,ProbMM_valueL,3,2,4,0,13,13,13,147.51447789999656,,,,,,,,,,,,,,147.49306700000307,147.51447789999656,147.51447789999656,150.5259980999981,150.5259980999981,150.51004929997725,1,1.1258603000314906,None,,,,,-7,2228,150.51067999994848,152.5094739999622,152.5094998999848,152.52529379999032,154.00965989998076,A_LOSS,154.00969709997298,158.01018230000045,,,,,,0001,001,2520,2024-04-17_13h36.22.497,ADMT_r4,2023.2.3,60.00621663549489,2024-04-17 13h36.59.711158 -0500,
77,23,9,9,ProbHH_valueL,3,5,8,0,14,14,14,158.03135989996372,,,,,,,,,,,,,,158.01069539994933,158.03135989996372,158.03135989996372,161.04254090000177,161.04254090000177,161.02676069998415,1,0.8810351000283845,None,,,+,,9,2237,161.02735549997305,166.0266169999959,166.02664679998998,166.04434510000283,167.54391609999584,A_GAIN,167.5439513999736,175.54360939998878,,,,,,0001,001,2520,2024-04-17_13h36.22.497,ADMT_r4,2023.2.3,60.00621663549489,2024-04-17 13h36.59.711158 -0500,
6,94,17,-17,ProbLL_valueL,3,1,3,0,15,15,15,175.5638233999489,,,,,,,,,,,,,,175.54403379996074,175.5638233999489,175.5638233999489,178.57616339996457,178.57616339996457,178.56072869995842,2,1.1315343999885954,None,(,),,,-17,2237,178.56139269995037,179.56073019996984,179.56076379999286,179.5799207999953,181.07674539997242,R_LOSS,181.07677869999316,184.0770794999553,,,,,,0001,001,2520,2024-04-17_13h36.22.497,ADMT_r4,2023.2.3,60.00621663549489,2024-04-17 13h36.59.711158 -0500,
51,49,1167,1167,ProbMM_valueSH,1.5,2,1,0,16,16,16,184.09960269997828,,,,,,,,,,,,,,184.07767939998303,184.09960269997828,184.09960269997828,185.60945119999815,185.60945119999815,185.593676999968,1,1.2447844000416808,None,,,+,,1167,3404,185.59418759995606,187.59352509997552,187.59355109999888,187.60946169996168,189.09357389999786,A_GAIN,189.09361049998552,190.0935460999608,189.10960219998378,,,,,0001,001,2520,2024-04-17_13h36.22.497,ADMT_r4,2023.2.3,60.00621663549489,2024-04-17 13h36.59.711158 -0500,
53,47,1394,-1394,ProbMM_valueSH,1.5,1,8,0,17,17,17,190.11579999997048,,,,,,,,,,,,,,190.0940174999996,190.11579999997048,190.11579999997048,191.62620419997256,191.62620419997256,191.61067969998112,1,1.1778312000096776,None,,,,,-1394,2010,191.61130920000141,192.61078819999238,192.61082780000288,192.62950320000527,194.1264684999478,A_LOSS,194.12650559999747,202.12742949998938,,,,,,0001,001,2520,2024-04-17_13h36.22.497,ADMT_r4,2023.2.3,60.00621663549489,2024-04-17 13h36.59.711158 -0500,
44,56,89,-89,ProbMM_valueH,3,2,2,0,18,18,18,202.15077710000332,,,,,,,,,,,,,,202.1280966999475,202.15077710000332,202.15077710000332,205.15931309998268,205.15931309998268,205.14386279997416,2,1.4188787000020966,None,(,),,,-89,2010,205.1444631999475,207.14377619995503,207.14381079998566,207.1621675999486,208.6601846999838,R_LOSS,208.66022229997907,210.66100289998576,,,,,,0001,001,2520,2024-04-17_13h36.22.497,ADMT_r4,2023.2.3,60.00621663549489,2024-04-17 13h36.59.711158 -0500,
88,12,6,6,ProbHH_valueL,3,2,4,0,19,19,19,210.6837890999741,,,,,,,,,,,,,,210.66161399998236,210.6837890999741,210.6837890999741,213.6933748999727,213.6933748999727,213.6772970999591,1,1.25622049998492,None,,,+,,6,2016,213.6778600999969,215.67760359996464,215.67764169996371,215.69789749995107,217.1932749999687,A_GAIN,217.19331010000315,221.1939005999593,,,,,,0001,001,2520,2024-04-17_13h36.22.497,ADMT_r4,2023.2.3,60.00621663549489,2024-04-17 13h36.59.711158 -0500,
8,92,7,-7,ProbLL_valueL,3,3,1,0,20,20,20,221.214036499965,,,,,,,,,,,,,,221.19443659996614,221.214036499965,221.214036499965,224.22627649997594,224.22627649997594,224.21053499996196,2,1.0394618999562226,None,(,),,,-7,2016,224.21123799995985,227.21059239999158,227.21062769996934,227.22831889998633,228.72701769997366,R_LOSS,228.7270540999598,229.7275520999683,,,,,,0001,001,2520,2024-04-17_13h36.22.497,ADMT_r4,2023.2.3,60.00621663549489,2024-04-17 13h36.59.711158 -0500,
55,45,92,92,ProbMM_valueH,3,1,1,0,21,21,21,229.75147129996913,,,,,,,,,,,,,,229.72818169998936,229.75147129996913,229.75147129996913,232.75994689995423,232.75994689995423,232.74428709998028,1,1.4466946000466123,None,,,+,,92,2108,232.74491759994999,233.74400639999658,233.744038899953,233.76113129995065,235.25990179996006,A_GAIN,235.25993649999145,236.26040769997053,,,,,,0001,001,2520,2024-04-17_13h36.22.497,ADMT_r4,2023.2.3,60.00621663549489,2024-04-17 13h36.59.711158 -0500,
14,86,93,93,ProbLL_valueH,3,1,1,0,22,22,22,236.28049739997368,,,,,,,,,,,,,,236.26089229999343,236.28049739997368,236.28049739997368,239.29311139998026,239.29311139998026,239.27768869994907,2,1.250588599999901,None,(,),+,,93,2108,239.2783608000027,240.27676799998153,240.27679299999727,240.29253939999035,241.77705029997742,R_GAIN,241.77708699996583,242.77767609996954,,,,,,0001,001,2520,2024-04-17_13h36.22.497,ADMT_r4,2023.2.3,60.00621663549489,2024-04-17 13h36.59.711158 -0500,
21,79,90,-90,ProbLL_valueH,3,1,3,0,23,23,23,242.80002829997102,,,,,,,,,,,,,,242.7781851000036,242.80002829997102,242.80002829997102,245.81008549995022,245.81008549995022,245.79427109996323,2,1.250891000032425,None,(,),,,-90,2108,245.79487679997692,246.79435280000325,246.7943862999673,246.81302819994744,248.3099059999804,R_LOSS,248.30994369997643,251.31065299996408,,,,,,0001,001,2520,2024-04-17_13h36.22.497,ADMT_r4,2023.2.3,60.00621663549489,2024-04-17 13h36.59.711158 -0500,
10,90,81,-81,ProbLL_valueH,3,5,8,0,24,24,24,251.3339946999913,,,,,,,,,,,,,,251.311314999999,251.3339946999913,251.3339946999913,254.34319739998318,254.34319739998318,254.32744759996422,2,1.1876049999846146,None,(,),,,-81,2108,254.32812329998706,259.32699839997804,259.32703039998887,259.34364899998764,260.82755329995416,R_LOSS,260.8275841999566,268.8277989999624,260.8435587999993,,,,,0001,001,2520,2024-04-17_13h36.22.497,ADMT_r4,2023.2.3,60.00621663549489,2024-04-17 13h36.59.711158 -0500,
82,18,8,8,ProbHH_valueL,3,1,1,0,25,25,25,268.8503290999797,,,,,,,,,,,,,,268.82838929997524,268.8503290999797,268.8503290999797,271.86027439997997,271.86027439997997,271.84437730000354,1,1.147164900030475,None,,,+,,8,2116,271.84497360000387,272.8443097999552,272.8443375999923,272.8608437999501,274.3444141999935,A_GAIN,274.34445619996404,275.34439319995,274.36013039998943,,,,,0001,001,2520,2024-04-17_13h36.22.497,ADMT_r4,2023.2.3,60.00621663549489,2024-04-17 13h36.59.711158 -0500,
52,48,3,3,ProbMM_valueL,3,2,8,0,26,26,26,275.3655362999998,,,,,,,,,,,,,,275.34498299995903,275.3655362999998,275.3655362999998,278.37671599996975,278.37671599996975,278.3606978000025,1,0.9865074999979697,None,,,+,,3,2119,278.36132799996994,280.3608649999951,280.36089929996524,280.37723089999054,281.86083639995195,A_GAIN,281.86086949997116,289.86122550000437,281.87695740000345,,,,,0001,001,2520,2024-04-17_13h36.22.497,ADMT_r4,2023.2.3,60.00621663549489,2024-04-17 13h36.59.711158 -0500,
53,47,16,16,ProbMM_valueL,3,1,1,0,27,27,27,289.88494509999873,,,,,,,,,,,,,,289.8618290000013,289.88494509999873,289.88494509999873,292.893430600001,292.893430600001,292.8777584999916,1,1.0674430000362918,None,,,+,,16,2135,292.8783843999845,293.8778506999952,293.87788429996,293.89606249995995,295.3936378999497,A_GAIN,295.39367319998564,296.39400749997003,,,,,,0001,001,2520,2024-04-17_13h36.22.497,ADMT_r4,2023.2.3,60.00621663549489,2024-04-17 13h36.59.711158 -0500,
45,55,1108,-1108,ProbMM_valueSH,1.5,1,1,0,28,28,28,296.4156505999854,,,,,,,,,,,,,,296.3945190999657,296.4156505999854,296.4156505999854,297.9269733999972,297.9269733999972,297.91167659999337,None,,,,,,Please respond!!!,0,2135,297.9120200999896,298.91145099996356,298.91149420000147,298.9407557999948,300.4269276999985,Dummy,300.4269571999903,301.4274783000001,,,,,,0001,001,2520,2024-04-17_13h36.22.497,ADMT_r4,2023.2.3,60.00621663549489,2024-04-17 13h36.59.711158 -0500,
79,21,1,1,ProbHH_valueL,3,3,3,0,29,29,29,301.44833089999156,,,,,,,,,,,,,,301.42807189997984,301.44833089999156,301.44833089999156,304.4603028999991,304.4603028999991,304.444202099985,1,1.717949200014118,None,,,+,,1,2136,304.44480289996136,307.44419379998,307.4442299999646,307.46163899998646,308.96053449995816,A_GAIN,308.96056819998194,311.9613651999971,,,,,,0001,001,2520,2024-04-17_13h36.22.497,ADMT_r4,2023.2.3,60.00621663549489,2024-04-17 13h36.59.711158 -0500,
48,52,15,-15,ProbMM_valueL,3,1,3,0,30,30,30,311.9820717999828,,,,,,,,,,,,,,311.9619404999539,311.9820717999828,311.9820717999828,314.9937561999541,314.9937561999541,314.9777908999822,2,1.3799731000326574,None,(,),,,-15,2136,314.978405599948,315.97820189996855,315.9782338999794,315.99656289996346,317.4938986999914,R_LOSS,317.4939361999859,320.4943357000011,,,,,,0001,001,2520,2024-04-17_13h36.22.497,ADMT_r4,2023.2.3,60.00621663549489,2024-04-17 13h36.59.711158 -0500,
9,91,15,-15,ProbLL_valueL,3,1,2,0,31,31,31,320.51628689997597,,,,,,,,,,,,,,320.49500850000186,320.51628689997597,320.51628689997597,323.5270102999639,323.5270102999639,323.5110418999684,2,1.022134700033348,None,(,),,,-15,2136,323.511657199997,324.51108470000327,324.511119599978,324.5269734999747,326.01140739995753,R_LOSS,326.0114493999863,328.0113919999567,326.0272026999737,,,,,0001,001,2520,2024-04-17_13h36.22.497,ADMT_r4,2023.2.3,60.00621663549489,2024-04-17 13h36.59.711158 -0500,
24,76,92,-92,ProbLL_valueH,3,3,2,0,32,32,32,328.0323836999596,,,,,,,,,,,,,,328.01189449999947,328.0323836999596,328.0323836999596,331.04334139998537,331.04334139998537,331.0275415999931,2,1.3450246999855153,None,(,),,,-92,2136,331.0281602999894,334.02823159995023,334.0282678999938,334.04692739999155,335.5438600999769,R_LOSS,335.5438970999676,337.54434530000435,,,,,,0001,001,2520,2024-04-17_13h36.22.497,ADMT_r4,2023.2.3,60.00621663549489,2024-04-17 13h36.59.711158 -0500,
5,95,10,-10,ProbLL_valueL,3,2,4,0,33,33,33,337.5661422999692,,,,,,,,,,,,,,337.5448926999816,337.5661422999692,337.5661422999692,340.5769079999882,340.5769079999882,340.5608238999848,2,1.196257500036154,None,(,),,,-10,2136,340.5613786999602,342.56143359997077,342.5614733999828,342.5811988999485,344.0775066999486,R_LOSS,344.0775428999914,348.07804910000414,,,,,,0001,001,2520,2024-04-17_13h36.22.497,ADMT_r4,2023.2.3,60.00621663549489,2024-04-17 13h36.59.711158 -0500,
91,9,12,12,ProbHH_valueL,3,2,1,0,34,34,34,348.09964679996483,,,,,,,,,,,,,,348.0785981999943,348.09964679996483,348.09964679996483,351.11056339996867,351.11056339996867,351.0948673999519,1,1.0076393999624997,None,,,+,,12,2148,351.09553249995224,353.09499329997925,353.0950280999532,353.1140708999592,354.61066949996166,A_GAIN,354.6107024999801,355.61119159997907,,,,,,0001,001,2520,2024-04-17_13h36.22.497,ADMT_r4,2023.2.3,60.00621663549489,2024-04-17 13h36.59.711158 -0500,
51,49,1,-1,ProbMM_valueL,3,3,3,0,35,35,35,355.63193889998365,,,,,,,,,,,,,,355.61173469998175,355.63193889998365,355.63193889998365,358.6437063999474,358.6437063999474,358.62790739996126,1,1.4029028000077233,None,,,,,-1,2147,358.6285038999631,361.6280006999732,361.62803550000535,361.6458597999881,363.1440926999785,A_LOSS,363.14412599999923,366.14495019998867,,,,,,0001,001,2520,2024-04-17_13h36.22.497,ADMT_r4,2023.2.3,60.00621663549489,2024-04-17 13h36.59.711158 -0500,
22,78,4,-4,ProbLL_valueL,3,2,3,0,36,36,36,366.16638989996864,,,,,,,,,,,,,,366.14549589995295,366.16638989996864,366.16638989996864,369.1772667999612,369.1772667999612,369.16161479998846,2,0.8747229999862611,None,(,),,,-4,2147,369.162173299992,371.16197239997564,371.16201089997776,371.1812992999912,372.67738519998966,R_LOSS,372.67741809994914,375.67799039999954,,,,,,0001,001,2520,2024-04-17_13h36.22.497,ADMT_r4,2023.2.3,60.00621663549489,2024-04-17 13h36.59.711158 -0500,
7,93,4,-4,ProbLL_valueL,3,5,1,0,37,37,37,375.69869419996394,,,,,,,,,,,,,,375.67853350000223,375.69869419996394,375.69869419996394,378.7106613999931,378.7106613999931,378.69483289995696,2,0.9227698000031523,None,(,),,,-4,2147,378.69538399996236,383.6952930999687,383.6953297999571,383.71087139996234,385.1951985999476,R_LOSS,385.19523989997106,386.1949034999707,385.21077359997435,,,,,0001,001,2520,2024-04-17_13h36.22.497,ADMT_r4,2023.2.3,60.00621663549489,2024-04-17 13h36.59.711158 -0500,
80,20,95,95,ProbHH_valueH,3,2,1,0,38,38,38,386.2168798999628,,,,,,,,,,,,,,386.1955144999665,386.2168798999628,386.2168798999628,389.22735040000407,389.22735040000407,389.21141369995894,1,1.2280759999994189,None,,,+,,95,2242,389.21198569994885,391.212276599952,391.2123139000032,391.23070739995455,392.72769069997594,A_GAIN,392.7277241999982,393.72837759996764,,,,,,0001,001,2520,2024-04-17_13h36.22.497,ADMT_r4,2023.2.3,60.00621663549489,2024-04-17 13h36.59.711158 -0500,
42,58,1215,-1215,ProbMM_valueSH,1.5,3,1,0,39,39,39,393.7485288999742,,,,,,,,,,,,,,393.7288622999913,393.7485288999742,393.7485288999742,395.26069229998393,395.26069229998393,395.2450404999545,2,1.2023960000369698,None,(,),,,-1215,2242,395.2456747999531,398.24530059995595,398.2453381999512,398.26581969996914,399.76098229998024,R_LOSS,399.76101509999717,400.7621504999697,,,,,,0001,001,2520,2024-04-17_13h36.22.497,ADMT_r4,2023.2.3,60.00621663549489,2024-04-17 13h36.59.711158 -0500,
80,20,82,82,ProbHH_valueH,3,3,3,0,40,40,40,400.782709799998,,,,,,,,,,,,,,400.7626221999526,400.782709799998,400.782709799998,403.79428059997736,403.79428059997736,403.7782446999918,1,1.3095374000258744,None,,,+,,82,2324,403.77874280000106,406.77881859999616,406.7788556999876,406.79761329997564,408.29427719995147,A_GAIN,408.2943089999608,411.29533599998103,,,,,,0001,001,2520,2024-04-17_13h36.22.497,ADMT_r4,2023.2.3,60.00621663549489,2024-04-17 13h36.59.711158 -0500,
54,46,6,-6,ProbMM_valueL,3,1,1,0,41,41,41,411.31848259997787,,,,,,,,,,,,,,411.2960009999806,411.31848259997787,411.31848259997787,414.32757699996,414.32757699996,414.31167089997325,1,1.3041405000258237,None,,,,,-6,2318,414.31224089994794,415.31215449998854,415.31218319997424,415.32844279997516,416.8120448999689,A_LOSS,416.81208489998244,417.8121263999492,416.8279291999643,,,,,0001,001,2520,2024-04-17_13h36.22.497,ADMT_r4,2023.2.3,60.00621663549489,2024-04-17 13h36.59.711158 -0500,
53,47,17,17,ProbMM_valueL,3,5,1,0,42,42,42,417.8327773999772,,,,,,,,,,,,,,417.8126601999975,417.8327773999772,417.8327773999772,420.8442202999722,420.8442202999722,420.82856499997433,1,1.2420996999717318,None,,,+,,17,2335,420.82916490000207,425.82900119997794,425.82903579995036,425.8477325999993,427.34448649996193,A_GAIN,427.34451649995754,428.3450191000011,,,,,,0001,001,2520,2024-04-17_13h36.22.497,ADMT_r4,2023.2.3,60.00621663549489,2024-04-17 13h36.59.711158 -0500,
60,40,90,90,ProbMM_valueH,3,2,4,0,43,43,43,428.36604609998176,,,,,,,,,,,,,,428.34561809996376,428.36604609998176,428.36604609998176,431.3776164999581,431.3776164999581,431.36286429996835,1,1.1993503000121564,None,,,+,,90,2425,431.3635183000006,433.3626974999788,433.36273229995277,433.38309899996966,434.87825079995673,A_GAIN,434.87829339999007,438.8789331999724,,,,,,0001,001,2520,2024-04-17_13h36.22.497,ADMT_r4,2023.2.3,60.00621663549489,2024-04-17 13h36.59.711158 -0500,
90,10,87,87,ProbHH_valueH,3,1,1,0,44,44,44,438.9032173999585,,,,,,,,,,,,,,438.8795762999798,438.9032173999585,438.9032173999585,441.9111973999534,441.9111973999534,441.8955943000037,1,0.8979830999742262,None,,,+,,87,2512,441.89620219997596,442.8950766999624,442.8951026999857,442.9116202999721,444.39543019997654,A_GAIN,444.39546929998323,445.39515439997194,,,,,,0001,001,2520,2024-04-17_13h36.22.497,ADMT_r4,2023.2.3,60.00621663549489,2024-04-17 13h36.59.711158 -0500,
22,78,4,-4,ProbLL_valueL,3,1,1,0,45,45,45,445.4170103999786,,,,,,,,,,,,,,445.39572329999646,445.4170103999786,445.4170103999786,448.4277924000053,448.4277924000053,448.412791699986,2,1.2616332999896258,None,(,),,,-4,2512,448.4134234999656,449.4117059999844,449.4117357999785,449.4318260999862,450.92810989997815,R_LOSS,450.9281448999536,451.9284924999811,,,,,,0001,001,2520,2024-04-17_13h36.22.497,ADMT_r4,2023.2.3,60.00621663549489,2024-04-17 13h36.59.711158 -0500,
80,20,10,10,ProbHH_valueL,3,1,3,0,46,46,46,451.9456790999975,,,,,,,,,,,,,,451.92890239995904,451.9456790999975,451.9456790999975,454.94489349995274,454.94489349995274,454.92909459996736,1,1.2698904999997467,None,,,+,,10,2522,454.9297324999934,455.9289927999489,455.92902169999434,455.94769599998835,457.44496329996036,A_GAIN,457.444999899948,460.44552009995095,,,,,,0001,001,2520,2024-04-17_13h36.22.497,ADMT_r4,2023.2.3,60.00621663549489,2024-04-17 13h36.59.711158 -0500,
25,75,11,11,ProbLL_valueL,3,2,8,0,47,47,47,460.46681409998564,,,,,,,,,,,,,,460.44614620000357,460.46681409998564,460.46681409998564,463.47872659994755,463.47872659994755,463.46235259994864,2,0.8027695000055246,None,(,),+,,11,2522,463.46298209996894,465.4623924999614,465.46242889994755,465.48257539997576,466.97827439999674,R_GAIN,466.97830779996,474.9792770999484,,,,,,0001,001,2520,2024-04-17_13h36.22.497,ADMT_r4,2023.2.3,60.00621663549489,2024-04-17 13h36.59.711158 -0500,
89,11,97,97,ProbHH_valueH,3,2,3,0,48,48,48,475.0007110000006,,,,,,,,,,,,,,474.97978009999497,475.0007110000006,475.0007110000006,478.0114255999797,478.0114255999797,477.99578469997505,1,1.0424654000089504,None,,,+,,97,2619,477.99634219997097,479.99571200000355,479.9957356999512,480.0115637999843,481.4963656999753,A_GAIN,481.49640509998426,484.4952566999709,481.51163789996644,,,,,0001,001,2520,2024-04-17_13h36.22.497,ADMT_r4,2023.2.3,60.00621663549489,2024-04-17 13h36.59.711158 -0500,
42,58,12,12,ProbMM_valueL,3,2,2,0,49,49,49,484.5155366999679,,,,,,,,,,,,,,484.49574250000296,484.5155366999679,484.5155366999679,487.5289102999959,487.5289102999959,487.51254679996055,2,1.1608092000242323,None,(,),+,,12,2619,487.513223499991,489.5123729999759,489.5124074999476,489.5312318999786,491.02855499996804,R_GAIN,491.02858679997735,493.02950109995436,,,,,,0001,001,2520,2024-04-17_13h36.22.497,ADMT_r4,2023.2.3,60.00621663549489,2024-04-17 13h36.59.711158 -0500,
58,42,1244,1244,ProbMM_valueSH,1.5,5,4,0,50,50,50,493.0518136000028,,,,,,,,,,,,,,493.0300494999974,493.0518136000028,493.0518136000028,494.5616747000022,494.5616747000022,494.5460796999978,1,1.0783835999900475,None,,,+,,1244,3863,494.54664409998804,499.54601799999364,499.54605730000185,499.56488219997846,501.0618606999633,A_GAIN,501.0618940999848,505.06284219998633,,,,,,0001,001,2520,2024-04-17_13h36.22.497,ADMT_r4,2023.2.3,60.00621663549489,2024-04-17 13h36.59.711158 -0500,
79,21,88,88,ProbHH_valueH,3,1,2,0,51,51,51,505.08390139997937,,,,,,,,,,,,,,505.0633452999755,505.08390139997937,505.08390139997937,508.0952182000037,508.0952182000037,508.07923249999294,1,1.346613600035198,None,,,+,,88,3951,508.0798028999707,509.0794801999582,509.079520099971,509.0995058999979,510.59595789999,A_GAIN,510.5959912999533,512.5947540999623,,,,,,0001,001,2520,2024-04-17_13h36.22.497,ADMT_r4,2023.2.3,60.00621663549489,2024-04-17 13h36.59.711158 -0500,
84,16,86,-86,ProbHH_valueH,3,5,8,0,52,52,52,512.610726599989,,,,,,,,,,,,,,512.5951464999816,512.610726599989,512.610726599989,515.6117305999505,515.6117305999505,515.5968439999851,1,1.2248894000076689,None,,,,,-86,3865,515.5975052999565,520.5957693999517,520.5958023999701,520.6136074999813,522.1120935999788,A_LOSS,522.1121251999866,530.1130851999624,,,,,,0001,001,2520,2024-04-17_13h36.22.497,ADMT_r4,2023.2.3,60.00621663549489,2024-04-17 13h36.59.711158 -0500,
95,5,86,86,ProbHH_valueH,3,2,4,0,53,53,53,530.1355221999693,,,,,,,,,,,,,,530.1137114999583,530.1355221999693,530.1355221999693,533.145169299969,533.145169299969,533.130421299953,1,0.94816259999061,None,,,+,,86,3951,533.1310075999936,535.129800499999,535.1298399999505,535.1487577999942,536.6451833999599,A_GAIN,536.6452170999837,540.6458473999519,,,,,,0001,001,2520,2024-04-17_13h36.22.497,ADMT_r4,2023.2.3,60.00621663549489,2024-04-17 13h36.59.711158 -0500,
45,55,92,92,ProbMM_valueH,3,1,3,0,54,54,54,540.6656364999944,,,,,,,,,,,,,,540.6463264999911,540.6656364999944,540.6656364999944,543.6784040999482,543.6784040999482,543.6626186999492,2,1.166243800020311,None,(,),+,,92,3951,543.663137800002,544.662450200005,544.6624873999972,544.6796068999683,546.1632220000029,R_GAIN,546.1632637999719,549.1630205999827,546.1787536999909,,,,,0001,001,2520,2024-04-17_13h36.22.497,ADMT_r4,2023.2.3,60.00621663549489,2024-04-17 13h36.59.711158 -0500,
41,59,92,-92,ProbMM_valueH,3,5,3,0,55,55,55,549.1859008999891,,,,,,,,,,,,,,549.1636474999832,549.1859008999891,549.1859008999891,552.1959089000011,552.1959089000011,552.179593799985,2,0.9127880000160076,None,(,),,,-92,3951,552.1801780999522,557.1800188999623,557.1800550000044,557.2006972999661,558.6955120999482,R_LOSS,558.6955449999659,561.6963926999597,,,,,,0001,001,2520,2024-04-17_13h36.22.497,ADMT_r4,2023.2.3,60.00621663549489,2024-04-17 13h36.59.711158 -0500,
,,,,,,,,,,,,,,,,,,,,,,,,,,,,,,,,,,,,,,,,,,,,,,,,,,561.6965501999948,581.6965214999509,581.6965553999762,585.7124571999884,,,,,,,,,
