State		Iter	X	Y 	Angle	Timestamp
Instruct		Start	begin-KFC	end-HomeDepot	steps25	13:26:09.470
EndInstruct		End	begin-KFC	end-HomeDepot	steps25	13:26:12.470
EndConsider		Start	begin-KFC	end-HomeDepot	steps25	13:26:12.487
EndConsider		End	begin-KFC	end-HomeDepot	steps25	13:26:16.487
DistJudge		Start	begin-KFC	end-HomeDepot	steps25	13:26:16.509
DistJudge		End	begin-KFC	end-HomeDepot	17steps	13:26:28.953
location	0	11	6	270	13:26:32.187
location	1	11	6	270	13:26:32.436
location	2	11	6	270	13:26:32.685
location	3	11	6	270	13:26:32.936
location	4	11	6	315	13:26:33.190
location	5	11	6	0	13:26:33.435
location	6	11	6	0	13:26:33.685
location	7	11	5	0	13:26:33.934
location	8	11	5	0	13:26:34.184
location	9	11	4	0	13:26:34.434
location	10	11	3	0	13:26:34.684
location	11	11	2	0	13:26:34.933
location	12	11	1	0	13:26:35.184
location	13	11	0	0	13:26:35.433
location	14	11	0	0	13:26:35.683
location	15	11	0	315	13:26:35.933
location	16	11	0	315	13:26:36.184
location	17	11	0	315	13:26:36.433
location	18	11	0	270	13:26:36.685
location	19	11	0	270	13:26:36.935
location	20	11	0	270	13:26:37.185
location	21	10	0	270	13:26:37.435
location	22	9	0	270	13:26:37.686
location	23	8	0	270	13:26:37.935
location	24	7	0	270	13:26:38.184
location	25	6	0	270	13:26:38.434
location	26	5	0	270	13:26:38.684
location	27	4	0	270	13:26:38.934
location	28	3	0	270	13:26:39.184
location	29	2	0	270	13:26:39.434
location	30	2	0	270	13:26:39.683
location	31	1	0	270	13:26:39.934
location	32	0	0	270	13:26:40.182
location	33	0	0	270	13:26:40.433
location	34	0	0	270	13:26:40.682
location	35	0	0	225	13:26:40.933
location	36	0	0	180	13:26:41.184
location	37	0	0	180	13:26:41.419
location	38	0	0	180	13:26:41.686
location	39	0	1	180	13:26:41.936
location	40	0	1	180	13:26:42.186
location	41	0	2	180	13:26:42.437
location	42	0	3	180	13:26:42.685
location	43	0	3	180	13:26:42.935
location	44	0	4	180	13:26:43.186
location	45	0	5	180	13:26:43.436
location	46	0	6	180	13:26:43.685
location	47	0	7	180	13:26:43.934
location	48	0	7	180	13:26:44.184
location	49	0	8	180	13:26:44.434
location	50	0	8	180	13:26:44.684
location	51	0	8	135	13:26:44.935
location	52	0	8	135	13:26:45.185
location	53	0	8	135	13:26:45.436
location	54	0	8	135	13:26:45.686
location	55	0	8	90	13:26:45.936
location	56	0	8	90	13:26:46.186
location	57	0	8	90	13:26:46.435
location	58	0	8	90	13:26:46.685
location	59	0	8	90	13:26:46.935
location	60	0	8	90	13:26:47.186
location	61	0	8	90	13:26:47.435
location	62	0	8	90	13:26:47.685
location	63	0	8	90	13:26:47.935
location	64	0	8	90	13:26:48.185
location	65	0	8	90	13:26:48.435
location	66	0	8	90	13:26:48.685
location	67	0	8	90	13:26:48.935
location	68	0	8	90	13:26:49.186
location	69	0	8	90	13:26:49.435
location	70	0	8	90	13:26:49.686
NpcDialog		71	0	8	4	13:26:49.938
location	71	0	8	90	13:26:49.941
location	72	0	8	90	13:26:50.172
location	73	0	8	90	13:26:50.419
location	74	0	8	90	13:26:50.670
location	75	0	8	90	13:26:50.921
location	76	0	8	90	13:26:51.172
location	77	0	8	90	13:26:51.423
location	78	0	8	90	13:26:51.671
NpcDialog	79	4	0	1	13:26:51.906
location	79	0	8	90	13:26:51.920
Endtrial	——————1——————————13:27:06.102
Instruct		Start	begin-DunkinDonuts	end-Barnes&Noble	steps15	13:27:06.119
EndInstruct		End	begin-DunkinDonuts	end-Barnes&Noble	steps15	13:27:09.103
EndConsider		Start	begin-DunkinDonuts	end-Barnes&Noble	steps15	13:27:09.119
EndConsider		End	begin-DunkinDonuts	end-Barnes&Noble	steps15	13:27:13.119
DistJudge		Start	begin-DunkinDonuts	end-Barnes&Noble	steps15	13:27:13.137
DistJudge		End	begin-DunkinDonuts	end-Barnes&Noble	9steps	13:27:18.971
location	0	9	0	180	13:27:22.170
location	1	9	0	180	13:27:22.420
location	2	9	0	180	13:27:22.670
location	3	9	0	180	13:27:22.920
location	4	9	0	135	13:27:23.170
location	5	9	0	90	13:27:23.433
location	6	9	0	90	13:27:23.682
location	7	9	0	90	13:27:23.934
location	8	9	0	90	13:27:24.182
location	9	9	0	90	13:27:24.433
location	10	9	0	90	13:27:24.684
location	11	10	0	90	13:27:24.933
location	12	10	0	90	13:27:25.182
location	13	11	0	90	13:27:25.433
location	14	11	0	90	13:27:25.682
location	15	11	0	135	13:27:25.933
location	16	11	0	135	13:27:26.183
location	17	11	0	180	13:27:26.433
location	18	11	0	180	13:27:26.669
location	19	11	0	180	13:27:26.920
location	20	11	1	180	13:27:27.185
location	21	11	2	180	13:27:27.441
location	22	11	3	180	13:27:27.684
location	23	11	4	180	13:27:27.935
location	24	11	5	180	13:27:28.185
location	25	11	6	180	13:27:28.434
location	26	11	7	180	13:27:28.685
location	27	11	8	180	13:27:28.934
location	28	11	9	180	13:27:29.183
location	29	11	10	180	13:27:29.433
location	30	11	11	180	13:27:29.683
location	31	11	11	180	13:27:29.934
location	32	11	11	180	13:27:30.183
location	33	11	11	225	13:27:30.433
location	34	11	11	225	13:27:30.684
location	35	11	11	270	13:27:30.934
location	36	11	11	270	13:27:31.169
location	37	10	11	270	13:27:31.419
location	38	10	11	270	13:27:31.687
location	39	9	11	270	13:27:31.935
location	40	9	11	270	13:27:32.185
location	41	9	11	270	13:27:32.435
location	42	9	11	315	13:27:32.685
location	43	9	11	0	13:27:32.937
location	44	9	11	0	13:27:33.185
location	45	9	11	0	13:27:33.435
location	46	9	11	0	13:27:33.685
location	47	9	11	0	13:27:33.934
NpcDialog		48	9	11	2	13:27:34.186
location	48	9	11	0	13:27:34.189
location	49	9	11	0	13:27:34.420
location	50	9	11	0	13:27:34.670
location	51	9	11	0	13:27:34.922
NpcDialog	52	2	0	1	13:27:35.072
location	52	9	11	0	13:27:35.171
