﻿Win,Lose,Value,RealValue,Label,ITIDur1,ITIDur2,trials.thisRepN,trials.thisTrialN,trials.thisN,trials.thisIndex,thisRow.t,notes,Welcome.started,Welcome.stopped,Review1.started,Review1.stopped,Review2.started,Review2.stopped,ScannerPulse.started,ScannerPulse.stopped,LongITI1.started,longiti1.started,longiti1.stopped,LongITI1.stopped,Choice.started,choice.started,choice_key.started,Choice.stopped,choice_key.keys,LBracket,RBracket,Gainsign,RespCheck,Outcome,totalsum,ITI1.started,ITI1.stopped,Feedback.started,feedback.started,feedback.stopped,Feedback.stopped,cond,ITI2.started,ITI2.stopped,choice.stopped,choice_key.stopped,LongITI2.started,LongITI2.stopped,BreakWindow.started,BreakWindow.stopped,participant,session,starting_score,date,expName,psychopyVersion,frameRate,expStart,
66,34,5,-5,ProbMH_valueL,0.1,0.2,0,0,0,0,24.00769808399491,,0.009712500032037497,1.860599417006597,1.8606134168803692,2.3966846249531955,2.3967072919476777,3.0137907918542624,3.0138162919320166,3.9794808339793235,3.9794912920333445,3.986025624908507,24.00769808399491,23.97926229191944,23.992590583860874,24.00769808399491,24.00769808399491,26.983867292059585,None,,,,Please respond!!!,0,639,26.984288333915174,27.07924524997361,27.07927054190077,27.091153499903157,28.585777166998014,28.57932083401829,Dummy,28.579344667028636,28.7691810419783,,,,,,,9999,001,639,2024-03-27_12h05.41.129,ADMT_r4,2023.2.3,None,2024-03-27 12h06.12.761982 -0500,
34,66,2,-2,ProbML_valueL,0.1,0.2,0,1,1,1,28.77832654188387,,,,,,,,,,,,,,28.76943820901215,28.77832654188387,28.77832654188387,31.762552874861285,None,,,,Please respond!!!,0,639,31.762678666971624,31.850632041925564,31.850649208994582,31.862119583878666,33.35048570903018,33.34574783407152,Dummy,33.34575695893727,33.535823083948344,31.767584834014997,31.767584834014997,,,,,9999,001,639,2024-03-27_12h05.41.129,ADMT_r4,2023.2.3,None,2024-03-27 12h06.12.761982 -0500,
12,88,55,-55,ProbLL_valueM,0.1,0.2,0,2,2,2,33.545713499886915,,,,,,,,,,,,,,33.53605058393441,33.545713499886915,33.545713499886915,36.52963429200463,None,,,,Please respond!!!,0,639,36.52992158406414,36.629514042055234,36.629539666930214,36.63522420893423,38.128684625029564,38.11926941690035,Dummy,38.11927987495437,38.31274583400227,36.536281999899074,36.536281999899074,,,,,9999,001,639,2024-03-27_12h05.41.129,ADMT_r4,2023.2.3,None,2024-03-27 12h06.12.761982 -0500,
67,33,101,101,ProbMH_valueH,0.1,0.2,0,3,3,3,38.322956250049174,,,,,,,,,,,,,,38.31329674995504,38.322956250049174,38.322956250049174,41.312594125047326,None,,,,Please respond!!!,0,639,41.312887124950066,41.402993167052045,41.40300308400765,41.41212983406149,42.90164787485264,42.89597345888615,Dummy,42.895995708880946,43.09555279207416,41.318548624869436,41.318548624869436,,,,,9999,001,639,2024-03-27_12h05.41.129,ADMT_r4,2023.2.3,None,2024-03-27 12h06.12.761982 -0500,
75,25,11,11,ProbMH_valueL,0.1,20,0,4,4,4,43.10388045897707,,,,,,,,,,,,,,43.095749833853915,43.10388045897707,43.10388045897707,46.09587133396417,None,,,,Please respond!!!,0,639,46.09615516685881,46.18518154206686,46.185201375046745,46.19525458384305,47.685506416950375,47.67907120892778,Dummy,47.67911237501539,67.66904208390042,46.10208908398636,46.10208908398636,,,,,9999,001,639,2024-03-27_12h05.41.129,ADMT_r4,2023.2.3,None,2024-03-27 12h06.12.761982 -0500,
69,31,110,-110,ProbMH_valueH,0.1,0.2,0,5,5,5,67.67884800001048,,,,,,,,,,,,,,67.66954445885494,67.67884800001048,67.67884800001048,70.66276295902207,None,,,,Please respond!!!,0,639,70.66303841699846,70.76261137495749,70.76263424986973,70.7690243339166,72.26186754205264,72.25212562503293,Dummy,72.2521340418607,72.44550670892932,70.66859229188412,70.66859229188412,,,,,9999,001,639,2024-03-27_12h05.41.129,ADMT_r4,2023.2.3,None,2024-03-27 12h06.12.761982 -0500,
92,8,101,101,ProbHH_valueH,0.1,0.2,0,6,6,6,72.45374441705644,,,,,,,,,,,,,,72.44570358400233,72.45374441705644,72.45374441705644,75.4455371669028,None,,,,Please respond!!!,0,639,75.44567433395423,75.54556666687131,75.54557704203762,75.55038691684604,77.04525895905681,77.0339480000548,Dummy,77.0339637089055,77.22937491699122,75.45197812491097,75.45197812491097,,,,,9999,001,639,2024-03-27_12h05.41.129,ADMT_r4,2023.2.3,None,2024-03-27 12h06.12.761982 -0500,
94,6,8,8,ProbHH_valueL,0.1,0.2,0,7,7,7,77.23941124998964,,,,,,,,,,,,,,77.22985454206355,77.23941124998964,77.23941124998964,80.22945983405225,None,,,,Please respond!!!,0,639,80.22974329185672,80.31847366690636,80.31849237484857,80.32845970895141,81.8182062918786,81.81262033386156,Dummy,81.81264183390886,82.00201920885593,80.23535258392803,80.23535258392803,,,,,9999,001,639,2024-03-27_12h05.41.129,ADMT_r4,2023.2.3,None,2024-03-27 12h06.12.761982 -0500,
26,74,50,-50,ProbML_valueM,0.1,0.2,0,8,8,8,82.01167050004005,,,,,,,,,,,,,,82.00224287505262,82.01167050004005,82.01167050004005,84.99583312496543,None,,,,Please respond!!!,0,639,84.99613099987619,85.08555279206485,85.08556875004433,85.09524574992247,86.58535083406605,86.57920479192398,Dummy,86.57922670897096,86.76917687500827,85.00229091686197,85.00229091686197,,,,,9999,001,639,2024-03-27_12h05.41.129,ADMT_r4,2023.2.3,None,2024-03-27 12h06.12.761982 -0500,
31,69,10,-10,ProbML_valueL,0.1,20,0,9,9,9,86.77768862503581,,,,,,,,,,,,,,86.7694059589412,86.77768862503581,86.77768862503581,89.76259874994867,None,,,,Please respond!!!,0,639,89.76289033400826,89.86225983407348,89.86227212497033,89.867092249915,91.36181050003506,91.35229395888746,Dummy,91.35230370890349,111.34581970889121,89.76878316700459,89.76878316700459,,,,,9999,001,639,2024-03-27_12h05.41.129,ADMT_r4,2023.2.3,None,2024-03-27 12h06.12.761982 -0500,
92,8,56,56,ProbHH_valueM,0.1,0.2,0,10,10,10,111.35495291696861,,,,,,,,,,,,,,111.34627612493932,111.35495291696861,111.35495291696861,114.34575904207304,None,,,,Please respond!!!,0,639,114.34603991685435,114.44562016706914,114.44564504199661,114.45169945899397,115.94516150001436,115.93520320905373,Dummy,115.93521733395755,116.12937474995852,114.35211395891383,114.35211395891383,,,,,9999,001,639,2024-03-27_12h05.41.129,ADMT_r4,2023.2.3,None,2024-03-27 12h06.12.761982 -0500,
24,76,60,-60,ProbML_valueM,0.1,0.2,0,11,11,11,116.13938845903613,,,,,,,,,,,,,,116.12983099999838,116.13938845903613,116.13938845903613,119.12918312498368,None,,,,Please respond!!!,0,639,119.12946791690774,119.21956562506966,119.21957954205573,119.22892670892179,120.71826295903884,120.71275745891035,Dummy,120.71277858386748,120.90162154193968,119.13428370887414,119.13428370887414,,,,,9999,001,639,2024-03-27_12h05.41.129,ADMT_r4,2023.2.3,None,2024-03-27 12h06.12.761982 -0500,
10,90,109,-109,ProbLL_valueH,0.1,0.2,0,12,12,12,120.91158441687003,,,,,,,,,,,,,,120.90186899993569,120.91158441687003,120.91158441687003,123.89583200006746,None,,,,Please respond!!!,0,639,123.89611304202117,123.99574216688052,123.9957672089804,124.00114779197611,125.49554583407007,125.4852417500224,Dummy,125.48525454197079,125.67886124993674,123.90256787487306,123.90256787487306,,,,,9999,001,639,2024-03-27_12h05.41.129,ADMT_r4,2023.2.3,None,2024-03-27 12h06.12.761982 -0500,
9,91,5,-5,ProbLL_valueL,0.1,0.2,0,13,13,13,125.68843774986453,,,,,,,,,,,,,,125.67930445889942,125.68843774986453,125.68843774986453,128.67906104191206,None,,,,Please respond!!!,0,639,128.67933958396316,128.7689745419193,128.7689859168604,128.7785314999055,130.2683633749839,130.26229445892386,Dummy,130.26231720903888,130.45174191705883,128.68499570898712,128.68499570898712,,,,,9999,001,639,2024-03-27_12h05.41.129,ADMT_r4,2023.2.3,None,2024-03-27 12h06.12.761982 -0500,
74,26,58,-58,ProbMH_valueM,0.1,20,0,14,14,14,130.46152949985117,,,,,,,,,,,,,,130.45196308405139,130.46152949985117,130.46152949985117,133.44538683397695,None,,,,Please respond!!!,0,639,133.44552399986424,133.53542124992236,133.5354355839081,133.54488754202612,135.0334923339542,135.0286467920523,Dummy,135.02865583403036,155.01868908386678,133.45021487493068,133.45021487493068,,,,,9999,001,639,2024-03-27_12h05.41.129,ADMT_r4,2023.2.3,None,2024-03-27 12h06.12.761982 -0500,
11,89,109,109,ProbLL_valueH,0.1,0.2,0,15,15,15,155.0272902918514,,,,,,,,,,,,,,155.0189039169345,155.0272902918514,155.0272902918514,158.01234666700475,None,,,,Please respond!!!,0,639,158.01263724989258,158.11197133385576,158.1119813749101,158.11685845884494,159.61155975004658,159.60168812493794,Dummy,159.60169704188593,159.79558383394033,158.01842216704972,158.01842216704972,,,,,9999,001,639,2024-03-27_12h05.41.129,ADMT_r4,2023.2.3,None,2024-03-27 12h06.12.761982 -0500,
8,92,5,-5,ProbLL_valueL,0.1,0.2,0,16,16,16,159.805741667049,,,,,,,,,,,,,,159.7960609169677,159.805741667049,159.805741667049,162.79533195891418,None,,,,Please respond!!!,0,639,162.7954611668829,162.88485454185866,162.88486587489024,162.89501291699708,164.3850747088436,164.37880858406425,Dummy,164.37883108388633,164.57897929195315,162.8000027919188,162.8000027919188,,,,,9999,001,639,2024-03-27_12h05.41.129,ADMT_r4,2023.2.3,None,2024-03-27 12h06.12.761982 -0500,
5,95,9,-9,ProbLL_valueL,0.1,0.2,0,17,17,17,164.58813445898704,,,,,,,,,,,,,,164.57948491699062,164.58813445898704,164.58813445898704,167.5786024169065,None,,,,Please respond!!!,0,639,167.5787750419695,167.66865520901047,167.66866591689177,167.6782470420003,169.1678833339829,169.16211108397692,Dummy,169.16213333397172,169.36186895892024,167.5839463339653,167.5839463339653,,,,,9999,001,639,2024-03-27_12h05.41.129,ADMT_r4,2023.2.3,None,2024-03-27 12h06.12.761982 -0500,
54,46,100,100,ProbMM_valueH,0.1,0.2,0,18,18,18,169.37016058387235,,,,,,,,,,,,,,169.36206374992616,169.37016058387235,169.37016058387235,172.362381124869,None,,,,Please respond!!!,0,639,172.36266120895743,172.45182833401486,172.4518389168661,172.46145441685803,173.9498942499049,173.9452759588603,Dummy,173.94528433401138,174.1346926249098,172.36841516685672,172.36841516685672,,,,,9999,001,639,2024-03-27_12h05.41.129,ADMT_r4,2023.2.3,None,2024-03-27 12h06.12.761982 -0500,
54,46,109,-109,ProbMM_valueH,0.1,20,0,19,19,19,174.14453695900738,,,,,,,,,,,,,,174.1349965420086,174.14453695900738,174.14453695900738,177.12884879205376,None,,,,Please respond!!!,0,639,177.12913054204546,177.21824958384968,177.21825962490402,177.22806899994612,178.71792054199614,178.71211162488908,Dummy,178.71213175007142,198.70276679191738,177.13509616698138,177.13509616698138,,,,,9999,001,639,2024-03-27_12h05.41.129,ADMT_r4,2023.2.3,None,2024-03-27 12h06.12.761982 -0500,
74,26,60,60,ProbMH_valueM,0.1,0.2,0,20,20,20,198.72773358388804,,,,,,,,,,,,,,198.70312587497756,198.72773358388804,198.72773358388804,201.7115048749838,None,,,,Please respond!!!,0,639,201.7118117089849,201.801768458914,201.80178024992347,201.81153899990022,203.30094537488185,203.29529820894822,Dummy,203.29532087501138,203.48518187506124,,,,,,,9999,001,639,2024-03-27_12h05.41.129,ADMT_r4,2023.2.3,None,2024-03-27 12h06.12.761982 -0500,
15,85,57,-57,ProbLL_valueM,0.1,0.2,0,21,21,21,203.49479591706768,,,,,,,,,,,,,,203.48539191694,203.49479591706768,203.49479591706768,206.47851420892403,None,,,,Please respond!!!,0,639,206.47880074987188,206.56828337488696,206.56829370907508,206.57788866688497,208.0665591249708,208.06162816705182,Dummy,208.06163679203019,208.2515117500443,206.48489387496375,206.48489387496375,,,,,9999,001,639,2024-03-27_12h05.41.129,ADMT_r4,2023.2.3,None,2024-03-27 12h06.12.761982 -0500,
46,54,99,-99,ProbMM_valueH,0.1,0.2,0,22,22,22,208.26136162504554,,,,,,,,,,,,,,208.25173504184932,208.26136162504554,208.26136162504554,211.24500966700725,None,,,,Please respond!!!,0,639,211.24513804190792,211.3347827089019,211.33480066689663,211.3447011669632,212.8343819999136,212.82878366694786,Dummy,212.8288060000632,213.01836604205891,211.25010645901784,211.25010645901784,,,,,9999,001,639,2024-03-27_12h05.41.129,ADMT_r4,2023.2.3,None,2024-03-27 12h06.12.761982 -0500,
88,12,52,52,ProbHH_valueM,0.1,0.2,0,23,23,23,213.02671441691928,,,,,,,,,,,,,,213.01858279202133,213.02671441691928,213.02671441691928,216.01158787496388,None,,,,Please respond!!!,0,639,216.0117141669616,216.10192816704512,216.1019452919718,216.1113585839048,217.60124408407137,217.59545295895077,Dummy,217.59547354187816,217.78461974998936,216.01633470901288,216.01633470901288,,,,,9999,001,639,2024-03-27_12h05.41.129,ADMT_r4,2023.2.3,None,2024-03-27 12h06.12.761982 -0500,
28,72,107,107,ProbML_valueH,0.1,20,0,24,24,24,217.79431741684675,,,,,,,,,,,,,,217.7848304589279,217.79431741684675,217.79431741684675,220.77865562494844,None,,,,Please respond!!!,0,639,220.7789410839323,220.86775974999182,220.86777641694061,220.87776349997148,222.36739920894615,222.3618543338962,Dummy,222.3618768339511,242.35116116702557,220.78478291700594,220.78478291700594,,,,,9999,001,639,2024-03-27_12h05.41.129,ADMT_r4,2023.2.3,None,2024-03-27 12h06.12.761982 -0500,
24,76,54,-54,ProbML_valueM,0.1,0.2,0,25,25,25,242.35982370888814,,,,,,,,,,,,,,242.35142304189503,242.35982370888814,242.35982370888814,245.34525483404286,None,,,,Please respond!!!,0,639,245.3455362499226,245.43430504202843,245.4343250838574,245.44428362487815,246.9343911248725,246.9284051670693,Dummy,246.9284250419587,247.11773995892145,245.35112458397634,245.35112458397634,,,,,9999,001,639,2024-03-27_12h05.41.129,ADMT_r4,2023.2.3,None,2024-03-27 12h06.12.761982 -0500,
52,48,7,-7,ProbMM_valueL,0.1,0.2,0,26,26,26,247.1269037919119,,,,,,,,,,,,,,247.1180073339492,247.1269037919119,247.1269037919119,250.11160879186355,None,,,,Please respond!!!,0,639,250.11186720896512,250.21162099996582,250.21165270893835,250.21749804192223,251.71749399998225,251.7118265419267,Dummy,251.71184916701168,251.91184295900166,250.1181684168987,250.1181684168987,,,,,9999,001,639,2024-03-27_12h05.41.129,ADMT_r4,2023.2.3,None,2024-03-27 12h06.12.761982 -0500,
24,76,100,-100,ProbML_valueH,0.1,0.2,0,27,27,27,251.92810912500136,,,,,,,,,,,,,,251.91245408402756,251.92810912500136,251.92810912500136,254.9117737088818,None,,,,Please respond!!!,0,639,254.91206804197282,255.00147566688247,255.00148650002666,255.0110848338809,256.501064583892,256.4952296670526,Dummy,256.4952542090323,256.6844153748825,254.91793795884587,254.91793795884587,,,,,9999,001,639,2024-03-27_12h05.41.129,ADMT_r4,2023.2.3,None,2024-03-27 12h06.12.761982 -0500,
45,55,56,56,ProbMM_valueM,0.1,0.2,0,28,28,28,256.69404700002633,,,,,,,,,,,,,,256.68464391701855,256.69404700002633,256.69404700002633,259.67814779188484,None,,,,Please respond!!!,0,639,259.67843441688456,259.768026500009,259.7680494170636,259.7775934168603,261.2672755839303,261.2617156668566,Dummy,261.26173795899376,261.45128783397377,259.684653458884,259.684653458884,,,,,9999,001,639,2024-03-27_12h05.41.129,ADMT_r4,2023.2.3,None,2024-03-27 12h06.12.761982 -0500,
5,95,108,-108,ProbLL_valueH,0.1,20,0,29,29,29,261.4667305839248,,,,,,,,,,,,,,261.4518483339343,261.4667305839248,261.4667305839248,264.4499326250516,None,,,,Please respond!!!,0,639,264.45010091690347,264.5450096249115,264.5450336248614,264.5507975418586,266.0441793340724,266.0348395840265,Dummy,266.03485595900565,286.0280879999045,264.46109529188834,264.46109529188834,,,,,9999,001,639,2024-03-27_12h05.41.129,ADMT_r4,2023.2.3,None,2024-03-27 12h06.12.761982 -0500,
54,46,9,-9,ProbMM_valueL,0.1,0.2,0,30,30,30,286.03855420905165,,,,,,,,,,,,,,286.0285655420739,286.03855420905165,286.03855420905165,289.02782729198225,None,,,,Please respond!!!,0,639,289.02796179195866,289.1179502920713,289.1179720838554,289.12746345903724,290.61706033395603,290.6116108749993,Dummy,290.6116310840007,290.8111079588998,289.03254054207355,289.03254054207355,,,,,9999,001,639,2024-03-27_12h05.41.129,ADMT_r4,2023.2.3,None,2024-03-27 12h06.12.761982 -0500,
90,10,100,100,ProbHH_valueH,0.1,0.2,0,31,31,31,290.81942191696726,,,,,,,,,,,,,,290.8113064998761,290.81942191696726,290.81942191696726,293.81102079199627,None,,,,Please respond!!!,0,639,293.81114933406934,293.9113245839253,293.9113478339277,293.9173481250182,295.417491375003,295.4113161668647,Dummy,295.41133637493476,295.60150124994107,293.81707866699435,293.81707866699435,,,,,9999,001,639,2024-03-27_12h05.41.129,ADMT_r4,2023.2.3,None,2024-03-27 12h06.12.761982 -0500,
67,33,99,99,ProbMH_valueH,0.1,0.2,0,32,32,32,295.6109253340401,,,,,,,,,,,,,,295.60198320890777,295.6109253340401,295.6109253340401,298.5949144589249,None,,,,Please respond!!!,0,639,298.59519875003025,298.6847316250205,298.68474337505177,298.6939883339219,300.18242045887746,300.1778049999848,Dummy,300.177814417053,300.3657937499229,298.6008036250714,298.6008036250714,,,,,9999,001,639,2024-03-27_12h05.41.129,ADMT_r4,2023.2.3,None,2024-03-27 12h06.12.761982 -0500,
72,28,60,60,ProbMH_valueM,0.1,0.2,0,33,33,33,300.3767722500488,,,,,,,,,,,,,,300.3660249589011,300.3767722500488,300.3767722500488,303.36127091688104,None,,,,Please respond!!!,0,639,303.3615502498578,303.461258583935,303.46126987505704,303.4659032500349,304.9606177499518,304.95128833386116,Dummy,304.95130370906554,305.14561045891605,303.3672000840306,303.3672000840306,,,,,9999,001,639,2024-03-27_12h05.41.129,ADMT_r4,2023.2.3,None,2024-03-27 12h06.12.761982 -0500,
26,74,2,-2,ProbML_valueL,0.1,20,0,34,34,34,305.1555585418828,,,,,,,,,,,,,,305.1461740839295,305.1555585418828,305.1555585418828,308.1444364169147,None,,,,Please respond!!!,0,639,308.14456574991345,308.23453204194084,308.2345431249123,308.24411191698164,309.7345801249612,309.7280846668873,Dummy,309.7281089590397,329.7277842499316,308.1491082920693,308.1491082920693,,,,,9999,001,639,2024-03-27_12h05.41.129,ADMT_r4,2023.2.3,None,2024-03-27 12h06.12.761982 -0500,
14,86,56,-56,ProbLL_valueM,0.1,0.2,0,35,35,35,329.73845570906997,,,,,,,,,,,,,,329.72824370884337,329.73845570906997,329.73845570906997,332.7278522918932,None,,,,Please respond!!!,0,639,332.7281404589303,332.81757662491873,332.81759141688235,332.8272756249644,334.3171462919563,334.3113519169856,Dummy,334.3113727499731,334.5007192089688,332.7344584169332,332.7344584169332,,,,,9999,001,639,2024-03-27_12h05.41.129,ADMT_r4,2023.2.3,None,2024-03-27 12h06.12.761982 -0500,
45,55,57,-57,ProbMM_valueM,0.1,0.2,0,36,36,36,334.51037133391947,,,,,,,,,,,,,,334.50096850004047,334.51037133391947,334.51037133391947,337.49418008397333,None,,,,Please respond!!!,0,639,337.4943115839269,337.5847406249959,337.5847524169367,337.5937751668971,339.0822866249364,339.07752095884643,Dummy,339.0775293749757,339.26745325000957,337.4989694589749,337.4989694589749,,,,,9999,001,639,2024-03-27_12h05.41.129,ADMT_r4,2023.2.3,None,2024-03-27 12h06.12.761982 -0500,
54,46,9,-9,ProbMM_valueL,0.1,0.2,0,37,37,37,339.2771151668858,,,,,,,,,,,,,,339.26767470897175,339.2771151668858,339.2771151668858,342.2609050839674,None,,,,Please respond!!!,0,639,342.26103829196654,342.3508614168968,342.35087333386764,342.3604598338716,343.8501551670488,343.84472566703334,Dummy,343.8447485419456,344.03398399986327,342.26573466695845,342.26573466695845,,,,,9999,001,639,2024-03-27_12h05.41.129,ADMT_r4,2023.2.3,None,2024-03-27 12h06.12.761982 -0500,
91,9,12,12,ProbHH_valueL,0.1,0.2,0,38,38,38,344.0436316670384,,,,,,,,,,,,,,344.0341830418911,344.0436316670384,344.0436316670384,347.02786337491125,None,,,,Please respond!!!,0,639,347.0281350838486,347.1171008339152,347.11712016700767,347.12708600005135,348.6173432918731,348.6110623748973,Dummy,348.6110827499069,348.8009048749227,347.03371279197745,347.03371279197745,,,,,9999,001,639,2024-03-27_12h05.41.129,ADMT_r4,2023.2.3,None,2024-03-27 12h06.12.761982 -0500,
52,48,60,60,ProbMM_valueM,0.1,20,0,39,39,39,348.8093888340518,,,,,,,,,,,,,,348.8011361248791,348.8093888340518,348.8093888340518,351.7946205418557,None,,,,Please respond!!!,0,639,351.79488495900296,351.8840927500278,351.88411133387126,351.89391924999654,353.38329679192975,353.3778433338739,Dummy,353.3778630839661,373.3772670838516,351.80098133394495,351.80098133394495,,,,,9999,001,639,2024-03-27_12h05.41.129,ADMT_r4,2023.2.3,None,2024-03-27 12h06.12.761982 -0500,
90,10,105,105,ProbHH_valueH,0.1,0.2,0,40,40,40,373.3858608340379,,,,,,,,,,,,,,373.3774737920612,373.3858608340379,373.3858608340379,376.37769112503156,None,,,,Please respond!!!,0,639,376.3779993338976,376.4666796249803,376.4666946248617,376.47690766700543,377.9668537089601,377.9612542090472,Dummy,377.9612767919898,378.1505025420338,376.38346562488005,376.38346562488005,,,,,9999,001,639,2024-03-27_12h05.41.129,ADMT_r4,2023.2.3,None,2024-03-27 12h06.12.761982 -0500,
84,16,6,6,ProbHH_valueL,0.1,0.2,0,41,41,41,378.16015295893885,,,,,,,,,,,,,,378.15072912489995,378.16015295893885,378.16015295893885,381.14383725007065,None,,,,Please respond!!!,0,639,381.14396304194815,381.231979874894,381.23199849994853,381.2436049589887,382.73382658394985,382.7278636249248,Dummy,382.72788670891896,382.9171327089425,381.14875729195774,381.14875729195774,,,,,9999,001,639,2024-03-27_12h05.41.129,ADMT_r4,2023.2.3,None,2024-03-27 12h06.12.761982 -0500,
72,28,10,-10,ProbMH_valueL,0.1,0.2,0,42,42,42,382.92683612485416,,,,,,,,,,,,,,382.9173612499144,382.92683612485416,382.92683612485416,385.91058229189366,None,,,,Please respond!!!,0,639,385.9107086248696,386.00072424998507,386.00073462491855,386.01035899994895,387.5005122090224,387.49425954185426,Dummy,387.4942804588936,387.6839702089783,385.915426291991,385.915426291991,,,,,9999,001,639,2024-03-27_12h05.41.129,ADMT_r4,2023.2.3,None,2024-03-27 12h06.12.761982 -0500,
32,68,109,-109,ProbML_valueH,0.1,0.2,0,43,43,43,387.6934956670739,,,,,,,,,,,,,,387.68417579191737,387.6934956670739,387.6934956670739,390.6772871669382,None,,,,Please respond!!!,0,639,390.67741429200396,390.76588720898144,390.76591795892455,390.7768564589787,392.2666728340555,392.2609307919629,Dummy,392.26095291692764,392.4501440420281,390.6822110840585,390.6822110840585,,,,,9999,001,639,2024-03-27_12h05.41.129,ADMT_r4,2023.2.3,None,2024-03-27 12h06.12.761982 -0500,
93,7,60,60,ProbHH_valueM,0.1,20,0,44,44,44,392.4600491670426,,,,,,,,,,,,,,392.4503360418603,392.4600491670426,392.4600491670426,395.44385112496093,None,,,,Please respond!!!,0,639,395.4439815420192,395.53243754198775,395.53246466699056,395.54354029195383,397.03370433393866,397.0276357920375,Dummy,397.0276580420323,417.02753033395857,395.44870741688646,395.44870741688646,,,,,9999,001,639,2024-03-27_12h05.41.129,ADMT_r4,2023.2.3,None,2024-03-27 12h06.12.761982 -0500,
,,,,,,,,,,,,,,,,,,,,,,,,,,,,,,,,,,,,,,,,,,,,,,,417.02766429190524,427.0269793749321,427.02699029189534,431.02697120886296,,,,,,,,,
