﻿Win,Lose,Value,RealValue,Label,ITIDur1,ITIDur2,trials.thisRepN,trials.thisTrialN,trials.thisN,trials.thisIndex,thisRow.t,notes,Welcome.started,Welcome.stopped,Review1.started,Review1.stopped,Review2.started,Review2.stopped,ScannerPulse.started,ScannerPulse.stopped,LongITI1.started,longiti1.started,longiti1.stopped,LongITI1.stopped,Choice.started,choice.started,choice_key.started,Choice.stopped,choice_key.keys,LBracket,RBracket,Gainsign,RespCheck,Outcome,totalsum,ITI1.started,ITI1.stopped,Feedback.started,feedback.started,Feedback.stopped,cond,ITI2.started,ITI2.stopped,choice.stopped,choice_key.stopped,feedback.stopped,LongITI2.started,LongITI2.stopped,BreakWindow.started,BreakWindow.stopped,participant,session,starting_score,date,expName,psychopyVersion,frameRate,expStart,
68,32,100,100,ProbMH_valueH,0.1,0.2,0,0,0,0,25.6367854999844,,0.010905582923442125,2.9884991250000894,2.9885124159045517,3.7190758329816163,3.7190970408264548,4.2275752909481525,4.227588583016768,5.6186635829508305,5.618674290832132,5.6253157909959555,25.6367854999844,25.60859008296393,25.620978915831074,25.6367854999844,25.6367854999844,28.62371066585183,None,,,,Please respond!!!,0,639,28.624157208018005,28.718728040810674,28.718738499796018,28.729428832884878,30.21893920795992,Dummy,30.2189665408805,30.41891066590324,,,,,,,,9999,001,639,2024-03-27_11h48.08.106,ADMT_r2,2023.2.3,None,2024-03-27 11h48.59.610616 -0500,
73,27,109,109,ProbMH_valueH,0.1,0.2,0,1,1,1,30.428821082925424,,,,,,,,,,,,,,30.419175165938213,30.428821082925424,30.428821082925424,33.41868624999188,None,,,,Please respond!!!,0,639,33.418978333007544,33.508086582878605,33.5081080829259,33.51826874981634,35.00210841582157,Dummy,35.00212954101153,35.19157149991952,33.42478079092689,33.42478079092689,35.00831499998458,,,,,9999,001,639,2024-03-27_11h48.08.106,ADMT_r2,2023.2.3,None,2024-03-27 11h48.59.610616 -0500,
30,70,60,-60,ProbML_valueM,0.1,0.2,0,2,2,2,35.20129391597584,,,,,,,,,,,,,,35.19185533281416,35.20129391597584,35.20129391597584,38.18551604100503,None,,,,Please respond!!!,0,639,38.18579633301124,38.27515291585587,38.27517133299261,38.28491533291526,39.76888791588135,Dummy,39.76890958286822,39.95906795794144,38.19182679080404,38.19182679080404,39.774401457980275,,,,,9999,001,639,2024-03-27_11h48.08.106,ADMT_r2,2023.2.3,None,2024-03-27 11h48.59.610616 -0500,
86,14,57,57,ProbHH_valueM,0.1,0.2,0,3,3,3,39.98422033293173,,,,,,,,,,,,,,39.959351249970496,39.98422033293173,39.98422033293173,42.96851687482558,None,,,,Please respond!!!,0,639,42.96880129096098,43.058865749975666,43.05888512497768,43.06835270789452,44.552348082885146,Dummy,44.552369290962815,44.74126408295706,,,44.557986915810034,,,,,9999,001,639,2024-03-27_11h48.08.106,ADMT_r2,2023.2.3,None,2024-03-27 11h48.59.610616 -0500,
25,75,10,-10,ProbML_valueL,0.1,20,0,4,4,4,44.75075420783833,,,,,,,,,,,,,,44.74153670785017,44.75075420783833,44.75075420783833,47.73552383296192,None,,,,Please respond!!!,0,639,47.7358128328342,47.82533545792103,47.82535029086284,47.83475949987769,49.31906537502073,Dummy,49.31908699986525,69.3083205409348,47.74145845789462,47.74145845789462,49.32477758289315,,,,,9999,001,639,2024-03-27_11h48.08.106,ADMT_r2,2023.2.3,None,2024-03-27 11h48.59.610616 -0500,
54,46,2,-2,ProbMM_valueL,0.1,0.2,0,5,5,5,69.31815595785156,,,,,,,,,,,,,,69.3085331658367,69.31815595785156,69.31815595785156,72.30254466598853,None,,,,Please respond!!!,0,639,72.3028280409053,72.39187304093502,72.39188970788382,72.40155262500048,73.88569691590965,Dummy,73.88571920781396,74.08539045788348,72.30841175001115,72.30841175001115,73.8920323329512,,,,,9999,001,639,2024-03-27_11h48.08.106,ADMT_r2,2023.2.3,None,2024-03-27 11h48.59.610616 -0500,
28,72,6,-6,ProbML_valueL,0.1,0.2,0,6,6,6,74.09380874992348,,,,,,,,,,,,,,74.0855936249718,74.09380874992348,74.09380874992348,77.08570362487808,None,,,,Please respond!!!,0,639,77.08598770783283,77.17492216592655,77.17493804101832,77.18498445791192,78.66869987500831,Dummy,78.66870849998668,78.85897454083897,77.09190224995837,77.09190224995837,78.67342929099686,,,,,9999,001,639,2024-03-27_11h48.08.106,ADMT_r2,2023.2.3,None,2024-03-27 11h48.59.610616 -0500,
30,70,57,-57,ProbML_valueM,0.1,0.2,0,7,7,7,78.86745187500492,,,,,,,,,,,,,,78.85920020798221,78.86745187500492,78.86745187500492,81.85246108286083,None,,,,Please respond!!!,0,639,81.8527593750041,81.94254695787095,81.94258045800962,81.95163224986754,83.43571724998765,Dummy,83.43573758285493,83.62541612493806,81.85859987488948,81.85859987488948,83.4414916660171,,,,,9999,001,639,2024-03-27_11h48.08.106,ADMT_r2,2023.2.3,None,2024-03-27 11h48.59.610616 -0500,
47,53,2,2,ProbMM_valueL,0.1,0.2,0,8,8,8,83.63476445781998,,,,,,,,,,,,,,83.62563245790079,83.63476445781998,83.63476445781998,86.61922758282162,None,,,,Please respond!!!,0,639,86.61950129084289,86.7187799999956,86.71878945780918,86.72369004087523,88.20839949999936,Dummy,88.20840795780532,88.4025440828409,86.62558241584338,86.62558241584338,88.21826458279975,,,,,9999,001,639,2024-03-27_11h48.08.106,ADMT_r2,2023.2.3,None,2024-03-27 11h48.59.610616 -0500,
69,31,60,-60,ProbMH_valueM,0.1,20,0,9,9,9,88.4124538328033,,,,,,,,,,,,,,88.40302062500268,88.4124538328033,88.4124538328033,91.40246366593055,None,,,,Please respond!!!,0,639,91.4027551249601,91.49178579100408,91.49179637501948,91.50193812488578,92.98552229092456,Dummy,92.98553133290261,112.97656458290294,91.40855395793915,91.40855395793915,92.9906141248066,,,,,9999,001,639,2024-03-27_11h48.08.106,ADMT_r2,2023.2.3,None,2024-03-27 11h48.59.610616 -0500,
46,54,54,54,ProbMM_valueM,0.1,0.2,0,10,10,10,112.98555858293548,,,,,,,,,,,,,,112.97689562500454,112.98555858293548,112.98555858293548,115.96943474980071,None,,,,Please respond!!!,0,639,115.96978383301757,116.05938158300705,116.0593916659709,116.06848024995998,117.55233791586943,Dummy,117.55234708287753,117.74121758295223,115.97640958288684,115.97640958288684,117.55732966586947,,,,,9999,001,639,2024-03-27_11h48.08.106,ADMT_r2,2023.2.3,None,2024-03-27 11h48.59.610616 -0500,
53,47,9,-9,ProbMM_valueL,0.1,0.2,0,11,11,11,117.75162074994296,,,,,,,,,,,,,,117.7417437909171,117.75162074994296,117.75162074994296,120.73638574988581,None,,,,Please respond!!!,0,639,120.73670195788145,120.82594762486406,120.82595808291808,120.83529824996367,122.31921562482603,Dummy,122.31924112490378,122.55806499999017,120.74271483300254,120.74271483300254,122.32549029099755,,,,,9999,001,639,2024-03-27_11h48.08.106,ADMT_r2,2023.2.3,None,2024-03-27 11h48.59.610616 -0500,
64,36,54,54,ProbMH_valueM,0.1,0.2,0,12,12,12,122.56865616585128,,,,,,,,,,,,,,122.55829579080455,122.56865616585128,122.56865616585128,125.55257254093885,None,,,,Please respond!!!,0,639,125.55287987482734,125.64281879086047,125.64282954088412,125.65179354092106,127.13556679082103,Dummy,127.13557549985126,127.32398170791566,125.55827420786954,125.55827420786954,127.14051904086955,,,,,9999,001,639,2024-03-27_11h48.08.106,ADMT_r2,2023.2.3,None,2024-03-27 11h48.59.610616 -0500,
14,86,105,-105,ProbLL_valueH,0.1,0.2,0,13,13,13,127.33486804086715,,,,,,,,,,,,,,127.32444791588932,127.33486804086715,127.33486804086715,130.3199852500111,None,,,,Please respond!!!,0,639,130.32030516583472,130.41963404091075,130.41966050001793,130.42565612494946,131.90964199998416,Dummy,131.90965199982747,132.10236495779827,130.32595366588794,130.32595366588794,131.91848374996334,,,,,9999,001,639,2024-03-27_11h48.08.106,ADMT_r2,2023.2.3,None,2024-03-27 11h48.59.610616 -0500,
89,11,56,56,ProbHH_valueM,0.1,20,0,14,14,14,132.11236491589807,,,,,,,,,,,,,,132.10292691597715,132.11236491589807,132.11236491589807,135.10202295798808,None,,,,Please respond!!!,0,639,135.10215933294967,135.19225029088557,135.19226024998352,135.20163174998015,136.68597216601484,Dummy,136.68599454080686,156.6745605408214,135.10708304098807,135.10708304098807,136.69158795801923,,,,,9999,001,639,2024-03-27_11h48.08.106,ADMT_r2,2023.2.3,None,2024-03-27 11h48.59.610616 -0500,
32,68,3,3,ProbML_valueL,0.1,0.2,0,15,15,15,156.68539587501436,,,,,,,,,,,,,,156.67479891586117,156.68539587501436,156.68539587501436,159.66903858282603,None,,,,Please respond!!!,0,639,159.66933474992402,159.75863491580822,159.7586538749747,159.7680957079865,161.2523708329536,Dummy,161.2523931658361,161.44171145791188,159.67480516596697,159.67480516596697,161.2586822498124,,,,,9999,001,639,2024-03-27_11h48.08.106,ADMT_r2,2023.2.3,None,2024-03-27 11h48.59.610616 -0500,
51,49,55,55,ProbMM_valueM,0.1,0.2,0,16,16,16,161.45020541595295,,,,,,,,,,,,,,161.44198779086582,161.45020541595295,161.45020541595295,164.43560395785607,None,,,,Please respond!!!,0,639,164.43588808295317,164.52504954091273,164.52506870799698,164.5348129158374,166.01884287502617,Dummy,166.01886262488551,166.20852341596037,164.4417999999132,164.4417999999132,166.02509316592477,,,,,9999,001,639,2024-03-27_11h48.08.106,ADMT_r2,2023.2.3,None,2024-03-27 11h48.59.610616 -0500,
84,16,54,54,ProbHH_valueM,0.1,0.2,0,17,17,17,166.21697995788418,,,,,,,,,,,,,,166.20881558279507,166.21697995788418,166.21697995788418,169.20244262483902,None,,,,Please respond!!!,0,639,169.20273416582495,169.29202283290215,169.29204312502407,169.30141912493855,170.78538445802405,Dummy,170.78540408285335,170.97473429096863,169.20866558281705,169.20866558281705,170.7917794578243,,,,,9999,001,639,2024-03-27_11h48.08.106,ADMT_r2,2023.2.3,None,2024-03-27 11h48.59.610616 -0500,
69,31,57,57,ProbMH_valueM,0.1,0.2,0,18,18,18,170.98454733286053,,,,,,,,,,,,,,170.97501949989237,170.98454733286053,170.98454733286053,173.96874070796184,None,,,,Please respond!!!,0,639,173.9690257909242,174.06842216593213,174.0684379998129,174.07366641587578,175.55914024985395,Dummy,175.55916587496176,175.75219525001012,173.97461262485012,173.97461262485012,175.5679494999349,,,,,9999,001,639,2024-03-27_11h48.08.106,ADMT_r2,2023.2.3,None,2024-03-27 11h48.59.610616 -0500,
4,96,5,-5,ProbLL_valueL,0.1,20,0,19,19,19,175.7614046249073,,,,,,,,,,,,,,175.75266945781186,175.7614046249073,175.7614046249073,178.751810207963,None,,,,Please respond!!!,0,639,178.75194037496112,178.84123166580684,178.84125066595152,178.8515393747948,180.33511083293706,Dummy,180.33511870796792,200.32506699999794,178.75665791588835,178.75665791588835,180.33981924992986,,,,,9999,001,639,2024-03-27_11h48.08.106,ADMT_r2,2023.2.3,None,2024-03-27 11h48.59.610616 -0500,
64,36,11,-11,ProbMH_valueL,0.1,0.2,0,20,20,20,200.3335297498852,,,,,,,,,,,,,,200.32529362500645,200.3335297498852,200.3335297498852,203.31842362484895,None,,,,Please respond!!!,0,639,203.3185531659983,203.40848058299161,203.4084919579327,203.4181221658364,204.9020685828291,Dummy,204.90208912501112,205.09231245797127,203.32322199991904,203.32322199991904,204.9083451249171,,,,,9999,001,639,2024-03-27_11h48.08.106,ADMT_r2,2023.2.3,None,2024-03-27 11h48.59.610616 -0500,
69,31,6,-6,ProbMH_valueL,0.1,0.2,0,21,21,21,205.10081216599792,,,,,,,,,,,,,,205.09253420797177,205.10081216599792,205.10081216599792,208.0854799998924,None,,,,Please respond!!!,0,639,208.08575562480837,208.18489083298482,208.18490854091942,208.19030924979597,209.67333974991925,Dummy,209.6733519579284,209.8683569158893,208.09203116595745,208.09203116595745,209.68456674995832,,,,,9999,001,639,2024-03-27_11h48.08.106,ADMT_r2,2023.2.3,None,2024-03-27 11h48.59.610616 -0500,
94,6,9,9,ProbHH_valueL,0.1,0.2,0,22,22,22,209.87641349993646,,,,,,,,,,,,,,209.86856058286503,209.87641349993646,209.87641349993646,212.8687486248091,None,,,,Please respond!!!,0,639,212.869033082854,212.96867891587317,212.96870295796543,212.97442470793612,214.45842270785943,Dummy,214.45843199989758,214.65188545780256,212.8749782498926,212.8749782498926,214.46807695785537,,,,,9999,001,639,2024-03-27_11h48.08.106,ADMT_r2,2023.2.3,None,2024-03-27 11h48.59.610616 -0500,
5,95,103,-103,ProbLL_valueH,0.1,0.2,0,23,23,23,214.66111716581509,,,,,,,,,,,,,,214.65235458291136,214.66111716581509,214.66111716581509,217.65135045791976,None,,,,Please respond!!!,0,639,217.65147308283485,217.7410296248272,217.74104091594927,217.75117658288218,219.235542624956,Dummy,219.23556312499568,219.42479666601866,217.65609712479636,217.65609712479636,219.24123137490824,,,,,9999,001,639,2024-03-27_11h48.08.106,ADMT_r2,2023.2.3,None,2024-03-27 11h48.59.610616 -0500,
15,85,9,-9,ProbLL_valueL,0.1,20,0,24,24,24,219.43453320791014,,,,,,,,,,,,,,219.42500212485902,219.43453320791014,219.43453320791014,222.41831499990076,None,,,,Please respond!!!,0,639,222.4184380408842,222.50830137496814,222.508311457932,222.5179242908489,224.00199945783243,Dummy,224.00202024984173,243.99168441584334,222.4230573750101,222.4230573750101,224.0079844999127,,,,,9999,001,639,2024-03-27_11h48.08.106,ADMT_r2,2023.2.3,None,2024-03-27 11h48.59.610616 -0500,
30,70,56,-56,ProbML_valueM,0.1,0.2,0,25,25,25,244.00010674982332,,,,,,,,,,,,,,243.99189212499186,244.00010674982332,244.00010674982332,246.98498212499544,None,,,,Please respond!!!,0,639,246.98511299979873,247.07520849979483,247.07522087497637,247.08454666589387,248.5681325828191,Dummy,248.5681415409781,248.75794837484136,246.98975770780817,246.98975770780817,248.57303612492979,,,,,9999,001,639,2024-03-27_11h48.08.106,ADMT_r2,2023.2.3,None,2024-03-27 11h48.59.610616 -0500,
95,5,101,-101,ProbHH_valueH,0.1,0.2,0,26,26,26,248.7677844997961,,,,,,,,,,,,,,248.75815833290108,248.7677844997961,248.7677844997961,251.7514907498844,None,,,,Please respond!!!,0,639,251.75161520787515,251.8410157498438,251.84102683281526,251.85125866602175,253.33533587493002,Dummy,253.3353592909407,253.52471874980256,251.75641408283263,251.75641408283263,253.34130729082972,,,,,9999,001,639,2024-03-27_11h48.08.106,ADMT_r2,2023.2.3,None,2024-03-27 11h48.59.610616 -0500,
14,86,2,-2,ProbLL_valueL,0.1,0.2,0,27,27,27,253.5344229999464,,,,,,,,,,,,,,253.52493299986236,253.5344229999464,253.5344229999464,256.5182326249778,None,,,,Please respond!!!,0,639,256.5183662499767,256.6082124579698,256.60822454094887,256.61780383298174,258.1022683749907,Dummy,258.10229454096407,258.30195937491953,256.5229720408097,256.5229720408097,258.10786245786585,,,,,9999,001,639,2024-03-27_11h48.08.106,ADMT_r2,2023.2.3,None,2024-03-27 11h48.59.610616 -0500,
51,49,99,99,ProbMM_valueH,0.1,0.2,0,28,28,28,258.3119111659471,,,,,,,,,,,,,,258.30248637497425,258.3119111659471,258.3119111659471,261.3018842500169,None,,,,Please respond!!!,0,639,261.30217899987474,261.3918518749997,261.3918632499408,261.4011271658819,262.88517208280973,Dummy,262.8851920408197,263.07444433285855,261.30830904096365,261.30830904096365,262.8910139158834,,,,,9999,001,639,2024-03-27_11h48.08.106,ADMT_r2,2023.2.3,None,2024-03-27 11h48.59.610616 -0500,
27,73,102,102,ProbML_valueH,0.1,20,0,29,29,29,263.08440779079683,,,,,,,,,,,,,,263.07465249998495,263.08440779079683,263.08440779079683,266.06821974995546,None,,,,Please respond!!!,0,639,266.06834654090926,266.1565380829852,266.1565697498154,266.1677601248957,267.6514765829779,Dummy,267.6514852079563,287.6413602908142,266.0731049159076,266.0731049159076,267.6563162498642,,,,,9999,001,639,2024-03-27_11h48.08.106,ADMT_r2,2023.2.3,None,2024-03-27 11h48.59.610616 -0500,
7,93,59,-59,ProbLL_valueM,0.1,0.2,0,30,30,30,287.6509167498443,,,,,,,,,,,,,,287.64155316585675,287.6509167498443,287.6509167498443,290.63519912492484,None,,,,Please respond!!!,0,639,290.63547508302145,290.7247871248983,290.72480395785533,290.73441412486136,292.21848345780745,Dummy,292.218505583005,292.4078878329601,290.6406666249968,290.6406666249968,292.22432854096405,,,,,9999,001,639,2024-03-27_11h48.08.106,ADMT_r2,2023.2.3,None,2024-03-27 11h48.59.610616 -0500,
7,93,50,-50,ProbLL_valueM,0.1,0.2,0,31,31,31,292.4172864158172,,,,,,,,,,,,,,292.40813004085794,292.4172864158172,292.4172864158172,295.4018175830133,None,,,,Please respond!!!,0,639,295.4020978328772,295.4911616658792,295.4911800408736,295.5011708748061,296.9853999998886,Dummy,296.9854218750261,297.1753739158157,295.4082897079643,295.4082897079643,296.99181737494655,,,,,9999,001,639,2024-03-27_11h48.08.106,ADMT_r2,2023.2.3,None,2024-03-27 11h48.59.610616 -0500,
30,70,108,-108,ProbML_valueH,0.1,0.2,0,32,32,32,297.1840939158574,,,,,,,,,,,,,,297.1756417499855,297.1840939158574,297.1840939158574,300.1680648329202,None,,,,Please respond!!!,0,639,300.16819112491794,300.2561852079816,300.25620558299124,300.26776066585444,301.75144183286466,Dummy,301.75146162486635,301.9409682499245,300.17284449981526,300.17284449981526,301.75705083296634,,,,,9999,001,639,2024-03-27_11h48.08.106,ADMT_r2,2023.2.3,None,2024-03-27 11h48.59.610616 -0500,
87,13,2,2,ProbHH_valueL,0.1,0.2,0,33,33,33,301.9508185829036,,,,,,,,,,,,,,301.94116820790805,301.9508185829036,301.9508185829036,304.93529037502594,None,,,,Please respond!!!,0,639,304.9355706248898,305.034725290956,305.03473495785147,305.0395579999313,306.52461570780724,Dummy,306.52462537493557,306.7183674578555,304.94106445787475,304.94106445787475,306.53421812481247,,,,,9999,001,639,2024-03-27_11h48.08.106,ADMT_r2,2023.2.3,None,2024-03-27 11h48.59.610616 -0500,
91,9,103,103,ProbHH_valueH,0.1,20,0,34,34,34,306.72827949980274,,,,,,,,,,,,,,306.71885362500325,306.72827949980274,306.72827949980274,309.71806283295155,None,,,,Please respond!!!,0,639,309.71819995786063,309.8064836249687,309.8065021659713,309.8178404578939,311.3018193328753,Dummy,311.3018419998698,331.2911755410023,309.7227224158123,309.7227224158123,311.30757583281957,,,,,9999,001,639,2024-03-27_11h48.08.106,ADMT_r2,2023.2.3,None,2024-03-27 11h48.59.610616 -0500,
86,14,100,100,ProbHH_valueH,0.1,0.2,0,35,35,35,331.3008013749495,,,,,,,,,,,,,,331.2913890830241,331.3008013749495,331.3008013749495,334.2850341249723,None,,,,Please respond!!!,0,639,334.285330374958,334.37407899997197,334.3740969998762,334.3843685828615,335.86832841602154,Dummy,335.8683515000157,336.05747337499633,334.2911755410023,334.2911755410023,335.87429233291186,,,,,9999,001,639,2024-03-27_11h48.08.106,ADMT_r2,2023.2.3,None,2024-03-27 11h48.59.610616 -0500,
72,28,6,6,ProbMH_valueL,0.1,0.2,0,36,36,36,336.0674040829763,,,,,,,,,,,,,,336.0577197079547,336.0674040829763,336.0674040829763,339.05146124982275,None,,,,Please respond!!!,0,639,339.0517051250208,339.1411474158522,339.1411583328154,339.1509362079669,340.63492783298716,Dummy,340.63495008298196,340.8245027079247,339.05772037501447,339.05772037501447,340.6410233329516,,,,,9999,001,639,2024-03-27_11h48.08.106,ADMT_r2,2023.2.3,None,2024-03-27 11h48.59.610616 -0500,
71,29,99,99,ProbMH_valueH,0.1,0.2,0,37,37,37,340.83864924986847,,,,,,,,,,,,,,340.8249627079349,340.83864924986847,340.83864924986847,343.82339066592976,None,,,,Please respond!!!,0,639,343.82352837501094,343.9185782908462,343.9186028749682,343.9240941659082,345.40775224985555,Dummy,345.4077613328118,345.6016374998726,343.8342770410236,343.8342770410236,345.4175690410193,,,,,9999,001,639,2024-03-27_11h48.08.106,ADMT_r2,2023.2.3,None,2024-03-27 11h48.59.610616 -0500,
24,76,102,-102,ProbML_valueH,0.1,0.2,0,38,38,38,345.6111146658659,,,,,,,,,,,,,,345.60212858300656,345.6111146658659,345.6111146658659,348.60137495794334,None,,,,Please respond!!!,0,639,348.6015022499487,348.6917170409579,348.6917357498314,348.7010712909978,350.1846221250016,Dummy,350.1846306659281,350.3746866248548,348.6066942908801,348.6066942908801,350.1895379158668,,,,,9999,001,639,2024-03-27_11h48.08.106,ADMT_r2,2023.2.3,None,2024-03-27 11h48.59.610616 -0500,
44,56,102,-102,ProbMM_valueH,0.1,20,0,39,39,39,350.3833194999024,,,,,,,,,,,,,,350.37491599982604,350.3833194999024,350.3833194999024,353.3678015829064,None,,,,Please respond!!!,0,639,353.36792358290404,353.45799495792016,353.458005040884,353.46749066584744,354.95159762492403,Dummy,354.95161879085936,374.95146899996325,353.37259674980305,353.37259674980305,354.95787475002,,,,,9999,001,639,2024-03-27_11h48.08.106,ADMT_r2,2023.2.3,None,2024-03-27 11h48.59.610616 -0500,
46,54,50,-50,ProbMM_valueM,0.1,0.2,0,40,40,40,374.96164649981074,,,,,,,,,,,,,,374.95193704101257,374.96164649981074,374.96164649981074,377.95126899983734,None,,,,Please respond!!!,0,639,377.95139958290383,378.04117124993354,378.04118220787495,378.0507040829398,379.53487858292647,Dummy,379.53490054095164,379.7345688329078,377.9560527908616,377.9560527908616,379.5404210409615,,,,,9999,001,639,2024-03-27_11h48.08.106,ADMT_r2,2023.2.3,None,2024-03-27 11h48.59.610616 -0500,
55,45,102,-102,ProbMM_valueH,0.1,0.2,0,41,41,41,379.7432927079499,,,,,,,,,,,,,,379.7347782498691,379.7432927079499,379.7432927079499,382.73447062494233,None,,,,Please respond!!!,0,639,382.734594124835,382.8244793328922,382.82449462497607,382.83416720782407,384.3182189578656,Dummy,384.3182411249727,384.50748541601934,382.739295624895,382.739295624895,384.3240076249931,,,,,9999,001,639,2024-03-27_11h48.08.106,ADMT_r2,2023.2.3,None,2024-03-27 11h48.59.610616 -0500,
91,9,8,8,ProbHH_valueL,0.1,0.2,0,42,42,42,384.51745454082265,,,,,,,,,,,,,,384.50769854080863,384.51745454082265,384.51745454082265,387.50124691589735,None,,,,Please respond!!!,0,639,387.5013807499781,387.59097166592255,387.5909833749756,387.6009587079752,389.0847439158242,Dummy,389.08476587501355,389.27442562486976,387.50601654080674,387.50601654080674,389.0905103748664,,,,,9999,001,639,2024-03-27_11h48.08.106,ADMT_r2,2023.2.3,None,2024-03-27 11h48.59.610616 -0500,
7,93,54,-54,ProbLL_valueM,0.1,0.2,0,43,43,43,389.2839629999362,,,,,,,,,,,,,,389.2746411659755,389.2839629999362,389.2839629999362,392.2677428747993,None,,,,Please respond!!!,0,639,392.26787287485786,392.35628808289766,392.3563009998761,392.367443874944,393.8516672498081,Dummy,393.85168912494555,394.0410834578797,392.27265887497924,392.27265887497924,393.85750712500885,,,,,9999,001,639,2024-03-27_11h48.08.106,ADMT_r2,2023.2.3,None,2024-03-27 11h48.59.610616 -0500,
11,89,107,107,ProbLL_valueH,0.1,20,0,44,44,44,394.0506192909088,,,,,,,,,,,,,,394.0413394998759,394.0506192909088,394.0506192909088,397.03481250000186,None,,,,Please respond!!!,0,639,397.03510591597296,397.1347129580099,397.1347370829899,397.14042712491937,398.6238208329305,Dummy,398.6238324579317,418.6181699158624,397.04113991581835,397.04113991581835,398.6339497079607,,,,,9999,001,639,2024-03-27_11h48.08.106,ADMT_r2,2023.2.3,None,2024-03-27 11h48.59.610616 -0500,
,,,,,,,,,,,,,,,,,,,,,,,,,,,,,,,,,,,,,,,,,,,,,,,418.61831545783207,428.6180223748088,428.61806512484327,432.6235073329881,,,,,,,,,
