﻿Win,Lose,Value,RealValue,Label,ChoiceDur,ITIDur1,ITIDur2,trials.thisRepN,trials.thisTrialN,trials.thisN,trials.thisIndex,thisRow.t,notes,Welcome.started,Welcome.stopped,Review1.started,Review1.stopped,Review2.started,Review2.stopped,ScannerPulse.started,ScannerPulse.stopped,LongITI1.started,longiti1.started,longiti1.stopped,LongITI1.stopped,Choice.started,choice.started,choice_key.started,choice.stopped,choice_key.stopped,Choice.stopped,choice_key.keys,choice_key.rt,choice_key.duration,LBracket,RBracket,Gainsign,RespCheck,Outcome,totalsum,ITI1.started,ITI1.stopped,Feedback.started,feedback.started,Feedback.stopped,cond,ITI2.started,ITI2.stopped,feedback.stopped,LongITI2.started,LongITI2.stopped,BreakWindow.started,BreakWindow.stopped,participant,session,starting_score,date,expName,psychopyVersion,frameRate,expStart,
21,79,5,-5,ProbLL_valueL,3,2,1,0,0,0,0,52.035053625004366,,0.008032999990973622,5.0218232499901205,5.021846707997611,8.866630083008204,8.866654249985004,30.334413999982644,30.33443891600473,31.97754699998768,31.97756749999826,31.98728212498827,52.035053625004366,51.977955915994244,52.01135254098335,52.035053625004366,52.035053625004366,55.03600583298248,55.03600583298248,55.02779420799925,2,1.2426442919822875,None,(,),,,-5,0,55.028698790993076,57.02820679100114,57.02823429100681,57.04739029100165,58.53351404098794,R_LOSS,58.53354199999012,59.52818633298739,,,,,,9999,001,0,2024-04-14_14h03.20.336,ADMT_r1,2023.2.3,None,2024-04-14 14h03.28.115463 -0500,
21,79,14,-14,ProbLL_valueL,3,5,3,0,1,1,1,59.54695950000314,,,,,,,,,,,,,,59.52871762498398,59.54695950000314,59.54695950000314,62.54414087499026,62.54414087499026,62.53439720798633,2,1.214971459005028,None,(,),,,-14,0,62.53481954100425,67.52810104098171,67.5281225409999,67.54171904100804,69.02859783300664,R_LOSS,69.02862295799423,72.02030800000648,69.03461541599245,,,,,9999,001,0,2024-04-14_14h03.20.336,ADMT_r1,2023.2.3,None,2024-04-14 14h03.28.115463 -0500,
59,41,92,92,ProbMM_valueH,3,2,3,0,2,2,2,72.03472570798476,,,,,,,,,,,,,,72.02079087498714,72.03472570798476,72.03472570798476,75.02778041598503,75.02778041598503,75.01821183299762,1,0.9469415420026053,None,,,+,,92,92,75.01868445798755,77.01203979100683,77.0120711659838,77.0266319999937,78.51197254098952,A_GAIN,78.51199608299066,81.50172333299997,78.51806204099557,,,,,9999,001,0,2024-04-14_14h03.20.336,ADMT_r1,2023.2.3,None,2024-04-14 14h03.28.115463 -0500,
84,16,92,-92,ProbHH_valueH,3,2,2,0,3,3,3,81.51887716600322,,,,,,,,,,,,,,81.50214483300806,81.51887716600322,81.51887716600322,84.5113927909988,84.5113927909988,84.50186704099178,1,1.15976591600338,None,,,,,-92,0,84.50234554099734,86.49546474998351,86.4954979159811,86.510158916004,87.99580904099275,A_LOSS,87.99583733300096,89.98576112498995,88.00189537499682,,,,,9999,001,0,2024-04-14_14h03.20.336,ADMT_r1,2023.2.3,None,2024-04-14 14h03.28.115463 -0500,
8,92,91,-91,ProbLL_valueH,3,3,2,0,4,4,4,90.00049345800653,,,,,,,,,,,,,,89.98619470800622,90.00049345800653,90.00049345800653,92.99500537500717,92.99500537500717,92.98548812500667,2,1.087332791998051,None,(,),,,-91,0,92.98596975000692,95.97912929099402,95.97915320799802,95.99298170799739,97.47943066598964,R_LOSS,97.47946020800737,99.46899249998387,97.48550383298425,,,,,9999,001,0,2024-04-14_14h03.20.336,ADMT_r1,2023.2.3,None,2024-04-14 14h03.28.115463 -0500,
92,8,16,16,ProbHH_valueL,3,1,4,0,5,5,5,99.48385562500334,,,,,,,,,,,,,,99.46942304098047,99.48385562500334,99.48385562500334,102.47869966598228,102.47869966598228,102.46939387498423,1,0.8366608340002131,None,,,+,,16,16,102.46987800000352,103.46304895798676,103.46307308299583,103.47716066599241,104.96309358300641,A_GAIN,104.96312104098615,108.95257049999782,104.96922870798153,,,,,9999,001,0,2024-04-14_14h03.20.336,ADMT_r1,2023.2.3,None,2024-04-14 14h03.28.115463 -0500,
40,60,1415,-1415,ProbMM_valueSH,1.5,2,8,0,6,6,6,108.96741616600775,,,,,,,,,,,,,,108.95300174999284,108.96741616600775,108.96741616600775,110.46228274999885,110.46228274999885,110.45269091599039,None,,,,,,Please respond!!!,0,16,110.45295316600823,112.4465618749964,112.44658474999596,112.46540645798086,113.95234387498931,Dummy,113.95236908298102,121.94663458300056,,,,,,9999,001,0,2024-04-14_14h03.20.336,ADMT_r1,2023.2.3,None,2024-04-14 14h03.28.115463 -0500,
40,60,10,-10,ProbMM_valueL,3,2,1,0,7,7,7,121.96208399999887,,,,,,,,,,,,,,121.94704804098001,121.96208399999887,121.96208399999887,124.9535363749892,124.9535363749892,124.94703245800338,2,0.9675172090064734,None,(,),,,-10,16,124.94749716599472,126.936814916,126.93683979098569,126.94968833299936,128.43648608299554,R_LOSS,128.43651337499614,129.43020520798746,128.44644825000432,,,,,9999,001,0,2024-04-14_14h03.20.336,ADMT_r1,2023.2.3,None,2024-04-14 14h03.28.115463 -0500,
95,5,1,1,ProbHH_valueL,3,1,3,0,8,8,8,129.4456716660061,,,,,,,,,,,,,,129.43061483299243,129.4456716660061,129.4456716660061,132.43758720799815,132.43758720799815,132.4304367910081,1,0.8059261660091579,None,,,+,,1,17,132.43090649999795,133.42042866599513,133.42045050000888,133.4333142079995,134.9200817910023,A_GAIN,134.92011070798617,137.9140151249885,134.92990512499819,,,,,9999,001,0,2024-04-14_14h03.20.336,ADMT_r1,2023.2.3,None,2024-04-14 14h03.28.115463 -0500,
92,8,14,14,ProbHH_valueL,3,2,1,0,9,9,9,137.92949179100106,,,,,,,,,,,,,,137.91443699999945,137.92949179100106,137.92949179100106,140.92140058299992,140.92140058299992,140.91424524999456,1,0.7301464589836542,None,,,+,,14,31,140.91469491599128,142.9143179160019,142.91434458299773,142.9294981249841,144.41434250000748,A_GAIN,144.41436829100712,145.40382566599874,144.42088379099732,,,,,9999,001,0,2024-04-14_14h03.20.336,ADMT_r1,2023.2.3,None,2024-04-14 14h03.28.115463 -0500,
80,20,11,-11,ProbHH_valueL,3,5,1,0,10,10,10,145.41877879100502,,,,,,,,,,,,,,145.40425979098654,145.41877879100502,145.41877879100502,148.41342858300777,148.41342858300777,148.4041609579872,1,0.8653073750028852,None,,,,,-11,20,148.4045699579874,153.3979226659867,153.39795300000696,153.41168874999858,154.8978121659893,A_LOSS,154.897839207988,155.88746091598296,154.90424274999532,,,,,9999,001,0,2024-04-14_14h03.20.336,ADMT_r1,2023.2.3,None,2024-04-14 14h03.28.115463 -0500,
5,95,14,14,ProbLL_valueL,3,1,4,0,11,11,11,155.9024984999851,,,,,,,,,,,,,,155.88789733298472,155.9024984999851,155.9024984999851,158.89733541599708,158.89733541599708,158.88769758300623,2,1.0286247500043828,None,(,),+,,14,20,158.88816483298433,159.88140054099495,159.88143054099055,159.89562845800538,161.38152812499902,R_GAIN,161.3815610409947,165.38160033299937,161.3888469999947,,,,,9999,001,0,2024-04-14_14h03.20.336,ADMT_r1,2023.2.3,None,2024-04-14 14h03.28.115463 -0500,
42,58,84,-84,ProbMM_valueH,3,5,1,0,12,12,12,165.39786900000763,,,,,,,,,,,,,,165.3820149579842,165.39786900000763,165.39786900000763,168.38909958300064,168.38909958300064,168.38186049999786,2,1.1671673750097398,None,(,),,,-84,20,168.38230495798052,173.38208208300057,173.38211404098547,173.39618566600257,174.88213145799818,R_LOSS,174.88216599999578,175.88216033298522,174.88938116599456,,,,,9999,001,0,2024-04-14_14h03.20.336,ADMT_r1,2023.2.3,None,2024-04-14 14h03.28.115463 -0500,
56,44,1107,-1107,ProbMM_valueSH,1.5,2,3,0,13,13,13,175.89814554099576,,,,,,,,,,,,,,175.88267970798188,175.89814554099576,175.89814554099576,177.38925675000064,177.38925675000064,177.3821711250057,1,1.0385025419818703,None,,,,,-1107,-1087,177.38261458298075,179.38182616600534,179.38185583299492,179.39598395800567,180.8821837079886,A_LOSS,180.88221112499014,183.87155845799134,180.88859962500283,,,,,9999,001,0,2024-04-14_14h03.20.336,ADMT_r1,2023.2.3,None,2024-04-14 14h03.28.115463 -0500,
82,18,83,83,ProbHH_valueH,3,3,1,0,14,14,14,183.88637312498759,,,,,,,,,,,,,,183.871991041,183.88637312498759,183.88637312498759,186.88150499999756,186.88150499999756,186.87210704098106,1,0.9429796660260763,None,,,+,,83,-1004,186.87257612499525,189.865349041007,189.8653722909803,189.87906762500643,191.3659715410031,A_GAIN,191.36600166599965,192.35635316598928,191.3730217909906,,,,,9999,001,0,2024-04-14_14h03.20.336,ADMT_r1,2023.2.3,None,2024-04-14 14h03.28.115463 -0500,
40,60,7,-7,ProbMM_valueL,3,1,1,0,15,15,15,192.37186908299918,,,,,,,,,,,,,,192.35677700000815,192.37186908299918,192.37186908299918,195.3650709159847,195.3650709159847,195.35548287499114,2,1.3274007079889998,None,(,),,,-7,-1004,195.35595120798098,196.34938416598015,196.34941500000423,196.36392025000532,197.84944674998405,R_LOSS,197.8494715410052,198.8393056250061,197.85550441598753,,,,,9999,001,0,2024-04-14_14h03.20.336,ADMT_r1,2023.2.3,None,2024-04-14 14h03.28.115463 -0500,
22,78,12,12,ProbLL_valueL,3,2,1,0,16,16,16,198.85386166599346,,,,,,,,,,,,,,198.8397182500048,198.85386166599346,198.85386166599346,201.84861595800612,201.84861595800612,201.83887750000576,2,1.0561364580062218,None,(,),+,,12,-1004,201.8393617910042,203.8325797909929,203.83261008298723,203.84710262500448,205.33269333298085,R_GAIN,205.33272191599826,206.33278858300764,,,,,,9999,001,0,2024-04-14_14h03.20.336,ADMT_r1,2023.2.3,None,2024-04-14 14h03.28.115463 -0500,
13,87,12,-12,ProbLL_valueL,3,1,2,0,17,17,17,206.3481752499938,,,,,,,,,,,,,,206.33320679099415,206.3481752499938,206.3481752499938,209.3401363749872,209.3401363749872,209.33287837498938,2,0.9774760419968516,None,(,),,,-12,-1004,209.3333292909956,210.33312466598,210.3331479159824,210.34727058300632,211.832923207985,R_LOSS,211.83294837499852,213.82231887499802,211.83935245798784,,,,,9999,001,0,2024-04-14_14h03.20.336,ADMT_r1,2023.2.3,None,2024-04-14 14h03.28.115463 -0500,
59,41,1473,-1473,ProbMM_valueSH,1.5,5,4,0,18,18,18,213.83744800000568,,,,,,,,,,,,,,213.82276133299456,213.83744800000568,213.83744800000568,215.33237349998672,215.33237349998672,215.32308104098774,1,1.0090087499993388,None,,,,,-1473,-2477,215.32353449999937,220.31634354099515,220.31636770800105,220.33063812498585,221.81657766600256,A_LOSS,221.8166070409934,225.80702000000747,,,,,,9999,001,0,2024-04-14_14h03.20.336,ADMT_r1,2023.2.3,None,2024-04-14 14h03.28.115463 -0500,
43,57,91,-91,ProbMM_valueH,3,1,1,0,19,19,19,225.8215060000075,,,,,,,,,,,,,,225.80743899999652,225.8215060000075,225.8215060000075,228.81662120798137,228.81662120798137,228.80698512500385,2,1.074215833999915,None,(,),,,-91,-2477,228.8074569159944,229.8001926249999,229.80021691598813,229.81428245798452,231.3002712079906,R_LOSS,231.30029983300483,232.29037679100293,231.306732750003,,,,,9999,001,0,2024-04-14_14h03.20.336,ADMT_r1,2023.2.3,None,2024-04-14 14h03.28.115463 -0500,
59,41,81,81,ProbMM_valueH,3,3,4,0,20,20,20,232.30513479100773,,,,,,,,,,,,,,232.29079116598587,232.30513479100773,232.30513479100773,235.29967300000135,235.29967300000135,235.2902412499825,1,0.7927574589848518,None,,,+,,81,-2396,235.29069945798256,238.28409137498238,238.28412112500519,238.29836129100295,239.78411070798757,A_GAIN,239.78413870799704,243.78431629098486,239.790557832981,,,,,9999,001,0,2024-04-14_14h03.20.336,ADMT_r1,2023.2.3,None,2024-04-14 14h03.28.115463 -0500,
79,21,7,7,ProbHH_valueL,3,2,3,0,21,21,21,243.80063995800447,,,,,,,,,,,,,,243.784727708,243.80063995800447,243.80063995800447,246.791529582988,246.791529582988,246.78436912500183,1,0.7298903749906458,None,,,+,,7,-2389,246.78483670798596,248.78438774999813,248.78441758299596,248.79866333300015,250.28447754099034,A_GAIN,250.28450770798372,253.27492429100676,250.2909002910019,,,,,9999,001,0,2024-04-14_14h03.20.336,ADMT_r1,2023.2.3,None,2024-04-14 14h03.28.115463 -0500,
43,57,17,17,ProbMM_valueL,3,5,8,0,22,22,22,253.2897444999835,,,,,,,,,,,,,,253.27537870800006,253.2897444999835,253.2897444999835,256.2837449159997,256.2837449159997,256.2745197909826,2,1.0085427500016522,None,(,),+,,17,-2389,256.2749990829907,261.26798358300584,261.26801450000494,261.2826786660007,262.76819249999244,R_GAIN,262.7682163330028,270.75741045799805,262.77453954098746,,,,,9999,001,0,2024-04-14_14h03.20.336,ADMT_r1,2023.2.3,None,2024-04-14 14h03.28.115463 -0500,
82,18,15,15,ProbHH_valueL,3,3,2,0,23,23,23,270.77205983299064,,,,,,,,,,,,,,270.75784020798164,270.77205983299064,270.77205983299064,273.76761508299387,273.76761508299387,273.75837758299895,1,0.7786811249970924,None,,,+,,15,-2374,273.7588296250033,276.75175566598773,276.7517802499933,276.76565195800504,278.25201954098884,A_GAIN,278.2520525,280.24217141600093,278.25929591598106,,,,,9999,001,0,2024-04-14_14h03.20.336,ADMT_r1,2023.2.3,None,2024-04-14 14h03.28.115463 -0500,
44,56,84,-84,ProbMM_valueH,3,1,8,0,24,24,24,280.25766483298503,,,,,,,,,,,,,,280.2425947499869,280.25766483298503,280.25766483298503,283.2512639159977,283.2512639159977,283.2417529579834,2,1.1525807089929003,None,(,),,,-84,-2374,283.24221637498704,284.2355528330081,284.2355794580071,284.2501469999843,285.73544212500565,R_LOSS,285.73547070799395,293.72522579098586,285.74147591600195,,,,,9999,001,0,2024-04-14_14h03.20.336,ADMT_r1,2023.2.3,None,2024-04-14 14h03.28.115463 -0500,
40,60,19,-19,ProbMM_valueL,3,3,4,0,25,25,25,293.7406022079813,,,,,,,,,,,,,,293.72566108300816,293.7406022079813,293.7406022079813,296.73509170798934,296.73509170798934,296.72523279098095,2,1.01192158300546,None,(,),,,-19,-2374,296.7257138330024,299.7193456660025,299.7193694160087,299.7329968329868,301.21933562500635,R_LOSS,301.21936420799466,305.20874604099663,301.22546975000296,,,,,9999,001,0,2024-04-14_14h03.20.336,ADMT_r1,2023.2.3,None,2024-04-14 14h03.28.115463 -0500,
21,79,9,-9,ProbLL_valueL,3,2,8,0,26,26,26,305.2239285830001,,,,,,,,,,,,,,305.2092554999981,305.2239285830001,305.2239285830001,308.21867791598197,308.21867791598197,308.2089205000084,2,0.8292840410140343,None,(,),,,-9,-2374,308.2093935830053,310.2032135000045,310.2032350829977,310.2174126250029,311.7030087909952,R_LOSS,311.70304024999496,319.6936532079999,311.7101112079981,,,,,9999,001,0,2024-04-14_14h03.20.336,ADMT_r1,2023.2.3,None,2024-04-14 14h03.28.115463 -0500,
77,23,81,81,ProbHH_valueH,3,2,3,0,27,27,27,319.7095189160027,,,,,,,,,,,,,,319.69411554100225,319.7095189160027,319.7095189160027,322.70252441600314,322.70252441600314,322.6928761659947,1,0.9602049579843879,None,,,+,,81,-2293,322.69336187498993,324.6869396249822,324.6869609999994,324.7006156659918,326.1864954580087,A_GAIN,326.18652383299195,329.1767261250061,326.1928440409829,,,,,9999,001,0,2024-04-14_14h03.20.336,ADMT_r1,2023.2.3,None,2024-04-14 14h03.28.115463 -0500,
90,10,94,94,ProbHH_valueH,3,1,4,0,28,28,28,329.1916696249973,,,,,,,,,,,,,,329.17714058299316,329.1916696249973,329.1916696249973,332.1861110829923,332.1861110829923,332.17673495798954,1,1.0624510000052396,None,,,+,,94,-2199,332.1771929579845,333.1703538330039,333.17037741598324,333.18424129099003,334.67047458299203,A_GAIN,334.67050799998106,338.6607775829907,334.67761262500426,,,,,9999,001,0,2024-04-14_14h03.20.336,ADMT_r1,2023.2.3,None,2024-04-14 14h03.28.115463 -0500,
21,79,10,-10,ProbLL_valueL,3,3,1,0,29,29,29,338.67559279099805,,,,,,,,,,,,,,338.6611921660078,338.67559279099805,338.67559279099805,341.66989129100693,341.66989129100693,341.66011574998265,2,1.3458891669870354,None,(,),,,-10,-2199,341.6605719999934,344.65398941599415,344.65401316600037,344.668153000006,346.15393883298384,R_LOSS,346.15396716599935,347.14370737498393,346.16042820800794,,,,,9999,001,0,2024-04-14_14h03.20.336,ADMT_r1,2023.2.3,None,2024-04-14 14h03.28.115463 -0500,
46,54,13,-13,ProbMM_valueL,3,2,2,0,30,30,30,347.15858412499074,,,,,,,,,,,,,,347.144136124989,347.15858412499074,347.15858412499074,350.15338791598333,350.15338791598333,350.1441060829966,1,1.195208916993579,None,,,,,-13,-2212,350.14457124998444,352.1379778329865,352.13799920800375,352.1520666659926,353.63783645798685,A_LOSS,353.63786470799823,355.6282182499999,353.6439064159931,,,,,9999,001,0,2024-04-14_14h03.20.336,ADMT_r1,2023.2.3,None,2024-04-14 14h03.28.115463 -0500,
6,94,88,-88,ProbLL_valueH,3,2,4,0,31,31,31,355.6432949999871,,,,,,,,,,,,,,355.6286470409832,355.6432949999871,355.6432949999871,358.6371765829972,358.6371765829972,358.62707225000486,2,0.9751667079981416,None,(,),,,-88,-2212,358.62748004100285,360.62172724999255,360.6217545410036,360.6362309999822,362.1211941250076,R_LOSS,362.1212231660029,366.1107445000089,362.1276455830084,,,,,9999,001,0,2024-04-14_14h03.20.336,ADMT_r1,2023.2.3,None,2024-04-14 14h03.28.115463 -0500,
89,11,88,88,ProbHH_valueH,3,1,8,0,32,32,32,366.12540041600005,,,,,,,,,,,,,,366.1111753330042,366.12540041600005,366.12540041600005,369.120626332995,369.120626332995,369.11121829098556,1,1.0541607500053942,None,,,+,,88,-2124,369.11169774999144,370.10458254098194,370.1046122080006,370.11877387500135,371.60508366598515,A_GAIN,371.6051082079939,379.59503362499527,371.61157370798173,,,,,9999,001,0,2024-04-14_14h03.20.336,ADMT_r1,2023.2.3,None,2024-04-14 14h03.28.115463 -0500,
16,84,96,-96,ProbLL_valueH,3,5,1,0,33,33,33,379.6106921659957,,,,,,,,,,,,,,379.5954746659845,379.6106921659957,379.6106921659957,382.60435979100293,382.60435979100293,382.5948254999821,2,0.960783624992473,None,(,),,,-96,-2124,382.5952985409822,387.58871716598514,387.5887417079939,387.6028766249947,389.0884971249907,R_LOSS,389.08852129100705,390.07841204098077,389.0945491659804,,,,,9999,001,0,2024-04-14_14h03.20.336,ADMT_r1,2023.2.3,None,2024-04-14 14h03.28.115463 -0500,
84,16,83,83,ProbHH_valueH,3,1,3,0,34,34,34,390.0930609999923,,,,,,,,,,,,,,390.0788442080084,390.0930609999923,390.0930609999923,393.08804704100476,393.08804704100476,393.07859895800357,1,1.015308416011976,None,,,+,,83,-2041,393.07907629100373,394.07248362500104,394.0725099160045,394.08667841600254,395.57257466600277,A_GAIN,395.5725992079824,398.56184712500544,395.578639415995,,,,,9999,001,0,2024-04-14_14h03.20.336,ADMT_r1,2023.2.3,None,2024-04-14 14h03.28.115463 -0500,
40,60,15,15,ProbMM_valueL,3,1,3,0,35,35,35,398.5766758329992,,,,,,,,,,,,,,398.56226408298244,398.5766758329992,398.5766758329992,401.5716557079868,401.5716557079868,401.5620250409993,2,1.2717364999989513,None,(,),+,,15,-2041,401.5624884160061,402.55595995800104,402.55598999999347,402.5708257500082,404.0557759999938,R_GAIN,404.0558072910062,407.0458748329838,404.0630107499892,,,,,9999,001,0,2024-04-14_14h03.20.336,ADMT_r1,2023.2.3,None,2024-04-14 14h03.28.115463 -0500,
25,75,97,-97,ProbLL_valueH,3,1,1,0,36,36,36,407.06103166600224,,,,,,,,,,,,,,407.04632666599355,407.06103166600224,407.06103166600224,410.0552157079801,410.0552157079801,410.04560645800666,2,1.2392762920062523,None,(,),,,-97,-2041,410.04605937498854,411.0393064999953,411.0393383750052,411.0537464999943,412.5393409160024,R_LOSS,412.5393657909881,413.5290347909904,412.5458261659951,,,,,9999,001,0,2024-04-14_14h03.20.336,ADMT_r1,2023.2.3,None,2024-04-14 14h03.28.115463 -0500,
43,57,1124,1124,ProbMM_valueSH,1.5,2,3,0,37,37,37,413.5437828330032,,,,,,,,,,,,,,413.5294758749951,413.5437828330032,413.5437828330032,415.0389711659809,415.0389711659809,415.02893162498367,2,1.1724267909885384,None,(,),+,,1124,-2041,415.02940416597994,417.02321562499856,417.02324229100486,417.0378337079892,418.5231054580072,R_GAIN,418.52313266598503,421.512904083007,418.52954370799125,,,,,9999,001,0,2024-04-14_14h03.20.336,ADMT_r1,2023.2.3,None,2024-04-14 14h03.28.115463 -0500,
40,60,9,-9,ProbMM_valueL,3,2,3,0,38,38,38,421.5273877909931,,,,,,,,,,,,,,421.5133440000063,421.5273877909931,421.5273877909931,424.5223164999916,424.5223164999916,424.5128203750064,2,1.0874541250232141,None,(,),,,-9,-2041,424.51328312500846,426.50676529100747,426.5067916249973,426.52106662499136,428.0065487079846,R_LOSS,428.0065723329899,430.99661779098096,428.01255954100634,,,,,9999,001,0,2024-04-14_14h03.20.336,ADMT_r1,2023.2.3,None,2024-04-14 14h03.28.115463 -0500,
49,51,83,-83,ProbMM_valueH,3,2,1,0,39,39,39,431.0119987500075,,,,,,,,,,,,,,430.9970417500008,431.0119987500075,431.0119987500075,434.0059309579956,434.0059309579956,433.9966553330014,2,1.0442657909879927,None,(,),,,-83,-2041,433.99712154100416,435.99007304100087,435.99009808298433,436.0042982909945,437.4904189159861,R_LOSS,437.4904467499873,438.48003837498254,437.4968446249841,,,,,9999,001,0,2024-04-14_14h03.20.336,ADMT_r1,2023.2.3,None,2024-04-14 14h03.28.115463 -0500,
15,85,4,-4,ProbLL_valueL,3,1,3,0,40,40,40,438.4947142500023,,,,,,,,,,,,,,438.48048149998067,438.4947142500023,438.4947142500023,441.48973491598736,441.48973491598736,441.47977458298556,2,0.8985747910046484,None,(,),,,-4,-2041,441.48025116598,442.473568040994,442.47359912499087,442.48811308300355,443.97390120799537,R_LOSS,443.9739295000036,446.9637322909839,443.98004354099976,,,,,9999,001,0,2024-04-14_14h03.20.336,ADMT_r1,2023.2.3,None,2024-04-14 14h03.28.115463 -0500,
42,58,84,-84,ProbMM_valueH,3,2,3,0,41,41,41,446.9790400000056,,,,,,,,,,,,,,446.9642776660039,446.9790400000056,446.9790400000056,449.9732141249988,449.9732141249988,449.9638004580047,2,0.8331667500024196,None,(,),,,-84,-2041,449.96419283299474,451.95748049998656,451.9575132500031,451.9722714579839,453.4572048749833,R_LOSS,453.45723166599055,456.44719800000894,453.4633281659917,,,,,9999,001,0,2024-04-14_14h03.20.336,ADMT_r1,2023.2.3,None,2024-04-14 14h03.28.115463 -0500,
14,86,83,-83,ProbLL_valueH,3,2,3,0,42,42,42,456.4624052910076,,,,,,,,,,,,,,456.44763316598255,456.4624052910076,456.4624052910076,459.4567608329817,459.4567608329817,459.4475913750066,2,0.7841071249858942,None,(,),,,-83,-2041,459.44805558299413,461.44111116600106,461.4411382499966,461.45527229100117,462.9412415830011,R_LOSS,462.94127362500876,465.9414626249927,462.94796612500795,,,,,9999,001,0,2024-04-14_14h03.20.336,ADMT_r1,2023.2.3,None,2024-04-14 14h03.28.115463 -0500,
23,77,85,-85,ProbLL_valueH,3,2,8,0,43,43,43,465.95784304098925,,,,,,,,,,,,,,465.9420007909939,465.95784304098925,465.95784304098925,468.9483327080088,468.9483327080088,468.9410562909907,2,0.8778998749912716,None,(,),,,-85,-2041,468.9415063330089,470.94146587498835,470.94148966600187,470.9555804579868,472.44099066598574,R_LOSS,472.4410179159895,480.43123449999257,472.44703629100695,,,,,9999,001,0,2024-04-14_14h03.20.336,ADMT_r1,2023.2.3,None,2024-04-14 14h03.28.115463 -0500,
25,75,92,-92,ProbLL_valueH,3,1,3,0,44,44,44,480.4460213749844,,,,,,,,,,,,,,480.4316724159871,480.4460213749844,480.4460213749844,483.44102433300577,483.44102433300577,483.43108474998735,2,0.8973987499775831,None,(,),,,-92,-2041,483.43157333298586,484.4252883330046,484.42531200000667,484.43942404098925,485.9250033329881,R_LOSS,485.92503804099397,488.9250399580051,485.9323244999978,,,,,9999,001,0,2024-04-14_14h03.20.336,ADMT_r1,2023.2.3,None,2024-04-14 14h03.28.115463 -0500,
75,25,90,90,ProbHH_valueH,3,5,1,0,45,45,45,488.940956040984,,,,,,,,,,,,,,488.9254572079808,488.940956040984,488.940956040984,491.9324989159941,491.9324989159941,491.9254225830082,1,0.7676529999880586,None,,,+,,90,-1951,491.92586754099466,496.92562829100643,496.9256528749829,496.9394674579962,498.4255808329908,A_GAIN,498.4256084160006,499.4153297909943,498.4320660000085,,,,,9999,001,0,2024-04-14_14h03.20.336,ADMT_r1,2023.2.3,None,2024-04-14 14h03.28.115463 -0500,
51,49,1147,1147,ProbMM_valueSH,1.5,1,2,0,46,46,46,499.43010220798897,,,,,,,,,,,,,,499.41576400000486,499.43010220798897,499.43010220798897,500.9247626659926,500.9247626659926,500.9155962500081,1,1.1162251250061672,None,,,+,,1147,-804,500.9160587079823,501.90894991598907,501.90896966599394,501.9221756659972,503.40912224998465,A_GAIN,503.409148332983,505.398321124987,503.41521041598753,,,,,9999,001,0,2024-04-14_14h03.20.336,ADMT_r1,2023.2.3,None,2024-04-14 14h03.28.115463 -0500,
59,41,14,14,ProbMM_valueL,3,1,1,0,47,47,47,505.4127396660042,,,,,,,,,,,,,,505.3987441250065,505.4127396660042,505.4127396660042,508.4082392079872,508.4082392079872,508.39874095798586,1,0.7815309999859892,None,,,+,,14,-790,508.39921716600657,509.3925957499887,509.3926243750029,509.40690241599805,510.89255779099767,A_GAIN,510.89258170800167,511.8828736249998,510.8989949579991,,,,,9999,001,0,2024-04-14_14h03.20.336,ADMT_r1,2023.2.3,None,2024-04-14 14h03.28.115463 -0500,
81,19,17,-17,ProbHH_valueL,3,1,1,0,48,48,48,511.8991772499867,,,,,,,,,,,,,,511.8833003329928,511.8991772499867,511.8991772499867,514.8917336250015,514.8917336250015,514.8824621249805,1,0.8428021669969894,None,,,,,-17,-807,514.8829095409892,515.8756513329863,515.8756724160048,515.8891836249968,517.3757934999885,A_LOSS,517.3758249579987,518.3660982080037,,,,,,9999,001,0,2024-04-14_14h03.20.336,ADMT_r1,2023.2.3,None,2024-04-14 14h03.28.115463 -0500,
78,22,8,8,ProbHH_valueL,3,2,8,0,49,49,49,518.3808499999868,,,,,,,,,,,,,,518.3665184580022,518.3808499999868,518.3808499999868,521.3755557909899,521.3755557909899,521.365537790989,1,0.8951446249848232,None,,,+,,8,-799,521.3659489999991,523.3598211659992,523.3598517499922,523.3738463330083,524.8596486659953,A_GAIN,524.859675249987,532.8497150409967,524.8660726659873,,,,,9999,001,0,2024-04-14_14h03.20.336,ADMT_r1,2023.2.3,None,2024-04-14 14h03.28.115463 -0500,
42,58,1344,-1344,ProbMM_valueSH,1.5,1,1,0,50,50,50,532.8647901249933,,,,,,,,,,,,,,532.8501305409882,532.8647901249933,532.8647901249933,534.3592804159853,534.3592804159853,534.3492967909842,2,1.1384474169753958,None,(,),,,-1344,-799,534.3497055000043,535.3432041659835,535.3432277079846,535.3573504159867,536.8436724159983,R_LOSS,536.8436990829941,537.8330250410072,536.8500939579972,,,,,9999,001,0,2024-04-14_14h03.20.336,ADMT_r1,2023.2.3,None,2024-04-14 14h03.28.115463 -0500,
55,45,1347,-1347,ProbMM_valueSH,1.5,1,1,0,51,51,51,537.848802958004,,,,,,,,,,,,,,537.8334724580054,537.848802958004,537.848802958004,539.3425555409922,539.3425555409922,539.3329613329843,1,0.8110899580060504,None,,,,,-1347,-2146,539.3334250829939,540.3270575829956,540.32708787499,540.3416137080058,541.8270173750061,A_LOSS,541.8270448329858,542.816517957981,541.8330267079873,,,,,9999,001,0,2024-04-14_14h03.20.336,ADMT_r1,2023.2.3,None,2024-04-14 14h03.28.115463 -0500,
42,58,95,-95,ProbMM_valueH,3,1,2,0,52,52,52,542.8311623329937,,,,,,,,,,,,,,542.8169601249974,542.8311623329937,542.8311623329937,545.8260692500044,545.8260692500044,545.8165114999865,2,1.5356960839999374,None,(,),,,-95,-2146,545.8169770829845,546.8102123329882,546.8102340000041,546.8243522499979,548.310636374983,R_LOSS,548.310668332997,550.3104896660079,548.3178423749923,,,,,9999,001,0,2024-04-14_14h03.20.336,ADMT_r1,2023.2.3,None,2024-04-14 14h03.28.115463 -0500,
17,83,89,89,ProbLL_valueH,3,1,1,0,53,53,53,550.3255681250012,,,,,,,,,,,,,,550.3109069579805,550.3255681250012,550.3255681250012,553.3175702079898,553.3175702079898,553.3103307499841,2,0.7137696249992587,None,(,),+,,89,-2146,553.310789332987,554.3005033750087,554.3005254580057,554.3137964579801,555.8000294579833,R_GAIN,555.8000535409956,556.7941502080066,555.8102340830083,,,,,9999,001,0,2024-04-14_14h03.20.336,ADMT_r1,2023.2.3,None,2024-04-14 14h03.28.115463 -0500,
55,45,1137,-1137,ProbMM_valueSH,1.5,3,1,0,54,54,54,556.8113245829882,,,,,,,,,,,,,,556.7946908749873,556.8113245829882,556.8113245829882,558.3097929999931,558.3097929999931,558.3008148749941,1,0.7513247080205474,None,,,,,-1137,-3283,558.3012723329884,561.2940159999998,561.2940379999927,561.3081087909814,562.7944680829823,A_LOSS,562.7945044579974,563.7843460410077,562.8014502500009,,,,,9999,001,0,2024-04-14_14h03.20.336,ADMT_r1,2023.2.3,None,2024-04-14 14h03.28.115463 -0500,
87,13,93,93,ProbHH_valueH,3,2,1,0,55,55,55,563.799131207983,,,,,,,,,,,,,,563.7847850410035,563.799131207983,563.799131207983,566.7933735410043,566.7933735410043,566.7840806659951,1,0.9280513330013491,None,,,+,,93,-3190,566.7845400410006,568.7777027910051,568.7777276659908,568.7913273749873,570.2776446659991,A_GAIN,570.2776718749956,571.2673222080048,570.2841558329819,,,,,9999,001,0,2024-04-14_14h03.20.336,ADMT_r1,2023.2.3,None,2024-04-14 14h03.28.115463 -0500,
,,,,,,,,,,,,,,,,,,,,,,,,,,,,,,,,,,,,,,,,,,,,,,,,,,571.2674320410006,591.2618605000025,591.2618831250002,595.267607791,,,,,,,,,
