8.1251 	WARNING 	Couldn't measure a consistent frame rate!
  - Is your graphics card set to sync to vertical blank?
  - Are you running other processes on your computer?

8.1265 	EXP 	Created window1 = Window(allowGUI=True, allowStencil=False, autoLog=True, backendConf=UNKNOWN, backgroundFit=<method-wrapper '__getattribute__' of attributeSetter object at 0x7f845c28a640>, backgroundImage=<method-wrapper '__getattribute__' of attributeSetter object at 0x7f845c28a5e0>, bitsMode=UNKNOWN, blendMode='avg', bpc=(8, 8, 8), color=array([-1., -1., -1.]), colorSpace='rgb', depthBits=8, fullscr=<method-wrapper '__getattribute__' of attributeSetter object at 0x7f845c28a460>, gamma=None, gammaErrorPolicy='raise', lms=UNKNOWN, monitor=<psychopy.monitors.calibTools.Monitor object at 0x7f845d6ccd00>, multiSample=False, name='window1', numSamples=2, pos=[360.0, 225.0], screen=0, size=array([2880, 1800]), stencilBits=0, stereo=False, title='PsychoPy', units='height', useFBO=True, useRetina=True, viewOri=0.0, viewPos=None, viewScale=None, waitBlanking=True, winType='pyglet')
8.1267 	EXP 	window1: mouseVisible = True
8.1268 	EXP 	window1: backgroundImage = ''
8.1268 	EXP 	window1: backgroundFit = 'none'
8.1305 	EXP 	window1: Attempting to measure frame rate of screen (0) ...
8.1306 	EXP 	window1: recordFrameIntervals = False
8.2148 	EXP 	window1: recordFrameIntervals = True
9.0488 	WARNING 	Couldn't measure a consistent frame rate!
  - Is your graphics card set to sync to vertical blank?
  - Are you running other processes on your computer?

9.0502 	EXP 	window1: mouseVisible = False
10.7968 	EXP 	ADMT_r1: status = STARTED
10.7972 	EXP 	window1: mouseVisible = True
10.8359 	EXP 	Created welcome = TextStim(__class__=<class 'psychopy.visual.text.TextStim'>, alignHoriz=method-wrapper(...), alignText='center', alignVert=method-wrapper(...), anchorHoriz='center', anchorVert='center', antialias=True, autoDraw=False, autoLog=True, bold=False, color=array([1., 1., 1.]), colorSpace='rgb', contrast=1.0, depth=0.0, draggable=False, flipHoriz=False, flipVert=False, font='Arial', fontFiles=[], height=0.1, italic=False, languageStyle='LTR', name='welcome', opacity=1.0, ori=0, pos=array([0., 0.]), rgb=UNKNOWN, text=str(...), units='norm', win=Window(...), wrapWidth=10)
10.8360 	EXP 	window1: mouseVisible = True
10.8457 	EXP 	Created review1 = TextStim(__class__=<class 'psychopy.visual.text.TextStim'>, alignHoriz=method-wrapper(...), alignText='center', alignVert=method-wrapper(...), anchorHoriz='center', anchorVert='center', antialias=True, autoDraw=False, autoLog=True, bold=False, color=array([1., 1., 1.]), colorSpace='rgb', contrast=1.0, depth=0.0, draggable=False, flipHoriz=False, flipVert=False, font='Arial', fontFiles=[], height=0.1, italic=False, languageStyle='LTR', name='review1', opacity=1.0, ori=0, pos=array([0., 0.]), rgb=UNKNOWN, text=str(...), units='norm', win=Window(...), wrapWidth=10)
10.8458 	EXP 	window1: mouseVisible = True
10.8704 	EXP 	Created review2 = TextStim(__class__=<class 'psychopy.visual.text.TextStim'>, alignHoriz=method-wrapper(...), alignText='center', alignVert=method-wrapper(...), anchorHoriz='center', anchorVert='center', antialias=True, autoDraw=False, autoLog=True, bold=False, color=array([1., 1., 1.]), colorSpace='rgb', contrast=1.0, depth=0.0, draggable=False, flipHoriz=False, flipVert=False, font='Arial', fontFiles=[], height=0.08, italic=False, languageStyle='LTR', name='review2', opacity=1.0, ori=0, pos=array([0., 0.]), rgb=UNKNOWN, text=str(...), units='norm', win=Window(...), wrapWidth=10)
10.8705 	EXP 	window1: mouseVisible = True
10.8728 	EXP 	Created scannerpulse = TextStim(__class__=<class 'psychopy.visual.text.TextStim'>, alignHoriz=method-wrapper(...), alignText='center', alignVert=method-wrapper(...), anchorHoriz='center', anchorVert='center', antialias=True, autoDraw=False, autoLog=True, bold=False, color=array([1., 1., 1.]), colorSpace='rgb', contrast=1.0, depth=0.0, draggable=False, flipHoriz=False, flipVert=False, font='Arial', fontFiles=[], height=0.1, italic=False, languageStyle='LTR', name='scannerpulse', opacity=1.0, ori=0, pos=array([0., 0.]), rgb=UNKNOWN, text='+', units='norm', win=Window(...), wrapWidth=1)
10.8729 	EXP 	window1: mouseVisible = True
10.8758 	EXP 	Created longiti1 = TextStim(__class__=<class 'psychopy.visual.text.TextStim'>, alignHoriz=method-wrapper(...), alignText='center', alignVert=method-wrapper(...), anchorHoriz='center', anchorVert='center', antialias=True, autoDraw=False, autoLog=True, bold=False, color=array([1., 1., 1.]), colorSpace='rgb', contrast=1.0, depth=0.0, draggable=False, flipHoriz=False, flipVert=False, font='Arial', fontFiles=[], height=0.1, italic=False, languageStyle='LTR', name='longiti1', opacity=1.0, ori=0, pos=array([0., 0.]), rgb=UNKNOWN, text='+', units='height', win=Window(...), wrapWidth=1)
10.8759 	EXP 	window1: mouseVisible = True
10.8767 	EXP 	Created choice = TextStim(__class__=<class 'psychopy.visual.text.TextStim'>, alignHoriz=method-wrapper(...), alignText='center', alignVert=method-wrapper(...), anchorHoriz='center', anchorVert='center', antialias=True, autoDraw=False, autoLog=True, bold=False, color=array([1., 1., 1.]), colorSpace='rgb', contrast=1.0, depth=-2.0, draggable=False, flipHoriz=False, flipVert=False, font='Arial', fontFiles=[], height=0.1, italic=False, languageStyle='LTR', name='choice', opacity=1.0, ori=0, pos=array([0., 0.]), rgb=UNKNOWN, text='', units='norm', win=Window(...), wrapWidth=1)
10.8768 	EXP 	window1: mouseVisible = True
10.8784 	EXP 	Created iti1 = TextStim(__class__=<class 'psychopy.visual.text.TextStim'>, alignHoriz=method-wrapper(...), alignText='center', alignVert=method-wrapper(...), anchorHoriz='center', anchorVert='center', antialias=True, autoDraw=False, autoLog=True, bold=False, color=array([1., 1., 1.]), colorSpace='rgb', contrast=1.0, depth=0.0, draggable=False, flipHoriz=False, flipVert=False, font='Arial', fontFiles=[], height=0.1, italic=False, languageStyle='LTR', name='iti1', opacity=1.0, ori=0, pos=array([0., 0.]), rgb=UNKNOWN, text='+', units='height', win=Window(...), wrapWidth=1)
10.8784 	EXP 	window1: mouseVisible = True
10.8793 	EXP 	Created feedback = TextStim(__class__=<class 'psychopy.visual.text.TextStim'>, alignHoriz=method-wrapper(...), alignText='center', alignVert=method-wrapper(...), anchorHoriz='center', anchorVert='center', antialias=True, autoDraw=False, autoLog=True, bold=False, color=array([1., 1., 1.]), colorSpace='rgb', contrast=1.0, depth=-1.0, draggable=False, flipHoriz=False, flipVert=False, font='Arial', fontFiles=[], height=0.1, italic=False, languageStyle='LTR', name='feedback', opacity=1.0, ori=0, pos=array([0., 0.]), rgb=UNKNOWN, text='', units='norm', win=Window(...), wrapWidth=1)
10.8793 	EXP 	window1: mouseVisible = True
10.8808 	EXP 	Created iti2 = TextStim(__class__=<class 'psychopy.visual.text.TextStim'>, alignHoriz=method-wrapper(...), alignText='center', alignVert=method-wrapper(...), anchorHoriz='center', anchorVert='center', antialias=True, autoDraw=False, autoLog=True, bold=False, color=array([1., 1., 1.]), colorSpace='rgb', contrast=1.0, depth=0.0, draggable=False, flipHoriz=False, flipVert=False, font='Arial', fontFiles=[], height=0.1, italic=False, languageStyle='LTR', name='iti2', opacity=1.0, ori=0, pos=array([0., 0.]), rgb=UNKNOWN, text='+', units='height', win=Window(...), wrapWidth=1)
10.8809 	EXP 	window1: mouseVisible = True
10.8824 	EXP 	Created longiti2 = TextStim(__class__=<class 'psychopy.visual.text.TextStim'>, alignHoriz=method-wrapper(...), alignText='center', alignVert=method-wrapper(...), anchorHoriz='center', anchorVert='center', antialias=True, autoDraw=False, autoLog=True, bold=False, color=array([1., 1., 1.]), colorSpace='rgb', contrast=1.0, depth=0.0, draggable=False, flipHoriz=False, flipVert=False, font='Arial', fontFiles=[], height=0.1, italic=False, languageStyle='LTR', name='longiti2', opacity=1.0, ori=0, pos=array([0., 0.]), rgb=UNKNOWN, text='+', units='height', win=Window(...), wrapWidth=1)
10.8825 	EXP 	window1: mouseVisible = True
10.8833 	EXP 	Created text = TextStim(__class__=<class 'psychopy.visual.text.TextStim'>, alignHoriz=method-wrapper(...), alignText='center', alignVert=method-wrapper(...), anchorHoriz='center', anchorVert='center', antialias=True, autoDraw=False, autoLog=True, bold=False, color=array([1., 1., 1.]), colorSpace='rgb', contrast=1.0, depth=-1.0, draggable=False, flipHoriz=False, flipVert=False, font='Arial', fontFiles=[], height=0.1, italic=False, languageStyle='LTR', name='text', opacity=1.0, ori=0, pos=array([0., 0.]), rgb=UNKNOWN, text='', units='norm', win=Window(...), wrapWidth=1)
0.0143 	EXP 	welcome: autoDraw = True
5.0285 	DATA 	Keypress: 1
5.0345 	WARNING 	t of last frame was 42.24ms (=1/23)
5.0345 	EXP 	welcome: autoDraw = False
5.0345 	EXP 	review1: autoDraw = True
8.8715 	DATA 	Keypress: 2
8.8923 	WARNING 	t of last frame was 26.66ms (=1/37)
8.8923 	EXP 	review1: autoDraw = False
8.8923 	EXP 	review2: autoDraw = True
20.8260 	WARNING 	t of last frame was 22.40ms (=1/44)
30.3404 	DATA 	Keypress: 1
30.3461 	EXP 	review2: autoDraw = False
30.3461 	EXP 	scannerpulse: autoDraw = True
31.9820 	DATA 	Keypress: 5
31.9873 	EXP 	scannerpulse: autoDraw = False
31.9873 	EXP 	longiti1: autoDraw = True
32.0097 	WARNING 	t of last frame was 22.38ms (=1/44)
52.0094 	EXP 	Imported BML_r1.xlsx as conditions, 56 conditions, 8 params
52.0111 	EXP 	Created sequence: sequential, trialTypes=56, nReps=1, seed=None
52.0113 	EXP 	New trial (rep=0, index=0): {'Win': 21, 'Lose': 79, 'Value': 5, 'RealValue': -5, 'Label': 'ProbLL_valueL', 'ChoiceDur': 3, 'ITIDur1': 2, 'ITIDur2': 1}
52.0354 	WARNING 	Multiple dropped frames have occurred - I'll stop bothering you about them!
52.0351 	EXP 	longiti1: autoDraw = False
52.0351 	EXP 	longiti1: autoDraw = False
52.0351 	EXP 	choice: height = 0.1
52.0351 	EXP 	choice: height = 0.1
52.0351 	EXP 	choice: height = 0.1
52.0351 	EXP 	choice: text = '     5 points\n\n21% win      79% lose\n\n  Accept         Decline  '
52.0351 	EXP 	choice: autoDraw = True
53.2835 	DATA 	Keypress: 2
55.0360 	EXP 	choice: autoDraw = False
55.0360 	EXP 	choice: autoDraw = False
55.0360 	EXP 	iti1: autoDraw = True
57.0474 	EXP 	iti1: autoDraw = False
57.0474 	EXP 	iti1: autoDraw = False
57.0474 	EXP 	feedback: height = 0.1
57.0474 	EXP 	feedback: height = 0.1
57.0474 	EXP 	feedback: height = 0.1
57.0474 	EXP 	feedback: text = '  (-5) points\n \n\n Total 0 points'
57.0474 	EXP 	feedback: autoDraw = True
58.5445 	EXP 	feedback: autoDraw = False
58.5445 	EXP 	iti2: autoDraw = True
59.5287 	EXP 	New trial (rep=0, index=1): {'Win': 21, 'Lose': 79, 'Value': 14, 'RealValue': -14, 'Label': 'ProbLL_valueL', 'ChoiceDur': 3, 'ITIDur1': 5, 'ITIDur2': 3}
59.5470 	EXP 	iti2: autoDraw = False
59.5470 	EXP 	iti2: autoDraw = False
59.5470 	EXP 	choice: height = 0.1
59.5470 	EXP 	choice: height = 0.1
59.5470 	EXP 	choice: height = 0.1
59.5470 	EXP 	choice: text = '     14 points\n\n21% win      79% lose\n\n  Accept         Decline  '
59.5470 	EXP 	choice: autoDraw = True
60.7722 	DATA 	Keypress: 2
62.5441 	EXP 	choice: autoDraw = False
62.5441 	EXP 	choice: autoDraw = False
62.5441 	EXP 	iti1: autoDraw = True
67.5417 	EXP 	iti1: autoDraw = False
67.5417 	EXP 	iti1: autoDraw = False
67.5417 	EXP 	feedback: height = 0.1
67.5417 	EXP 	feedback: height = 0.1
67.5417 	EXP 	feedback: height = 0.1
67.5417 	EXP 	feedback: text = '  (-14) points\n \n\n Total 0 points'
67.5417 	EXP 	feedback: autoDraw = True
69.0346 	EXP 	feedback: autoDraw = False
69.0346 	EXP 	feedback: autoDraw = False
69.0346 	EXP 	iti2: autoDraw = True
72.0207 	EXP 	New trial (rep=0, index=2): {'Win': 59, 'Lose': 41, 'Value': 92, 'RealValue': 92, 'Label': 'ProbMM_valueH', 'ChoiceDur': 3, 'ITIDur1': 2, 'ITIDur2': 3}
72.0347 	EXP 	iti2: autoDraw = False
72.0347 	EXP 	iti2: autoDraw = False
72.0347 	EXP 	choice: height = 0.1
72.0347 	EXP 	choice: height = 0.1
72.0347 	EXP 	choice: height = 0.1
72.0347 	EXP 	choice: text = '     92 points\n\n59% win      41% lose\n\n  Accept         Decline  '
72.0347 	EXP 	choice: autoDraw = True
72.9895 	DATA 	Keypress: 1
75.0278 	EXP 	choice: autoDraw = False
75.0278 	EXP 	choice: autoDraw = False
75.0278 	EXP 	iti1: autoDraw = True
77.0266 	EXP 	iti1: autoDraw = False
77.0266 	EXP 	iti1: autoDraw = False
77.0266 	EXP 	feedback: height = 0.1
77.0266 	EXP 	feedback: height = 0.1
77.0266 	EXP 	feedback: height = 0.1
77.0266 	EXP 	feedback: text = '  +92 points\n \n\n Total 92 points'
77.0266 	EXP 	feedback: autoDraw = True
78.5181 	EXP 	feedback: autoDraw = False
78.5181 	EXP 	feedback: autoDraw = False
78.5181 	EXP 	iti2: autoDraw = True
81.5021 	EXP 	New trial (rep=0, index=3): {'Win': 84, 'Lose': 16, 'Value': 92, 'RealValue': -92, 'Label': 'ProbHH_valueH', 'ChoiceDur': 3, 'ITIDur1': 2, 'ITIDur2': 2}
81.5189 	EXP 	iti2: autoDraw = False
81.5189 	EXP 	iti2: autoDraw = False
81.5189 	EXP 	choice: height = 0.1
81.5189 	EXP 	choice: height = 0.1
81.5189 	EXP 	choice: height = 0.1
81.5189 	EXP 	choice: text = '     92 points\n\n84% win      16% lose\n\n  Accept         Decline  '
81.5189 	EXP 	choice: autoDraw = True
82.6872 	DATA 	Keypress: 1
84.5114 	EXP 	choice: autoDraw = False
84.5114 	EXP 	choice: autoDraw = False
84.5114 	EXP 	iti1: autoDraw = True
86.5102 	EXP 	iti1: autoDraw = False
86.5102 	EXP 	iti1: autoDraw = False
86.5102 	EXP 	feedback: height = 0.1
86.5102 	EXP 	feedback: height = 0.1
86.5102 	EXP 	feedback: height = 0.1
86.5102 	EXP 	feedback: text = '  -92 points\n \n\n Total 0 points'
86.5102 	EXP 	feedback: autoDraw = True
88.0019 	EXP 	feedback: autoDraw = False
88.0019 	EXP 	feedback: autoDraw = False
88.0019 	EXP 	iti2: autoDraw = True
89.9862 	EXP 	New trial (rep=0, index=4): {'Win': 8, 'Lose': 92, 'Value': 91, 'RealValue': -91, 'Label': 'ProbLL_valueH', 'ChoiceDur': 3, 'ITIDur1': 3, 'ITIDur2': 2}
90.0005 	EXP 	iti2: autoDraw = False
90.0005 	EXP 	iti2: autoDraw = False
90.0005 	EXP 	choice: height = 0.1
90.0005 	EXP 	choice: height = 0.1
90.0005 	EXP 	choice: height = 0.1
90.0005 	EXP 	choice: text = '     91 points\n\n8% win      92% lose\n\n  Accept         Decline  '
90.0005 	EXP 	choice: autoDraw = True
91.1004 	DATA 	Keypress: 2
92.9950 	EXP 	choice: autoDraw = False
92.9950 	EXP 	choice: autoDraw = False
92.9950 	EXP 	iti1: autoDraw = True
95.9930 	EXP 	iti1: autoDraw = False
95.9930 	EXP 	iti1: autoDraw = False
95.9930 	EXP 	feedback: height = 0.1
95.9930 	EXP 	feedback: height = 0.1
95.9930 	EXP 	feedback: height = 0.1
95.9930 	EXP 	feedback: text = '  (-91) points\n \n\n Total 0 points'
95.9930 	EXP 	feedback: autoDraw = True
97.4855 	EXP 	feedback: autoDraw = False
97.4855 	EXP 	feedback: autoDraw = False
97.4855 	EXP 	iti2: autoDraw = True
99.4694 	EXP 	New trial (rep=0, index=5): {'Win': 92, 'Lose': 8, 'Value': 16, 'RealValue': 16, 'Label': 'ProbHH_valueL', 'ChoiceDur': 3, 'ITIDur1': 1, 'ITIDur2': 4}
99.4839 	EXP 	iti2: autoDraw = False
99.4839 	EXP 	iti2: autoDraw = False
99.4839 	EXP 	choice: height = 0.1
99.4839 	EXP 	choice: height = 0.1
99.4839 	EXP 	choice: height = 0.1
99.4839 	EXP 	choice: text = '     16 points\n\n92% win      8% lose\n\n  Accept         Decline  '
99.4839 	EXP 	choice: autoDraw = True
100.3341 	DATA 	Keypress: 1
102.4787 	EXP 	choice: autoDraw = False
102.4787 	EXP 	choice: autoDraw = False
102.4787 	EXP 	iti1: autoDraw = True
103.4772 	EXP 	iti1: autoDraw = False
103.4772 	EXP 	iti1: autoDraw = False
103.4772 	EXP 	feedback: height = 0.1
103.4772 	EXP 	feedback: height = 0.1
103.4772 	EXP 	feedback: height = 0.1
103.4772 	EXP 	feedback: text = '  +16 points\n \n\n Total 16 points'
103.4772 	EXP 	feedback: autoDraw = True
104.9692 	EXP 	feedback: autoDraw = False
104.9692 	EXP 	feedback: autoDraw = False
104.9692 	EXP 	iti2: autoDraw = True
108.9530 	EXP 	New trial (rep=0, index=6): {'Win': 40, 'Lose': 60, 'Value': 1415, 'RealValue': -1415, 'Label': 'ProbMM_valueSH', 'ChoiceDur': 1.5, 'ITIDur1': 2, 'ITIDur2': 8}
108.9674 	EXP 	iti2: autoDraw = False
108.9674 	EXP 	iti2: autoDraw = False
108.9674 	EXP 	choice: height = 0.1
108.9674 	EXP 	choice: height = 0.1
108.9674 	EXP 	choice: height = 0.1
108.9674 	EXP 	choice: text = '     1415 points\n\n40% win      60% lose\n\n  Accept         Decline  '
108.9674 	EXP 	choice: autoDraw = True
110.4623 	EXP 	choice: autoDraw = False
110.4623 	EXP 	choice: autoDraw = False
110.4623 	EXP 	iti1: autoDraw = True
110.6010 	DATA 	Keypress: 2
112.4654 	EXP 	iti1: autoDraw = False
112.4654 	EXP 	iti1: autoDraw = False
112.4654 	EXP 	feedback: height = 0.1
112.4654 	EXP 	feedback: height = 0.1
112.4654 	EXP 	feedback: height = 0.1
112.4654 	EXP 	feedback: text = '  0 points\n Please respond!!!\n\n Total 16 points'
112.4654 	EXP 	feedback: autoDraw = True
113.9628 	EXP 	feedback: autoDraw = False
113.9628 	EXP 	iti2: autoDraw = True
121.9470 	EXP 	New trial (rep=0, index=7): {'Win': 40, 'Lose': 60, 'Value': 10, 'RealValue': -10, 'Label': 'ProbMM_valueL', 'ChoiceDur': 3, 'ITIDur1': 2, 'ITIDur2': 1}
121.9621 	EXP 	iti2: autoDraw = False
121.9621 	EXP 	iti2: autoDraw = False
121.9621 	EXP 	choice: height = 0.1
121.9621 	EXP 	choice: height = 0.1
121.9621 	EXP 	choice: height = 0.1
121.9621 	EXP 	choice: text = '     10 points\n\n40% win      60% lose\n\n  Accept         Decline  '
121.9621 	EXP 	choice: autoDraw = True
122.9354 	DATA 	Keypress: 2
124.9535 	EXP 	choice: autoDraw = False
124.9535 	EXP 	choice: autoDraw = False
124.9535 	EXP 	iti1: autoDraw = True
126.9497 	EXP 	iti1: autoDraw = False
126.9497 	EXP 	iti1: autoDraw = False
126.9497 	EXP 	feedback: height = 0.1
126.9497 	EXP 	feedback: height = 0.1
126.9497 	EXP 	feedback: height = 0.1
126.9497 	EXP 	feedback: text = '  (-10) points\n \n\n Total 16 points'
126.9497 	EXP 	feedback: autoDraw = True
128.4464 	EXP 	feedback: autoDraw = False
128.4464 	EXP 	feedback: autoDraw = False
128.4464 	EXP 	iti2: autoDraw = True
129.4306 	EXP 	New trial (rep=0, index=8): {'Win': 95, 'Lose': 5, 'Value': 1, 'RealValue': 1, 'Label': 'ProbHH_valueL', 'ChoiceDur': 3, 'ITIDur1': 1, 'ITIDur2': 3}
129.4457 	EXP 	iti2: autoDraw = False
129.4457 	EXP 	iti2: autoDraw = False
129.4457 	EXP 	choice: height = 0.1
129.4457 	EXP 	choice: height = 0.1
129.4457 	EXP 	choice: height = 0.1
129.4457 	EXP 	choice: text = '     1 points\n\n95% win      5% lose\n\n  Accept         Decline  '
129.4457 	EXP 	choice: autoDraw = True
130.2572 	DATA 	Keypress: 1
130.2667 	DATA 	Keypress: quoteleft
132.4376 	EXP 	choice: autoDraw = False
132.4376 	EXP 	choice: autoDraw = False
132.4376 	EXP 	iti1: autoDraw = True
133.4333 	EXP 	iti1: autoDraw = False
133.4333 	EXP 	iti1: autoDraw = False
133.4333 	EXP 	feedback: height = 0.1
133.4333 	EXP 	feedback: height = 0.1
133.4333 	EXP 	feedback: height = 0.1
133.4333 	EXP 	feedback: text = '  +1 points\n \n\n Total 17 points'
133.4333 	EXP 	feedback: autoDraw = True
134.9299 	EXP 	feedback: autoDraw = False
134.9299 	EXP 	feedback: autoDraw = False
134.9299 	EXP 	iti2: autoDraw = True
137.9144 	EXP 	New trial (rep=0, index=9): {'Win': 92, 'Lose': 8, 'Value': 14, 'RealValue': 14, 'Label': 'ProbHH_valueL', 'ChoiceDur': 3, 'ITIDur1': 2, 'ITIDur2': 1}
137.9295 	EXP 	iti2: autoDraw = False
137.9295 	EXP 	iti2: autoDraw = False
137.9295 	EXP 	choice: height = 0.1
137.9295 	EXP 	choice: height = 0.1
137.9295 	EXP 	choice: height = 0.1
137.9295 	EXP 	choice: text = '     14 points\n\n92% win      8% lose\n\n  Accept         Decline  '
137.9295 	EXP 	choice: autoDraw = True
138.6687 	DATA 	Keypress: 1
140.9214 	EXP 	choice: autoDraw = False
140.9214 	EXP 	choice: autoDraw = False
140.9214 	EXP 	iti1: autoDraw = True
142.9295 	EXP 	iti1: autoDraw = False
142.9295 	EXP 	iti1: autoDraw = False
142.9295 	EXP 	feedback: height = 0.1
142.9295 	EXP 	feedback: height = 0.1
142.9295 	EXP 	feedback: height = 0.1
142.9295 	EXP 	feedback: text = '  +14 points\n \n\n Total 31 points'
142.9295 	EXP 	feedback: autoDraw = True
144.4209 	EXP 	feedback: autoDraw = False
144.4209 	EXP 	feedback: autoDraw = False
144.4209 	EXP 	iti2: autoDraw = True
145.4042 	EXP 	New trial (rep=0, index=10): {'Win': 80, 'Lose': 20, 'Value': 11, 'RealValue': -11, 'Label': 'ProbHH_valueL', 'ChoiceDur': 3, 'ITIDur1': 5, 'ITIDur2': 1}
145.4188 	EXP 	iti2: autoDraw = False
145.4188 	EXP 	iti2: autoDraw = False
145.4188 	EXP 	choice: height = 0.1
145.4188 	EXP 	choice: height = 0.1
145.4188 	EXP 	choice: height = 0.1
145.4188 	EXP 	choice: text = '     11 points\n\n80% win      20% lose\n\n  Accept         Decline  '
145.4188 	EXP 	choice: autoDraw = True
146.2922 	DATA 	Keypress: 1
148.4134 	EXP 	choice: autoDraw = False
148.4134 	EXP 	choice: autoDraw = False
148.4134 	EXP 	iti1: autoDraw = True
153.4117 	EXP 	iti1: autoDraw = False
153.4117 	EXP 	iti1: autoDraw = False
153.4117 	EXP 	feedback: height = 0.1
153.4117 	EXP 	feedback: height = 0.1
153.4117 	EXP 	feedback: height = 0.1
153.4117 	EXP 	feedback: text = '  -11 points\n \n\n Total 20 points'
153.4117 	EXP 	feedback: autoDraw = True
154.9042 	EXP 	feedback: autoDraw = False
154.9042 	EXP 	feedback: autoDraw = False
154.9042 	EXP 	iti2: autoDraw = True
155.8879 	EXP 	New trial (rep=0, index=11): {'Win': 5, 'Lose': 95, 'Value': 14, 'RealValue': 14, 'Label': 'ProbLL_valueL', 'ChoiceDur': 3, 'ITIDur1': 1, 'ITIDur2': 4}
155.9025 	EXP 	iti2: autoDraw = False
155.9025 	EXP 	iti2: autoDraw = False
155.9025 	EXP 	choice: height = 0.1
155.9025 	EXP 	choice: height = 0.1
155.9025 	EXP 	choice: height = 0.1
155.9025 	EXP 	choice: text = '     14 points\n\n5% win      95% lose\n\n  Accept         Decline  '
155.9025 	EXP 	choice: autoDraw = True
156.9423 	DATA 	Keypress: 2
158.8973 	EXP 	choice: autoDraw = False
158.8973 	EXP 	choice: autoDraw = False
158.8973 	EXP 	iti1: autoDraw = True
159.8956 	EXP 	iti1: autoDraw = False
159.8956 	EXP 	iti1: autoDraw = False
159.8956 	EXP 	feedback: height = 0.1
159.8956 	EXP 	feedback: height = 0.1
159.8956 	EXP 	feedback: height = 0.1
159.8956 	EXP 	feedback: text = '  (+14) points\n \n\n Total 20 points'
159.8956 	EXP 	feedback: autoDraw = True
161.3888 	EXP 	feedback: autoDraw = False
161.3888 	EXP 	feedback: autoDraw = False
161.3888 	EXP 	iti2: autoDraw = True
165.3820 	EXP 	New trial (rep=0, index=12): {'Win': 42, 'Lose': 58, 'Value': 84, 'RealValue': -84, 'Label': 'ProbMM_valueH', 'ChoiceDur': 3, 'ITIDur1': 5, 'ITIDur2': 1}
165.3979 	EXP 	iti2: autoDraw = False
165.3979 	EXP 	iti2: autoDraw = False
165.3979 	EXP 	choice: height = 0.1
165.3979 	EXP 	choice: height = 0.1
165.3979 	EXP 	choice: height = 0.1
165.3979 	EXP 	choice: text = '     84 points\n\n42% win      58% lose\n\n  Accept         Decline  '
165.3979 	EXP 	choice: autoDraw = True
166.5754 	DATA 	Keypress: 2
168.3891 	EXP 	choice: autoDraw = False
168.3891 	EXP 	choice: autoDraw = False
168.3891 	EXP 	iti1: autoDraw = True
173.3962 	EXP 	iti1: autoDraw = False
173.3962 	EXP 	iti1: autoDraw = False
173.3962 	EXP 	feedback: height = 0.1
173.3962 	EXP 	feedback: height = 0.1
173.3962 	EXP 	feedback: height = 0.1
173.3962 	EXP 	feedback: text = '  (-84) points\n \n\n Total 20 points'
173.3962 	EXP 	feedback: autoDraw = True
174.8894 	EXP 	feedback: autoDraw = False
174.8894 	EXP 	feedback: autoDraw = False
174.8894 	EXP 	iti2: autoDraw = True
175.8826 	EXP 	New trial (rep=0, index=13): {'Win': 56, 'Lose': 44, 'Value': 1107, 'RealValue': -1107, 'Label': 'ProbMM_valueSH', 'ChoiceDur': 1.5, 'ITIDur1': 2, 'ITIDur2': 3}
175.8981 	EXP 	iti2: autoDraw = False
175.8981 	EXP 	iti2: autoDraw = False
175.8981 	EXP 	choice: height = 0.1
175.8981 	EXP 	choice: height = 0.1
175.8981 	EXP 	choice: height = 0.1
175.8981 	EXP 	choice: text = '     1107 points\n\n56% win      44% lose\n\n  Accept         Decline  '
175.8981 	EXP 	choice: autoDraw = True
176.9427 	DATA 	Keypress: 1
177.3893 	EXP 	choice: autoDraw = False
177.3893 	EXP 	choice: autoDraw = False
177.3893 	EXP 	iti1: autoDraw = True
179.3960 	EXP 	iti1: autoDraw = False
179.3960 	EXP 	iti1: autoDraw = False
179.3960 	EXP 	feedback: height = 0.1
179.3960 	EXP 	feedback: height = 0.1
179.3960 	EXP 	feedback: height = 0.1
179.3960 	EXP 	feedback: text = '  -1107 points\n \n\n Total -1087 points'
179.3960 	EXP 	feedback: autoDraw = True
180.8886 	EXP 	feedback: autoDraw = False
180.8886 	EXP 	feedback: autoDraw = False
180.8886 	EXP 	iti2: autoDraw = True
183.8720 	EXP 	New trial (rep=0, index=14): {'Win': 82, 'Lose': 18, 'Value': 83, 'RealValue': 83, 'Label': 'ProbHH_valueH', 'ChoiceDur': 3, 'ITIDur1': 3, 'ITIDur2': 1}
183.8864 	EXP 	iti2: autoDraw = False
183.8864 	EXP 	iti2: autoDraw = False
183.8864 	EXP 	choice: height = 0.1
183.8864 	EXP 	choice: height = 0.1
183.8864 	EXP 	choice: height = 0.1
183.8864 	EXP 	choice: text = '     83 points\n\n82% win      18% lose\n\n  Accept         Decline  '
183.8864 	EXP 	choice: autoDraw = True
184.8371 	DATA 	Keypress: 1
186.8815 	EXP 	choice: autoDraw = False
186.8815 	EXP 	choice: autoDraw = False
186.8815 	EXP 	iti1: autoDraw = True
189.8791 	EXP 	iti1: autoDraw = False
189.8791 	EXP 	iti1: autoDraw = False
189.8791 	EXP 	feedback: height = 0.1
189.8791 	EXP 	feedback: height = 0.1
189.8791 	EXP 	feedback: height = 0.1
189.8791 	EXP 	feedback: text = '  +83 points\n \n\n Total -1004 points'
189.8791 	EXP 	feedback: autoDraw = True
191.3730 	EXP 	feedback: autoDraw = False
191.3730 	EXP 	feedback: autoDraw = False
191.3730 	EXP 	iti2: autoDraw = True
192.3567 	EXP 	New trial (rep=0, index=15): {'Win': 40, 'Lose': 60, 'Value': 7, 'RealValue': -7, 'Label': 'ProbMM_valueL', 'ChoiceDur': 3, 'ITIDur1': 1, 'ITIDur2': 1}
192.3719 	EXP 	iti2: autoDraw = False
192.3719 	EXP 	iti2: autoDraw = False
192.3719 	EXP 	choice: height = 0.1
192.3719 	EXP 	choice: height = 0.1
192.3719 	EXP 	choice: height = 0.1
192.3719 	EXP 	choice: text = '     7 points\n\n40% win      60% lose\n\n  Accept         Decline  '
192.3719 	EXP 	choice: autoDraw = True
193.7048 	DATA 	Keypress: 2
195.3651 	EXP 	choice: autoDraw = False
195.3651 	EXP 	choice: autoDraw = False
195.3651 	EXP 	iti1: autoDraw = True
196.3639 	EXP 	iti1: autoDraw = False
196.3639 	EXP 	iti1: autoDraw = False
196.3639 	EXP 	feedback: height = 0.1
196.3639 	EXP 	feedback: height = 0.1
196.3639 	EXP 	feedback: height = 0.1
196.3639 	EXP 	feedback: text = '  (-7) points\n \n\n Total -1004 points'
196.3639 	EXP 	feedback: autoDraw = True
197.8555 	EXP 	feedback: autoDraw = False
197.8555 	EXP 	feedback: autoDraw = False
197.8555 	EXP 	iti2: autoDraw = True
198.8397 	EXP 	New trial (rep=0, index=16): {'Win': 22, 'Lose': 78, 'Value': 12, 'RealValue': 12, 'Label': 'ProbLL_valueL', 'ChoiceDur': 3, 'ITIDur1': 2, 'ITIDur2': 1}
198.8539 	EXP 	iti2: autoDraw = False
198.8539 	EXP 	iti2: autoDraw = False
198.8539 	EXP 	choice: height = 0.1
198.8539 	EXP 	choice: height = 0.1
198.8539 	EXP 	choice: height = 0.1
198.8539 	EXP 	choice: text = '     12 points\n\n22% win      78% lose\n\n  Accept         Decline  '
198.8539 	EXP 	choice: autoDraw = True
199.9210 	DATA 	Keypress: 2
201.8486 	EXP 	choice: autoDraw = False
201.8486 	EXP 	choice: autoDraw = False
201.8486 	EXP 	iti1: autoDraw = True
203.8471 	EXP 	iti1: autoDraw = False
203.8471 	EXP 	iti1: autoDraw = False
203.8471 	EXP 	feedback: height = 0.1
203.8471 	EXP 	feedback: height = 0.1
203.8471 	EXP 	feedback: height = 0.1
203.8471 	EXP 	feedback: text = '  (+12) points\n \n\n Total -1004 points'
203.8471 	EXP 	feedback: autoDraw = True
205.3400 	EXP 	feedback: autoDraw = False
205.3400 	EXP 	iti2: autoDraw = True
206.3332 	EXP 	New trial (rep=0, index=17): {'Win': 13, 'Lose': 87, 'Value': 12, 'RealValue': -12, 'Label': 'ProbLL_valueL', 'ChoiceDur': 3, 'ITIDur1': 1, 'ITIDur2': 2}
206.3482 	EXP 	iti2: autoDraw = False
206.3482 	EXP 	iti2: autoDraw = False
206.3482 	EXP 	choice: height = 0.1
206.3482 	EXP 	choice: height = 0.1
206.3482 	EXP 	choice: height = 0.1
206.3482 	EXP 	choice: text = '     12 points\n\n13% win      87% lose\n\n  Accept         Decline  '
206.3482 	EXP 	choice: autoDraw = True
207.3377 	DATA 	Keypress: 2
209.3401 	EXP 	choice: autoDraw = False
209.3401 	EXP 	choice: autoDraw = False
209.3401 	EXP 	iti1: autoDraw = True
210.3473 	EXP 	iti1: autoDraw = False
210.3473 	EXP 	iti1: autoDraw = False
210.3473 	EXP 	feedback: height = 0.1
210.3473 	EXP 	feedback: height = 0.1
210.3473 	EXP 	feedback: height = 0.1
210.3473 	EXP 	feedback: text = '  (-12) points\n \n\n Total -1004 points'
210.3473 	EXP 	feedback: autoDraw = True
211.8394 	EXP 	feedback: autoDraw = False
211.8394 	EXP 	feedback: autoDraw = False
211.8394 	EXP 	iti2: autoDraw = True
213.8227 	EXP 	New trial (rep=0, index=18): {'Win': 59, 'Lose': 41, 'Value': 1473, 'RealValue': -1473, 'Label': 'ProbMM_valueSH', 'ChoiceDur': 1.5, 'ITIDur1': 5, 'ITIDur2': 4}
213.8374 	EXP 	iti2: autoDraw = False
213.8374 	EXP 	iti2: autoDraw = False
213.8374 	EXP 	choice: height = 0.1
213.8374 	EXP 	choice: height = 0.1
213.8374 	EXP 	choice: height = 0.1
213.8374 	EXP 	choice: text = '     1473 points\n\n59% win      41% lose\n\n  Accept         Decline  '
213.8374 	EXP 	choice: autoDraw = True
214.8543 	DATA 	Keypress: 1
215.3324 	EXP 	choice: autoDraw = False
215.3324 	EXP 	choice: autoDraw = False
215.3324 	EXP 	iti1: autoDraw = True
220.3306 	EXP 	iti1: autoDraw = False
220.3306 	EXP 	iti1: autoDraw = False
220.3306 	EXP 	feedback: height = 0.1
220.3306 	EXP 	feedback: height = 0.1
220.3306 	EXP 	feedback: height = 0.1
220.3306 	EXP 	feedback: text = '  -1473 points\n \n\n Total -2477 points'
220.3306 	EXP 	feedback: autoDraw = True
221.8235 	EXP 	feedback: autoDraw = False
221.8235 	EXP 	iti2: autoDraw = True
225.8074 	EXP 	New trial (rep=0, index=19): {'Win': 43, 'Lose': 57, 'Value': 91, 'RealValue': -91, 'Label': 'ProbMM_valueH', 'ChoiceDur': 3, 'ITIDur1': 1, 'ITIDur2': 1}
225.8215 	EXP 	iti2: autoDraw = False
225.8215 	EXP 	iti2: autoDraw = False
225.8215 	EXP 	choice: height = 0.1
225.8215 	EXP 	choice: height = 0.1
225.8215 	EXP 	choice: height = 0.1
225.8215 	EXP 	choice: text = '     91 points\n\n43% win      57% lose\n\n  Accept         Decline  '
225.8215 	EXP 	choice: autoDraw = True
226.9043 	DATA 	Keypress: 2
228.8166 	EXP 	choice: autoDraw = False
228.8166 	EXP 	choice: autoDraw = False
228.8166 	EXP 	iti1: autoDraw = True
229.8143 	EXP 	iti1: autoDraw = False
229.8143 	EXP 	iti1: autoDraw = False
229.8143 	EXP 	feedback: height = 0.1
229.8143 	EXP 	feedback: height = 0.1
229.8143 	EXP 	feedback: height = 0.1
229.8143 	EXP 	feedback: text = '  (-91) points\n \n\n Total -2477 points'
229.8143 	EXP 	feedback: autoDraw = True
231.3067 	EXP 	feedback: autoDraw = False
231.3067 	EXP 	feedback: autoDraw = False
231.3067 	EXP 	iti2: autoDraw = True
232.2907 	EXP 	New trial (rep=0, index=20): {'Win': 59, 'Lose': 41, 'Value': 81, 'RealValue': 81, 'Label': 'ProbMM_valueH', 'ChoiceDur': 3, 'ITIDur1': 3, 'ITIDur2': 4}
232.3051 	EXP 	iti2: autoDraw = False
232.3051 	EXP 	iti2: autoDraw = False
232.3051 	EXP 	choice: height = 0.1
232.3051 	EXP 	choice: height = 0.1
232.3051 	EXP 	choice: height = 0.1
232.3051 	EXP 	choice: text = '     81 points\n\n59% win      41% lose\n\n  Accept         Decline  '
232.3051 	EXP 	choice: autoDraw = True
233.1051 	DATA 	Keypress: 1
235.2997 	EXP 	choice: autoDraw = False
235.2997 	EXP 	choice: autoDraw = False
235.2997 	EXP 	iti1: autoDraw = True
238.2984 	EXP 	iti1: autoDraw = False
238.2984 	EXP 	iti1: autoDraw = False
238.2984 	EXP 	feedback: height = 0.1
238.2984 	EXP 	feedback: height = 0.1
238.2984 	EXP 	feedback: height = 0.1
238.2984 	EXP 	feedback: text = '  +81 points\n \n\n Total -2396 points'
238.2984 	EXP 	feedback: autoDraw = True
239.7906 	EXP 	feedback: autoDraw = False
239.7906 	EXP 	feedback: autoDraw = False
239.7906 	EXP 	iti2: autoDraw = True
243.7847 	EXP 	New trial (rep=0, index=21): {'Win': 79, 'Lose': 21, 'Value': 7, 'RealValue': 7, 'Label': 'ProbHH_valueL', 'ChoiceDur': 3, 'ITIDur1': 2, 'ITIDur2': 3}
243.8006 	EXP 	iti2: autoDraw = False
243.8006 	EXP 	iti2: autoDraw = False
243.8006 	EXP 	choice: height = 0.1
243.8006 	EXP 	choice: height = 0.1
243.8006 	EXP 	choice: height = 0.1
243.8006 	EXP 	choice: text = '     7 points\n\n79% win      21% lose\n\n  Accept         Decline  '
243.8006 	EXP 	choice: autoDraw = True
244.5388 	DATA 	Keypress: 1
246.7915 	EXP 	choice: autoDraw = False
246.7915 	EXP 	choice: autoDraw = False
246.7915 	EXP 	iti1: autoDraw = True
248.7987 	EXP 	iti1: autoDraw = False
248.7987 	EXP 	iti1: autoDraw = False
248.7987 	EXP 	feedback: height = 0.1
248.7987 	EXP 	feedback: height = 0.1
248.7987 	EXP 	feedback: height = 0.1
248.7987 	EXP 	feedback: text = '  +7 points\n \n\n Total -2389 points'
248.7987 	EXP 	feedback: autoDraw = True
250.2909 	EXP 	feedback: autoDraw = False
250.2909 	EXP 	feedback: autoDraw = False
250.2909 	EXP 	iti2: autoDraw = True
253.2753 	EXP 	New trial (rep=0, index=22): {'Win': 43, 'Lose': 57, 'Value': 17, 'RealValue': 17, 'Label': 'ProbMM_valueL', 'ChoiceDur': 3, 'ITIDur1': 5, 'ITIDur2': 8}
253.2897 	EXP 	iti2: autoDraw = False
253.2897 	EXP 	iti2: autoDraw = False
253.2897 	EXP 	choice: height = 0.1
253.2897 	EXP 	choice: height = 0.1
253.2897 	EXP 	choice: height = 0.1
253.2897 	EXP 	choice: text = '     17 points\n\n43% win      57% lose\n\n  Accept         Decline  '
253.2897 	EXP 	choice: autoDraw = True
254.3058 	DATA 	Keypress: 2
256.2837 	EXP 	choice: autoDraw = False
256.2837 	EXP 	choice: autoDraw = False
256.2837 	EXP 	iti1: autoDraw = True
261.2827 	EXP 	iti1: autoDraw = False
261.2827 	EXP 	iti1: autoDraw = False
261.2827 	EXP 	feedback: height = 0.1
261.2827 	EXP 	feedback: height = 0.1
261.2827 	EXP 	feedback: height = 0.1
261.2827 	EXP 	feedback: text = '  (+17) points\n \n\n Total -2389 points'
261.2827 	EXP 	feedback: autoDraw = True
262.7745 	EXP 	feedback: autoDraw = False
262.7745 	EXP 	feedback: autoDraw = False
262.7745 	EXP 	iti2: autoDraw = True
270.7578 	EXP 	New trial (rep=0, index=23): {'Win': 82, 'Lose': 18, 'Value': 15, 'RealValue': 15, 'Label': 'ProbHH_valueL', 'ChoiceDur': 3, 'ITIDur1': 3, 'ITIDur2': 2}
270.7721 	EXP 	iti2: autoDraw = False
270.7721 	EXP 	iti2: autoDraw = False
270.7721 	EXP 	choice: height = 0.1
270.7721 	EXP 	choice: height = 0.1
270.7721 	EXP 	choice: height = 0.1
270.7721 	EXP 	choice: text = '     15 points\n\n82% win      18% lose\n\n  Accept         Decline  '
270.7721 	EXP 	choice: autoDraw = True
271.5564 	DATA 	Keypress: 1
273.7676 	EXP 	choice: autoDraw = False
273.7676 	EXP 	choice: autoDraw = False
273.7676 	EXP 	iti1: autoDraw = True
276.7657 	EXP 	iti1: autoDraw = False
276.7657 	EXP 	iti1: autoDraw = False
276.7657 	EXP 	feedback: height = 0.1
276.7657 	EXP 	feedback: height = 0.1
276.7657 	EXP 	feedback: height = 0.1
276.7657 	EXP 	feedback: text = '  +15 points\n \n\n Total -2374 points'
276.7657 	EXP 	feedback: autoDraw = True
278.2593 	EXP 	feedback: autoDraw = False
278.2593 	EXP 	feedback: autoDraw = False
278.2593 	EXP 	iti2: autoDraw = True
280.2426 	EXP 	New trial (rep=0, index=24): {'Win': 44, 'Lose': 56, 'Value': 84, 'RealValue': -84, 'Label': 'ProbMM_valueH', 'ChoiceDur': 3, 'ITIDur1': 1, 'ITIDur2': 8}
280.2577 	EXP 	iti2: autoDraw = False
280.2577 	EXP 	iti2: autoDraw = False
280.2577 	EXP 	choice: height = 0.1
280.2577 	EXP 	choice: height = 0.1
280.2577 	EXP 	choice: height = 0.1
280.2577 	EXP 	choice: text = '     84 points\n\n44% win      56% lose\n\n  Accept         Decline  '
280.2577 	EXP 	choice: autoDraw = True
281.4230 	DATA 	Keypress: 2
283.2513 	EXP 	choice: autoDraw = False
283.2513 	EXP 	choice: autoDraw = False
283.2513 	EXP 	iti1: autoDraw = True
284.2501 	EXP 	iti1: autoDraw = False
284.2501 	EXP 	iti1: autoDraw = False
284.2501 	EXP 	feedback: height = 0.1
284.2501 	EXP 	feedback: height = 0.1
284.2501 	EXP 	feedback: height = 0.1
284.2501 	EXP 	feedback: text = '  (-84) points\n \n\n Total -2374 points'
284.2501 	EXP 	feedback: autoDraw = True
285.7415 	EXP 	feedback: autoDraw = False
285.7415 	EXP 	feedback: autoDraw = False
285.7415 	EXP 	iti2: autoDraw = True
293.7256 	EXP 	New trial (rep=0, index=25): {'Win': 40, 'Lose': 60, 'Value': 19, 'RealValue': -19, 'Label': 'ProbMM_valueL', 'ChoiceDur': 3, 'ITIDur1': 3, 'ITIDur2': 4}
293.7406 	EXP 	iti2: autoDraw = False
293.7406 	EXP 	iti2: autoDraw = False
293.7406 	EXP 	choice: height = 0.1
293.7406 	EXP 	choice: height = 0.1
293.7406 	EXP 	choice: height = 0.1
293.7406 	EXP 	choice: text = '     19 points\n\n40% win      60% lose\n\n  Accept         Decline  '
293.7406 	EXP 	choice: autoDraw = True
294.7619 	DATA 	Keypress: 2
296.7351 	EXP 	choice: autoDraw = False
296.7351 	EXP 	choice: autoDraw = False
296.7351 	EXP 	iti1: autoDraw = True
299.7330 	EXP 	iti1: autoDraw = False
299.7330 	EXP 	iti1: autoDraw = False
299.7330 	EXP 	feedback: height = 0.1
299.7330 	EXP 	feedback: height = 0.1
299.7330 	EXP 	feedback: height = 0.1
299.7330 	EXP 	feedback: text = '  (-19) points\n \n\n Total -2374 points'
299.7330 	EXP 	feedback: autoDraw = True
301.2255 	EXP 	feedback: autoDraw = False
301.2255 	EXP 	feedback: autoDraw = False
301.2255 	EXP 	iti2: autoDraw = True
305.2092 	EXP 	New trial (rep=0, index=26): {'Win': 21, 'Lose': 79, 'Value': 9, 'RealValue': -9, 'Label': 'ProbLL_valueL', 'ChoiceDur': 3, 'ITIDur1': 2, 'ITIDur2': 8}
305.2239 	EXP 	iti2: autoDraw = False
305.2239 	EXP 	iti2: autoDraw = False
305.2239 	EXP 	choice: height = 0.1
305.2239 	EXP 	choice: height = 0.1
305.2239 	EXP 	choice: height = 0.1
305.2239 	EXP 	choice: text = '     9 points\n\n21% win      79% lose\n\n  Accept         Decline  '
305.2239 	EXP 	choice: autoDraw = True
306.0634 	DATA 	Keypress: 2
308.2187 	EXP 	choice: autoDraw = False
308.2187 	EXP 	choice: autoDraw = False
308.2187 	EXP 	iti1: autoDraw = True
310.2174 	EXP 	iti1: autoDraw = False
310.2174 	EXP 	iti1: autoDraw = False
310.2174 	EXP 	feedback: height = 0.1
310.2174 	EXP 	feedback: height = 0.1
310.2174 	EXP 	feedback: height = 0.1
310.2174 	EXP 	feedback: text = '  (-9) points\n \n\n Total -2374 points'
310.2174 	EXP 	feedback: autoDraw = True
311.7101 	EXP 	feedback: autoDraw = False
311.7101 	EXP 	feedback: autoDraw = False
311.7101 	EXP 	iti2: autoDraw = True
319.6940 	EXP 	New trial (rep=0, index=27): {'Win': 77, 'Lose': 23, 'Value': 81, 'RealValue': 81, 'Label': 'ProbHH_valueH', 'ChoiceDur': 3, 'ITIDur1': 2, 'ITIDur2': 3}
319.7095 	EXP 	iti2: autoDraw = False
319.7095 	EXP 	iti2: autoDraw = False
319.7095 	EXP 	choice: height = 0.1
319.7095 	EXP 	choice: height = 0.1
319.7095 	EXP 	choice: height = 0.1
319.7095 	EXP 	choice: text = '     81 points\n\n77% win      23% lose\n\n  Accept         Decline  '
319.7095 	EXP 	choice: autoDraw = True
320.6748 	DATA 	Keypress: 1
322.7025 	EXP 	choice: autoDraw = False
322.7025 	EXP 	choice: autoDraw = False
322.7025 	EXP 	iti1: autoDraw = True
324.7006 	EXP 	iti1: autoDraw = False
324.7006 	EXP 	iti1: autoDraw = False
324.7006 	EXP 	feedback: height = 0.1
324.7006 	EXP 	feedback: height = 0.1
324.7006 	EXP 	feedback: height = 0.1
324.7006 	EXP 	feedback: text = '  +81 points\n \n\n Total -2293 points'
324.7006 	EXP 	feedback: autoDraw = True
326.1928 	EXP 	feedback: autoDraw = False
326.1928 	EXP 	feedback: autoDraw = False
326.1928 	EXP 	iti2: autoDraw = True
329.1771 	EXP 	New trial (rep=0, index=28): {'Win': 90, 'Lose': 10, 'Value': 94, 'RealValue': 94, 'Label': 'ProbHH_valueH', 'ChoiceDur': 3, 'ITIDur1': 1, 'ITIDur2': 4}
329.1917 	EXP 	iti2: autoDraw = False
329.1917 	EXP 	iti2: autoDraw = False
329.1917 	EXP 	choice: height = 0.1
329.1917 	EXP 	choice: height = 0.1
329.1917 	EXP 	choice: height = 0.1
329.1917 	EXP 	choice: text = '     94 points\n\n90% win      10% lose\n\n  Accept         Decline  '
329.1917 	EXP 	choice: autoDraw = True
330.2643 	DATA 	Keypress: 1
332.1861 	EXP 	choice: autoDraw = False
332.1861 	EXP 	choice: autoDraw = False
332.1861 	EXP 	iti1: autoDraw = True
333.1842 	EXP 	iti1: autoDraw = False
333.1842 	EXP 	iti1: autoDraw = False
333.1842 	EXP 	feedback: height = 0.1
333.1842 	EXP 	feedback: height = 0.1
333.1842 	EXP 	feedback: height = 0.1
333.1842 	EXP 	feedback: text = '  +94 points\n \n\n Total -2199 points'
333.1842 	EXP 	feedback: autoDraw = True
334.6776 	EXP 	feedback: autoDraw = False
334.6776 	EXP 	feedback: autoDraw = False
334.6776 	EXP 	iti2: autoDraw = True
338.6612 	EXP 	New trial (rep=0, index=29): {'Win': 21, 'Lose': 79, 'Value': 10, 'RealValue': -10, 'Label': 'ProbLL_valueL', 'ChoiceDur': 3, 'ITIDur1': 3, 'ITIDur2': 1}
338.6756 	EXP 	iti2: autoDraw = False
338.6756 	EXP 	iti2: autoDraw = False
338.6756 	EXP 	choice: height = 0.1
338.6756 	EXP 	choice: height = 0.1
338.6756 	EXP 	choice: height = 0.1
338.6756 	EXP 	choice: text = '     10 points\n\n21% win      79% lose\n\n  Accept         Decline  '
338.6756 	EXP 	choice: autoDraw = True
340.0317 	DATA 	Keypress: 2
341.6699 	EXP 	choice: autoDraw = False
341.6699 	EXP 	choice: autoDraw = False
341.6699 	EXP 	iti1: autoDraw = True
344.6682 	EXP 	iti1: autoDraw = False
344.6682 	EXP 	iti1: autoDraw = False
344.6682 	EXP 	feedback: height = 0.1
344.6682 	EXP 	feedback: height = 0.1
344.6682 	EXP 	feedback: height = 0.1
344.6682 	EXP 	feedback: text = '  (-10) points\n \n\n Total -2199 points'
344.6682 	EXP 	feedback: autoDraw = True
346.1604 	EXP 	feedback: autoDraw = False
346.1604 	EXP 	feedback: autoDraw = False
346.1604 	EXP 	iti2: autoDraw = True
347.1441 	EXP 	New trial (rep=0, index=30): {'Win': 46, 'Lose': 54, 'Value': 13, 'RealValue': -13, 'Label': 'ProbMM_valueL', 'ChoiceDur': 3, 'ITIDur1': 2, 'ITIDur2': 2}
347.1586 	EXP 	iti2: autoDraw = False
347.1586 	EXP 	iti2: autoDraw = False
347.1586 	EXP 	choice: height = 0.1
347.1586 	EXP 	choice: height = 0.1
347.1586 	EXP 	choice: height = 0.1
347.1586 	EXP 	choice: text = '     13 points\n\n46% win      54% lose\n\n  Accept         Decline  '
347.1586 	EXP 	choice: autoDraw = True
348.3594 	DATA 	Keypress: 1
350.1534 	EXP 	choice: autoDraw = False
350.1534 	EXP 	choice: autoDraw = False
350.1534 	EXP 	iti1: autoDraw = True
352.1521 	EXP 	iti1: autoDraw = False
352.1521 	EXP 	iti1: autoDraw = False
352.1521 	EXP 	feedback: height = 0.1
352.1521 	EXP 	feedback: height = 0.1
352.1521 	EXP 	feedback: height = 0.1
352.1521 	EXP 	feedback: text = '  -13 points\n \n\n Total -2212 points'
352.1521 	EXP 	feedback: autoDraw = True
353.6439 	EXP 	feedback: autoDraw = False
353.6439 	EXP 	feedback: autoDraw = False
353.6439 	EXP 	iti2: autoDraw = True
355.6286 	EXP 	New trial (rep=0, index=31): {'Win': 6, 'Lose': 94, 'Value': 88, 'RealValue': -88, 'Label': 'ProbLL_valueH', 'ChoiceDur': 3, 'ITIDur1': 2, 'ITIDur2': 4}
355.6433 	EXP 	iti2: autoDraw = False
355.6433 	EXP 	iti2: autoDraw = False
355.6433 	EXP 	choice: height = 0.1
355.6433 	EXP 	choice: height = 0.1
355.6433 	EXP 	choice: height = 0.1
355.6433 	EXP 	choice: text = '     88 points\n\n6% win      94% lose\n\n  Accept         Decline  '
355.6433 	EXP 	choice: autoDraw = True
356.6255 	DATA 	Keypress: 2
358.6372 	EXP 	choice: autoDraw = False
358.6372 	EXP 	choice: autoDraw = False
358.6372 	EXP 	iti1: autoDraw = True
360.6362 	EXP 	iti1: autoDraw = False
360.6362 	EXP 	iti1: autoDraw = False
360.6362 	EXP 	feedback: height = 0.1
360.6362 	EXP 	feedback: height = 0.1
360.6362 	EXP 	feedback: height = 0.1
360.6362 	EXP 	feedback: text = '  (-88) points\n \n\n Total -2212 points'
360.6362 	EXP 	feedback: autoDraw = True
362.1276 	EXP 	feedback: autoDraw = False
362.1276 	EXP 	feedback: autoDraw = False
362.1276 	EXP 	iti2: autoDraw = True
366.1111 	EXP 	New trial (rep=0, index=32): {'Win': 89, 'Lose': 11, 'Value': 88, 'RealValue': 88, 'Label': 'ProbHH_valueH', 'ChoiceDur': 3, 'ITIDur1': 1, 'ITIDur2': 8}
366.1254 	EXP 	iti2: autoDraw = False
366.1254 	EXP 	iti2: autoDraw = False
366.1254 	EXP 	choice: height = 0.1
366.1254 	EXP 	choice: height = 0.1
366.1254 	EXP 	choice: height = 0.1
366.1254 	EXP 	choice: text = '     88 points\n\n89% win      11% lose\n\n  Accept         Decline  '
366.1254 	EXP 	choice: autoDraw = True
367.1925 	DATA 	Keypress: 1
369.1206 	EXP 	choice: autoDraw = False
369.1206 	EXP 	choice: autoDraw = False
369.1206 	EXP 	iti1: autoDraw = True
370.1188 	EXP 	iti1: autoDraw = False
370.1188 	EXP 	iti1: autoDraw = False
370.1188 	EXP 	feedback: height = 0.1
370.1188 	EXP 	feedback: height = 0.1
370.1188 	EXP 	feedback: height = 0.1
370.1188 	EXP 	feedback: text = '  +88 points\n \n\n Total -2124 points'
370.1188 	EXP 	feedback: autoDraw = True
371.6116 	EXP 	feedback: autoDraw = False
371.6116 	EXP 	feedback: autoDraw = False
371.6116 	EXP 	iti2: autoDraw = True
379.5954 	EXP 	New trial (rep=0, index=33): {'Win': 16, 'Lose': 84, 'Value': 96, 'RealValue': -96, 'Label': 'ProbLL_valueH', 'ChoiceDur': 3, 'ITIDur1': 5, 'ITIDur2': 1}
379.6107 	EXP 	iti2: autoDraw = False
379.6107 	EXP 	iti2: autoDraw = False
379.6107 	EXP 	choice: height = 0.1
379.6107 	EXP 	choice: height = 0.1
379.6107 	EXP 	choice: height = 0.1
379.6107 	EXP 	choice: text = '     96 points\n\n16% win      84% lose\n\n  Accept         Decline  '
379.6107 	EXP 	choice: autoDraw = True
380.5769 	DATA 	Keypress: 2
382.6044 	EXP 	choice: autoDraw = False
382.6044 	EXP 	choice: autoDraw = False
382.6044 	EXP 	iti1: autoDraw = True
387.6029 	EXP 	iti1: autoDraw = False
387.6029 	EXP 	iti1: autoDraw = False
387.6029 	EXP 	feedback: height = 0.1
387.6029 	EXP 	feedback: height = 0.1
387.6029 	EXP 	feedback: height = 0.1
387.6029 	EXP 	feedback: text = '  (-96) points\n \n\n Total -2124 points'
387.6029 	EXP 	feedback: autoDraw = True
389.0945 	EXP 	feedback: autoDraw = False
389.0945 	EXP 	feedback: autoDraw = False
389.0945 	EXP 	iti2: autoDraw = True
390.0788 	EXP 	New trial (rep=0, index=34): {'Win': 84, 'Lose': 16, 'Value': 83, 'RealValue': 83, 'Label': 'ProbHH_valueH', 'ChoiceDur': 3, 'ITIDur1': 1, 'ITIDur2': 3}
390.0931 	EXP 	iti2: autoDraw = False
390.0931 	EXP 	iti2: autoDraw = False
390.0931 	EXP 	choice: height = 0.1
390.0931 	EXP 	choice: height = 0.1
390.0931 	EXP 	choice: height = 0.1
390.0931 	EXP 	choice: text = '     83 points\n\n84% win      16% lose\n\n  Accept         Decline  '
390.0931 	EXP 	choice: autoDraw = True
391.1200 	DATA 	Keypress: 1
393.0880 	EXP 	choice: autoDraw = False
393.0880 	EXP 	choice: autoDraw = False
393.0880 	EXP 	iti1: autoDraw = True
394.0867 	EXP 	iti1: autoDraw = False
394.0867 	EXP 	iti1: autoDraw = False
394.0867 	EXP 	feedback: height = 0.1
394.0867 	EXP 	feedback: height = 0.1
394.0867 	EXP 	feedback: height = 0.1
394.0867 	EXP 	feedback: text = '  +83 points\n \n\n Total -2041 points'
394.0867 	EXP 	feedback: autoDraw = True
395.5786 	EXP 	feedback: autoDraw = False
395.5786 	EXP 	feedback: autoDraw = False
395.5786 	EXP 	iti2: autoDraw = True
398.5622 	EXP 	New trial (rep=0, index=35): {'Win': 40, 'Lose': 60, 'Value': 15, 'RealValue': 15, 'Label': 'ProbMM_valueL', 'ChoiceDur': 3, 'ITIDur1': 1, 'ITIDur2': 3}
398.5767 	EXP 	iti2: autoDraw = False
398.5767 	EXP 	iti2: autoDraw = False
398.5767 	EXP 	choice: height = 0.1
398.5767 	EXP 	choice: height = 0.1
398.5767 	EXP 	choice: height = 0.1
398.5767 	EXP 	choice: text = '     15 points\n\n40% win      60% lose\n\n  Accept         Decline  '
398.5767 	EXP 	choice: autoDraw = True
399.8606 	DATA 	Keypress: 2
401.5717 	EXP 	choice: autoDraw = False
401.5717 	EXP 	choice: autoDraw = False
401.5717 	EXP 	iti1: autoDraw = True
402.5708 	EXP 	iti1: autoDraw = False
402.5708 	EXP 	iti1: autoDraw = False
402.5708 	EXP 	feedback: height = 0.1
402.5708 	EXP 	feedback: height = 0.1
402.5708 	EXP 	feedback: height = 0.1
402.5708 	EXP 	feedback: text = '  (+15) points\n \n\n Total -2041 points'
402.5708 	EXP 	feedback: autoDraw = True
404.0630 	EXP 	feedback: autoDraw = False
404.0630 	EXP 	feedback: autoDraw = False
404.0630 	EXP 	iti2: autoDraw = True
407.0463 	EXP 	New trial (rep=0, index=36): {'Win': 25, 'Lose': 75, 'Value': 97, 'RealValue': -97, 'Label': 'ProbLL_valueH', 'ChoiceDur': 3, 'ITIDur1': 1, 'ITIDur2': 1}
407.0610 	EXP 	iti2: autoDraw = False
407.0610 	EXP 	iti2: autoDraw = False
407.0610 	EXP 	choice: height = 0.1
407.0610 	EXP 	choice: height = 0.1
407.0610 	EXP 	choice: height = 0.1
407.0610 	EXP 	choice: text = '     97 points\n\n25% win      75% lose\n\n  Accept         Decline  '
407.0610 	EXP 	choice: autoDraw = True
408.3109 	DATA 	Keypress: 2
410.0552 	EXP 	choice: autoDraw = False
410.0552 	EXP 	choice: autoDraw = False
410.0552 	EXP 	iti1: autoDraw = True
411.0537 	EXP 	iti1: autoDraw = False
411.0537 	EXP 	iti1: autoDraw = False
411.0537 	EXP 	feedback: height = 0.1
411.0537 	EXP 	feedback: height = 0.1
411.0537 	EXP 	feedback: height = 0.1
411.0537 	EXP 	feedback: text = '  (-97) points\n \n\n Total -2041 points'
411.0537 	EXP 	feedback: autoDraw = True
412.5458 	EXP 	feedback: autoDraw = False
412.5458 	EXP 	feedback: autoDraw = False
412.5458 	EXP 	iti2: autoDraw = True
413.5294 	EXP 	New trial (rep=0, index=37): {'Win': 43, 'Lose': 57, 'Value': 1124, 'RealValue': 1124, 'Label': 'ProbMM_valueSH', 'ChoiceDur': 1.5, 'ITIDur1': 2, 'ITIDur2': 3}
413.5438 	EXP 	iti2: autoDraw = False
413.5438 	EXP 	iti2: autoDraw = False
413.5438 	EXP 	choice: height = 0.1
413.5438 	EXP 	choice: height = 0.1
413.5438 	EXP 	choice: height = 0.1
413.5438 	EXP 	choice: text = '     1124 points\n\n43% win      57% lose\n\n  Accept         Decline  '
413.5438 	EXP 	choice: autoDraw = True
414.7275 	DATA 	Keypress: 2
415.0390 	EXP 	choice: autoDraw = False
415.0390 	EXP 	choice: autoDraw = False
415.0390 	EXP 	iti1: autoDraw = True
417.0378 	EXP 	iti1: autoDraw = False
417.0378 	EXP 	iti1: autoDraw = False
417.0378 	EXP 	feedback: height = 0.1
417.0378 	EXP 	feedback: height = 0.1
417.0378 	EXP 	feedback: height = 0.1
417.0378 	EXP 	feedback: text = '  (+1124) points\n \n\n Total -2041 points'
417.0378 	EXP 	feedback: autoDraw = True
418.5295 	EXP 	feedback: autoDraw = False
418.5295 	EXP 	feedback: autoDraw = False
418.5295 	EXP 	iti2: autoDraw = True
421.5133 	EXP 	New trial (rep=0, index=38): {'Win': 40, 'Lose': 60, 'Value': 9, 'RealValue': -9, 'Label': 'ProbMM_valueL', 'ChoiceDur': 3, 'ITIDur1': 2, 'ITIDur2': 3}
421.5274 	EXP 	iti2: autoDraw = False
421.5274 	EXP 	iti2: autoDraw = False
421.5274 	EXP 	choice: height = 0.1
421.5274 	EXP 	choice: height = 0.1
421.5274 	EXP 	choice: height = 0.1
421.5274 	EXP 	choice: text = '     9 points\n\n40% win      60% lose\n\n  Accept         Decline  '
421.5274 	EXP 	choice: autoDraw = True
422.6273 	DATA 	Keypress: 2
424.5223 	EXP 	choice: autoDraw = False
424.5223 	EXP 	choice: autoDraw = False
424.5223 	EXP 	iti1: autoDraw = True
426.5211 	EXP 	iti1: autoDraw = False
426.5211 	EXP 	iti1: autoDraw = False
426.5211 	EXP 	feedback: height = 0.1
426.5211 	EXP 	feedback: height = 0.1
426.5211 	EXP 	feedback: height = 0.1
426.5211 	EXP 	feedback: text = '  (-9) points\n \n\n Total -2041 points'
426.5211 	EXP 	feedback: autoDraw = True
428.0126 	EXP 	feedback: autoDraw = False
428.0126 	EXP 	feedback: autoDraw = False
428.0126 	EXP 	iti2: autoDraw = True
430.9970 	EXP 	New trial (rep=0, index=39): {'Win': 49, 'Lose': 51, 'Value': 83, 'RealValue': -83, 'Label': 'ProbMM_valueH', 'ChoiceDur': 3, 'ITIDur1': 2, 'ITIDur2': 1}
431.0120 	EXP 	iti2: autoDraw = False
431.0120 	EXP 	iti2: autoDraw = False
431.0120 	EXP 	choice: height = 0.1
431.0120 	EXP 	choice: height = 0.1
431.0120 	EXP 	choice: height = 0.1
431.0120 	EXP 	choice: text = '     83 points\n\n49% win      51% lose\n\n  Accept         Decline  '
431.0120 	EXP 	choice: autoDraw = True
432.0618 	DATA 	Keypress: 2
434.0059 	EXP 	choice: autoDraw = False
434.0059 	EXP 	choice: autoDraw = False
434.0059 	EXP 	iti1: autoDraw = True
436.0043 	EXP 	iti1: autoDraw = False
436.0043 	EXP 	iti1: autoDraw = False
436.0043 	EXP 	feedback: height = 0.1
436.0043 	EXP 	feedback: height = 0.1
436.0043 	EXP 	feedback: height = 0.1
436.0043 	EXP 	feedback: text = '  (-83) points\n \n\n Total -2041 points'
436.0043 	EXP 	feedback: autoDraw = True
437.4968 	EXP 	feedback: autoDraw = False
437.4968 	EXP 	feedback: autoDraw = False
437.4968 	EXP 	iti2: autoDraw = True
438.4804 	EXP 	New trial (rep=0, index=40): {'Win': 15, 'Lose': 85, 'Value': 4, 'RealValue': -4, 'Label': 'ProbLL_valueL', 'ChoiceDur': 3, 'ITIDur1': 1, 'ITIDur2': 3}
438.4947 	EXP 	iti2: autoDraw = False
438.4947 	EXP 	iti2: autoDraw = False
438.4947 	EXP 	choice: height = 0.1
438.4947 	EXP 	choice: height = 0.1
438.4947 	EXP 	choice: height = 0.1
438.4947 	EXP 	choice: text = '     4 points\n\n15% win      85% lose\n\n  Accept         Decline  '
438.4947 	EXP 	choice: autoDraw = True
439.4015 	DATA 	Keypress: 2
441.4897 	EXP 	choice: autoDraw = False
441.4897 	EXP 	choice: autoDraw = False
441.4897 	EXP 	iti1: autoDraw = True
442.4881 	EXP 	iti1: autoDraw = False
442.4881 	EXP 	iti1: autoDraw = False
442.4881 	EXP 	feedback: height = 0.1
442.4881 	EXP 	feedback: height = 0.1
442.4881 	EXP 	feedback: height = 0.1
442.4881 	EXP 	feedback: text = '  (-4) points\n \n\n Total -2041 points'
442.4881 	EXP 	feedback: autoDraw = True
443.9800 	EXP 	feedback: autoDraw = False
443.9800 	EXP 	feedback: autoDraw = False
443.9800 	EXP 	iti2: autoDraw = True
446.9642 	EXP 	New trial (rep=0, index=41): {'Win': 42, 'Lose': 58, 'Value': 84, 'RealValue': -84, 'Label': 'ProbMM_valueH', 'ChoiceDur': 3, 'ITIDur1': 2, 'ITIDur2': 3}
446.9790 	EXP 	iti2: autoDraw = False
446.9790 	EXP 	iti2: autoDraw = False
446.9790 	EXP 	choice: height = 0.1
446.9790 	EXP 	choice: height = 0.1
446.9790 	EXP 	choice: height = 0.1
446.9790 	EXP 	choice: text = '     84 points\n\n42% win      58% lose\n\n  Accept         Decline  '
446.9790 	EXP 	choice: autoDraw = True
447.8182 	DATA 	Keypress: 2
449.9732 	EXP 	choice: autoDraw = False
449.9732 	EXP 	choice: autoDraw = False
449.9732 	EXP 	iti1: autoDraw = True
451.9723 	EXP 	iti1: autoDraw = False
451.9723 	EXP 	iti1: autoDraw = False
451.9723 	EXP 	feedback: height = 0.1
451.9723 	EXP 	feedback: height = 0.1
451.9723 	EXP 	feedback: height = 0.1
451.9723 	EXP 	feedback: text = '  (-84) points\n \n\n Total -2041 points'
451.9723 	EXP 	feedback: autoDraw = True
453.4633 	EXP 	feedback: autoDraw = False
453.4633 	EXP 	feedback: autoDraw = False
453.4633 	EXP 	iti2: autoDraw = True
456.4476 	EXP 	New trial (rep=0, index=42): {'Win': 14, 'Lose': 86, 'Value': 83, 'RealValue': -83, 'Label': 'ProbLL_valueH', 'ChoiceDur': 3, 'ITIDur1': 2, 'ITIDur2': 3}
456.4624 	EXP 	iti2: autoDraw = False
456.4624 	EXP 	iti2: autoDraw = False
456.4624 	EXP 	choice: height = 0.1
456.4624 	EXP 	choice: height = 0.1
456.4624 	EXP 	choice: height = 0.1
456.4624 	EXP 	choice: text = '     83 points\n\n14% win      86% lose\n\n  Accept         Decline  '
456.4624 	EXP 	choice: autoDraw = True
457.2523 	DATA 	Keypress: 2
459.4568 	EXP 	choice: autoDraw = False
459.4568 	EXP 	choice: autoDraw = False
459.4568 	EXP 	iti1: autoDraw = True
461.4553 	EXP 	iti1: autoDraw = False
461.4553 	EXP 	iti1: autoDraw = False
461.4553 	EXP 	feedback: height = 0.1
461.4553 	EXP 	feedback: height = 0.1
461.4553 	EXP 	feedback: height = 0.1
461.4553 	EXP 	feedback: text = '  (-83) points\n \n\n Total -2041 points'
461.4553 	EXP 	feedback: autoDraw = True
462.9480 	EXP 	feedback: autoDraw = False
462.9480 	EXP 	feedback: autoDraw = False
462.9480 	EXP 	iti2: autoDraw = True
465.9419 	EXP 	New trial (rep=0, index=43): {'Win': 23, 'Lose': 77, 'Value': 85, 'RealValue': -85, 'Label': 'ProbLL_valueH', 'ChoiceDur': 3, 'ITIDur1': 2, 'ITIDur2': 8}
465.9578 	EXP 	iti2: autoDraw = False
465.9578 	EXP 	iti2: autoDraw = False
465.9578 	EXP 	choice: height = 0.1
465.9578 	EXP 	choice: height = 0.1
465.9578 	EXP 	choice: height = 0.1
465.9578 	EXP 	choice: text = '     85 points\n\n23% win      77% lose\n\n  Accept         Decline  '
465.9578 	EXP 	choice: autoDraw = True
466.8448 	DATA 	Keypress: 2
468.9483 	EXP 	choice: autoDraw = False
468.9483 	EXP 	choice: autoDraw = False
468.9483 	EXP 	iti1: autoDraw = True
470.9556 	EXP 	iti1: autoDraw = False
470.9556 	EXP 	iti1: autoDraw = False
470.9556 	EXP 	feedback: height = 0.1
470.9556 	EXP 	feedback: height = 0.1
470.9556 	EXP 	feedback: height = 0.1
470.9556 	EXP 	feedback: text = '  (-85) points\n \n\n Total -2041 points'
470.9556 	EXP 	feedback: autoDraw = True
472.4470 	EXP 	feedback: autoDraw = False
472.4470 	EXP 	feedback: autoDraw = False
472.4470 	EXP 	iti2: autoDraw = True
480.4316 	EXP 	New trial (rep=0, index=44): {'Win': 25, 'Lose': 75, 'Value': 92, 'RealValue': -92, 'Label': 'ProbLL_valueH', 'ChoiceDur': 3, 'ITIDur1': 1, 'ITIDur2': 3}
480.4460 	EXP 	iti2: autoDraw = False
480.4460 	EXP 	iti2: autoDraw = False
480.4460 	EXP 	choice: height = 0.1
480.4460 	EXP 	choice: height = 0.1
480.4460 	EXP 	choice: height = 0.1
480.4460 	EXP 	choice: text = '     92 points\n\n25% win      75% lose\n\n  Accept         Decline  '
480.4460 	EXP 	choice: autoDraw = True
481.3523 	DATA 	Keypress: 2
483.4410 	EXP 	choice: autoDraw = False
483.4410 	EXP 	choice: autoDraw = False
483.4410 	EXP 	iti1: autoDraw = True
484.4394 	EXP 	iti1: autoDraw = False
484.4394 	EXP 	iti1: autoDraw = False
484.4394 	EXP 	feedback: height = 0.1
484.4394 	EXP 	feedback: height = 0.1
484.4394 	EXP 	feedback: height = 0.1
484.4394 	EXP 	feedback: text = '  (-92) points\n \n\n Total -2041 points'
484.4394 	EXP 	feedback: autoDraw = True
485.9323 	EXP 	feedback: autoDraw = False
485.9323 	EXP 	feedback: autoDraw = False
485.9323 	EXP 	iti2: autoDraw = True
488.9254 	EXP 	New trial (rep=0, index=45): {'Win': 75, 'Lose': 25, 'Value': 90, 'RealValue': 90, 'Label': 'ProbHH_valueH', 'ChoiceDur': 3, 'ITIDur1': 5, 'ITIDur2': 1}
488.9410 	EXP 	iti2: autoDraw = False
488.9410 	EXP 	iti2: autoDraw = False
488.9410 	EXP 	choice: height = 0.1
488.9410 	EXP 	choice: height = 0.1
488.9410 	EXP 	choice: height = 0.1
488.9410 	EXP 	choice: text = '     90 points\n\n75% win      25% lose\n\n  Accept         Decline  '
488.9410 	EXP 	choice: autoDraw = True
489.7139 	DATA 	Keypress: 1
491.9325 	EXP 	choice: autoDraw = False
491.9325 	EXP 	choice: autoDraw = False
491.9325 	EXP 	iti1: autoDraw = True
496.9395 	EXP 	iti1: autoDraw = False
496.9395 	EXP 	iti1: autoDraw = False
496.9395 	EXP 	feedback: height = 0.1
496.9395 	EXP 	feedback: height = 0.1
496.9395 	EXP 	feedback: height = 0.1
496.9395 	EXP 	feedback: text = '  +90 points\n \n\n Total -1951 points'
496.9395 	EXP 	feedback: autoDraw = True
498.4321 	EXP 	feedback: autoDraw = False
498.4321 	EXP 	feedback: autoDraw = False
498.4321 	EXP 	iti2: autoDraw = True
499.4157 	EXP 	New trial (rep=0, index=46): {'Win': 51, 'Lose': 49, 'Value': 1147, 'RealValue': 1147, 'Label': 'ProbMM_valueSH', 'ChoiceDur': 1.5, 'ITIDur1': 1, 'ITIDur2': 2}
499.4301 	EXP 	iti2: autoDraw = False
499.4301 	EXP 	iti2: autoDraw = False
499.4301 	EXP 	choice: height = 0.1
499.4301 	EXP 	choice: height = 0.1
499.4301 	EXP 	choice: height = 0.1
499.4301 	EXP 	choice: text = '     1147 points\n\n51% win      49% lose\n\n  Accept         Decline  '
499.4301 	EXP 	choice: autoDraw = True
500.5536 	DATA 	Keypress: 1
500.9248 	EXP 	choice: autoDraw = False
500.9248 	EXP 	choice: autoDraw = False
500.9248 	EXP 	iti1: autoDraw = True
501.9222 	EXP 	iti1: autoDraw = False
501.9222 	EXP 	iti1: autoDraw = False
501.9222 	EXP 	feedback: height = 0.1
501.9222 	EXP 	feedback: height = 0.1
501.9222 	EXP 	feedback: height = 0.1
501.9222 	EXP 	feedback: text = '  +1147 points\n \n\n Total -804 points'
501.9222 	EXP 	feedback: autoDraw = True
503.4152 	EXP 	feedback: autoDraw = False
503.4152 	EXP 	feedback: autoDraw = False
503.4152 	EXP 	iti2: autoDraw = True
505.3987 	EXP 	New trial (rep=0, index=47): {'Win': 59, 'Lose': 41, 'Value': 14, 'RealValue': 14, 'Label': 'ProbMM_valueL', 'ChoiceDur': 3, 'ITIDur1': 1, 'ITIDur2': 1}
505.4127 	EXP 	iti2: autoDraw = False
505.4127 	EXP 	iti2: autoDraw = False
505.4127 	EXP 	choice: height = 0.1
505.4127 	EXP 	choice: height = 0.1
505.4127 	EXP 	choice: height = 0.1
505.4127 	EXP 	choice: text = '     14 points\n\n59% win      41% lose\n\n  Accept         Decline  '
505.4127 	EXP 	choice: autoDraw = True
506.2026 	DATA 	Keypress: 1
508.4082 	EXP 	choice: autoDraw = False
508.4082 	EXP 	choice: autoDraw = False
508.4082 	EXP 	iti1: autoDraw = True
509.4069 	EXP 	iti1: autoDraw = False
509.4069 	EXP 	iti1: autoDraw = False
509.4069 	EXP 	feedback: height = 0.1
509.4069 	EXP 	feedback: height = 0.1
509.4069 	EXP 	feedback: height = 0.1
509.4069 	EXP 	feedback: text = '  +14 points\n \n\n Total -790 points'
509.4069 	EXP 	feedback: autoDraw = True
510.8990 	EXP 	feedback: autoDraw = False
510.8990 	EXP 	feedback: autoDraw = False
510.8990 	EXP 	iti2: autoDraw = True
511.8833 	EXP 	New trial (rep=0, index=48): {'Win': 81, 'Lose': 19, 'Value': 17, 'RealValue': -17, 'Label': 'ProbHH_valueL', 'ChoiceDur': 3, 'ITIDur1': 1, 'ITIDur2': 1}
511.8992 	EXP 	iti2: autoDraw = False
511.8992 	EXP 	iti2: autoDraw = False
511.8992 	EXP 	choice: height = 0.1
511.8992 	EXP 	choice: height = 0.1
511.8992 	EXP 	choice: height = 0.1
511.8992 	EXP 	choice: text = '     17 points\n\n81% win      19% lose\n\n  Accept         Decline  '
511.8992 	EXP 	choice: autoDraw = True
512.7471 	DATA 	Keypress: 1
514.8917 	EXP 	choice: autoDraw = False
514.8917 	EXP 	choice: autoDraw = False
514.8917 	EXP 	iti1: autoDraw = True
515.8892 	EXP 	iti1: autoDraw = False
515.8892 	EXP 	iti1: autoDraw = False
515.8892 	EXP 	feedback: height = 0.1
515.8892 	EXP 	feedback: height = 0.1
515.8892 	EXP 	feedback: height = 0.1
515.8892 	EXP 	feedback: text = '  -17 points\n \n\n Total -807 points'
515.8892 	EXP 	feedback: autoDraw = True
517.3823 	EXP 	feedback: autoDraw = False
517.3823 	EXP 	iti2: autoDraw = True
518.3665 	EXP 	New trial (rep=0, index=49): {'Win': 78, 'Lose': 22, 'Value': 8, 'RealValue': 8, 'Label': 'ProbHH_valueL', 'ChoiceDur': 3, 'ITIDur1': 2, 'ITIDur2': 8}
518.3808 	EXP 	iti2: autoDraw = False
518.3808 	EXP 	iti2: autoDraw = False
518.3808 	EXP 	choice: height = 0.1
518.3808 	EXP 	choice: height = 0.1
518.3808 	EXP 	choice: height = 0.1
518.3808 	EXP 	choice: text = '     8 points\n\n78% win      22% lose\n\n  Accept         Decline  '
518.3808 	EXP 	choice: autoDraw = True
519.2812 	DATA 	Keypress: 1
521.3756 	EXP 	choice: autoDraw = False
521.3756 	EXP 	choice: autoDraw = False
521.3756 	EXP 	iti1: autoDraw = True
523.3738 	EXP 	iti1: autoDraw = False
523.3738 	EXP 	iti1: autoDraw = False
523.3738 	EXP 	feedback: height = 0.1
523.3738 	EXP 	feedback: height = 0.1
523.3738 	EXP 	feedback: height = 0.1
523.3738 	EXP 	feedback: text = '  +8 points\n \n\n Total -799 points'
523.3738 	EXP 	feedback: autoDraw = True
524.8661 	EXP 	feedback: autoDraw = False
524.8661 	EXP 	feedback: autoDraw = False
524.8661 	EXP 	iti2: autoDraw = True
532.8501 	EXP 	New trial (rep=0, index=50): {'Win': 42, 'Lose': 58, 'Value': 1344, 'RealValue': -1344, 'Label': 'ProbMM_valueSH', 'ChoiceDur': 1.5, 'ITIDur1': 1, 'ITIDur2': 1}
532.8648 	EXP 	iti2: autoDraw = False
532.8648 	EXP 	iti2: autoDraw = False
532.8648 	EXP 	choice: height = 0.1
532.8648 	EXP 	choice: height = 0.1
532.8648 	EXP 	choice: height = 0.1
532.8648 	EXP 	choice: text = '     1344 points\n\n42% win      58% lose\n\n  Accept         Decline  '
532.8648 	EXP 	choice: autoDraw = True
534.0148 	DATA 	Keypress: 2
534.3593 	EXP 	choice: autoDraw = False
534.3593 	EXP 	choice: autoDraw = False
534.3593 	EXP 	iti1: autoDraw = True
535.3574 	EXP 	iti1: autoDraw = False
535.3574 	EXP 	iti1: autoDraw = False
535.3574 	EXP 	feedback: height = 0.1
535.3574 	EXP 	feedback: height = 0.1
535.3574 	EXP 	feedback: height = 0.1
535.3574 	EXP 	feedback: text = '  (-1344) points\n \n\n Total -799 points'
535.3574 	EXP 	feedback: autoDraw = True
536.8501 	EXP 	feedback: autoDraw = False
536.8501 	EXP 	feedback: autoDraw = False
536.8501 	EXP 	iti2: autoDraw = True
537.8334 	EXP 	New trial (rep=0, index=51): {'Win': 55, 'Lose': 45, 'Value': 1347, 'RealValue': -1347, 'Label': 'ProbMM_valueSH', 'ChoiceDur': 1.5, 'ITIDur1': 1, 'ITIDur2': 1}
537.8488 	EXP 	iti2: autoDraw = False
537.8488 	EXP 	iti2: autoDraw = False
537.8488 	EXP 	choice: height = 0.1
537.8488 	EXP 	choice: height = 0.1
537.8488 	EXP 	choice: height = 0.1
537.8488 	EXP 	choice: text = '     1347 points\n\n55% win      45% lose\n\n  Accept         Decline  '
537.8488 	EXP 	choice: autoDraw = True
538.6713 	DATA 	Keypress: 1
539.3426 	EXP 	choice: autoDraw = False
539.3426 	EXP 	choice: autoDraw = False
539.3426 	EXP 	iti1: autoDraw = True
540.3416 	EXP 	iti1: autoDraw = False
540.3416 	EXP 	iti1: autoDraw = False
540.3416 	EXP 	feedback: height = 0.1
540.3416 	EXP 	feedback: height = 0.1
540.3416 	EXP 	feedback: height = 0.1
540.3416 	EXP 	feedback: text = '  -1347 points\n \n\n Total -2146 points'
540.3416 	EXP 	feedback: autoDraw = True
541.8330 	EXP 	feedback: autoDraw = False
541.8330 	EXP 	feedback: autoDraw = False
541.8330 	EXP 	iti2: autoDraw = True
542.8169 	EXP 	New trial (rep=0, index=52): {'Win': 42, 'Lose': 58, 'Value': 95, 'RealValue': -95, 'Label': 'ProbMM_valueH', 'ChoiceDur': 3, 'ITIDur1': 1, 'ITIDur2': 2}
542.8312 	EXP 	iti2: autoDraw = False
542.8312 	EXP 	iti2: autoDraw = False
542.8312 	EXP 	choice: height = 0.1
542.8312 	EXP 	choice: height = 0.1
542.8312 	EXP 	choice: height = 0.1
542.8312 	EXP 	choice: text = '     95 points\n\n42% win      58% lose\n\n  Accept         Decline  '
542.8312 	EXP 	choice: autoDraw = True
544.3715 	DATA 	Keypress: 2
545.8261 	EXP 	choice: autoDraw = False
545.8261 	EXP 	choice: autoDraw = False
545.8261 	EXP 	iti1: autoDraw = True
546.8244 	EXP 	iti1: autoDraw = False
546.8244 	EXP 	iti1: autoDraw = False
546.8244 	EXP 	feedback: height = 0.1
546.8244 	EXP 	feedback: height = 0.1
546.8244 	EXP 	feedback: height = 0.1
546.8244 	EXP 	feedback: text = '  (-95) points\n \n\n Total -2146 points'
546.8244 	EXP 	feedback: autoDraw = True
548.3178 	EXP 	feedback: autoDraw = False
548.3178 	EXP 	feedback: autoDraw = False
548.3178 	EXP 	iti2: autoDraw = True
550.3109 	EXP 	New trial (rep=0, index=53): {'Win': 17, 'Lose': 83, 'Value': 89, 'RealValue': 89, 'Label': 'ProbLL_valueH', 'ChoiceDur': 3, 'ITIDur1': 1, 'ITIDur2': 1}
550.3256 	EXP 	iti2: autoDraw = False
550.3256 	EXP 	iti2: autoDraw = False
550.3256 	EXP 	choice: height = 0.1
550.3256 	EXP 	choice: height = 0.1
550.3256 	EXP 	choice: height = 0.1
550.3256 	EXP 	choice: text = '     89 points\n\n17% win      83% lose\n\n  Accept         Decline  '
550.3256 	EXP 	choice: autoDraw = True
551.0487 	DATA 	Keypress: 2
553.3176 	EXP 	choice: autoDraw = False
553.3176 	EXP 	choice: autoDraw = False
553.3176 	EXP 	iti1: autoDraw = True
554.3138 	EXP 	iti1: autoDraw = False
554.3138 	EXP 	iti1: autoDraw = False
554.3138 	EXP 	feedback: height = 0.1
554.3138 	EXP 	feedback: height = 0.1
554.3138 	EXP 	feedback: height = 0.1
554.3138 	EXP 	feedback: text = '  (+89) points\n \n\n Total -2146 points'
554.3138 	EXP 	feedback: autoDraw = True
555.8102 	EXP 	feedback: autoDraw = False
555.8102 	EXP 	feedback: autoDraw = False
555.8102 	EXP 	iti2: autoDraw = True
556.7946 	EXP 	New trial (rep=0, index=54): {'Win': 55, 'Lose': 45, 'Value': 1137, 'RealValue': -1137, 'Label': 'ProbMM_valueSH', 'ChoiceDur': 1.5, 'ITIDur1': 3, 'ITIDur2': 1}
556.8113 	EXP 	iti2: autoDraw = False
556.8113 	EXP 	iti2: autoDraw = False
556.8113 	EXP 	choice: height = 0.1
556.8113 	EXP 	choice: height = 0.1
556.8113 	EXP 	choice: height = 0.1
556.8113 	EXP 	choice: text = '     1137 points\n\n55% win      45% lose\n\n  Accept         Decline  '
556.8113 	EXP 	choice: autoDraw = True
557.5718 	DATA 	Keypress: 1
558.3098 	EXP 	choice: autoDraw = False
558.3098 	EXP 	choice: autoDraw = False
558.3098 	EXP 	iti1: autoDraw = True
561.3081 	EXP 	iti1: autoDraw = False
561.3081 	EXP 	iti1: autoDraw = False
561.3081 	EXP 	feedback: height = 0.1
561.3081 	EXP 	feedback: height = 0.1
561.3081 	EXP 	feedback: height = 0.1
561.3081 	EXP 	feedback: text = '  -1137 points\n \n\n Total -3283 points'
561.3081 	EXP 	feedback: autoDraw = True
562.8015 	EXP 	feedback: autoDraw = False
562.8015 	EXP 	feedback: autoDraw = False
562.8015 	EXP 	iti2: autoDraw = True
563.7847 	EXP 	New trial (rep=0, index=55): {'Win': 87, 'Lose': 13, 'Value': 93, 'RealValue': 93, 'Label': 'ProbHH_valueH', 'ChoiceDur': 3, 'ITIDur1': 2, 'ITIDur2': 1}
563.7991 	EXP 	iti2: autoDraw = False
563.7991 	EXP 	iti2: autoDraw = False
563.7991 	EXP 	choice: height = 0.1
563.7991 	EXP 	choice: height = 0.1
563.7991 	EXP 	choice: height = 0.1
563.7991 	EXP 	choice: text = '     93 points\n\n87% win      13% lose\n\n  Accept         Decline  '
563.7991 	EXP 	choice: autoDraw = True
564.7324 	DATA 	Keypress: 1
566.7934 	EXP 	choice: autoDraw = False
566.7934 	EXP 	choice: autoDraw = False
566.7934 	EXP 	iti1: autoDraw = True
568.7913 	EXP 	iti1: autoDraw = False
568.7913 	EXP 	iti1: autoDraw = False
568.7913 	EXP 	feedback: height = 0.1
568.7913 	EXP 	feedback: height = 0.1
568.7913 	EXP 	feedback: height = 0.1
568.7913 	EXP 	feedback: text = '  +93 points\n \n\n Total -3190 points'
568.7913 	EXP 	feedback: autoDraw = True
570.2842 	EXP 	feedback: autoDraw = False
570.2842 	EXP 	feedback: autoDraw = False
570.2842 	EXP 	iti2: autoDraw = True
571.2768 	EXP 	iti2: autoDraw = False
571.2768 	EXP 	iti2: autoDraw = False
571.2768 	EXP 	longiti2: autoDraw = True
591.2891 	EXP 	longiti2: autoDraw = False
591.2891 	EXP 	longiti2: autoDraw = False
591.2891 	EXP 	text: height = 0.1
591.2891 	EXP 	text: height = 0.1
591.2891 	EXP 	text: height = 0.1
591.2891 	EXP 	text: text = 'You are done with the first part! \nSo far you have collected -3190 points.\n\nWe will now take a short break.'
591.2891 	EXP 	text: autoDraw = True
595.2781 	EXP 	text: autoDraw = False
595.2782 	EXP 	ADMT_r1: status = STOPPED
595.3403 	EXP 	window1: mouseVisible = True
