﻿Win,Lose,Value,RealValue,Label,ChoiceDur,ITIDur1,ITIDur2,trials.thisRepN,trials.thisTrialN,trials.thisN,trials.thisIndex,thisRow.t,notes,Welcome.started,Welcome.stopped,Review1.started,Review1.stopped,Review2.started,Review2.stopped,ScannerPulse.started,ScannerPulse.stopped,LongITI1.started,longiti1.started,longiti1.stopped,LongITI1.stopped,Choice.started,choice.started,choice_key.started,choice.stopped,choice_key.stopped,Choice.stopped,choice_key.keys,LBracket,RBracket,Gainsign,RespCheck,Outcome,totalsum,ITI1.started,ITI1.stopped,Feedback.started,feedback.started,Feedback.stopped,cond,ITI2.started,ITI2.stopped,choice_key.rt,choice_key.duration,feedback.stopped,LongITI2.started,LongITI2.stopped,BreakWindow.started,BreakWindow.stopped,participant,session,starting_score,date,expName,psychopyVersion,frameRate,expStart,
45,55,13,-13,ProbMM_valueL,3,5,1,0,0,0,0,66.85555070033297,,0.004266900010406971,4.469822300132364,4.4698562999255955,16.586574899964035,16.586610100232065,23.553701700177044,23.553739200346172,46.76973609998822,46.76976720010862,46.78530130023137,66.85555070033297,66.76967500010505,66.81028980016708,66.85555070033297,66.85555070033297,69.86895389994606,69.86895389994606,69.85314430017024,None,,,,Please respond!!!,0,0,69.85375500004739,74.85303260013461,74.85306380037218,74.8754700999707,76.36892680032179,Dummy,76.3689594999887,77.36874169996008,,,,,,,,0004,001,0,2024-05-30_11h54.50.602,ADMT_r1,2023.2.3,59.95214606992237,2024-05-30 11h55.01.212909 -0500,
95,5,80,80,ProbHH_valueH,3,2,1,0,1,1,1,77.38492270000279,,,,,,,,,,,,,,77.36910940008238,77.38492270000279,77.38492270000279,80.38550710026175,80.38550710026175,80.36990430019796,1,,,+,,80,80,80.37086040014401,82.36940700002015,82.36943050008267,82.38500750018284,83.86988739995286,A_GAIN,83.86992660025135,84.86990590021014,1.2793070999905467,None,83.88555460004136,,,,,0004,001,0,2024-05-30_11h54.50.602,ADMT_r1,2023.2.3,59.95214606992237,2024-05-30 11h55.01.212909 -0500,
43,57,1,1,ProbMM_valueL,3,1,2,0,2,2,2,84.89001510012895,,,,,,,,,,,,,,84.87057689996436,84.89001510012895,84.89001510012895,87.90221480000764,87.90221480000764,87.88638360006735,2,(,),+,,1,80,87.88698760000989,88.88651390001178,88.88655170006678,88.90470620011911,90.40242520021275,R_GAIN,90.40245870035142,92.40325460024178,1.9261055998504162,None,,,,,,0004,001,0,2024-05-30_11h54.50.602,ADMT_r1,2023.2.3,59.95214606992237,2024-05-30 11h55.01.212909 -0500,
20,80,83,-83,ProbLL_valueH,3,5,1,0,3,3,3,92.42979890014976,,,,,,,,,,,,,,92.40392700023949,92.42979890014976,92.42979890014976,95.43553570006043,95.43553570006043,95.42002610024065,1,,,,,-83,-3,95.4207108002156,100.4196166000329,100.41964940028265,100.43532880023122,101.92001780029386,A_LOSS,101.92005780013278,102.91987850004807,2.441271400079131,None,101.93568480014801,,,,,0004,001,0,2024-05-30_11h54.50.602,ADMT_r1,2023.2.3,59.95214606992237,2024-05-30 11h55.01.212909 -0500,
10,90,97,-97,ProbLL_valueH,3,1,1,0,4,4,4,102.94252450019121,,,,,,,,,,,,,,102.92053000023589,102.94252450019121,102.94252450019121,105.95259420014918,105.95259420014918,105.93703520018607,2,(,),,,-97,-3,105.93771650036797,106.93621039995924,106.9362403000705,106.954002100043,108.45264510018751,R_LOSS,108.45268350001425,109.45330920023844,2.1165458001196384,None,,,,,,0004,001,0,2024-05-30_11h54.50.602,ADMT_r1,2023.2.3,59.95214606992237,2024-05-30 11h55.01.212909 -0500,
57,43,1370,1370,ProbMM_valueSH,1.5,2,8,0,5,5,5,109.47825410030782,,,,,,,,,,,,,,109.45395220024511,109.47825410030782,109.47825410030782,110.98581610014662,110.98581610014662,110.96977260010317,None,,,,Please respond!!!,0,-3,110.97011260036379,112.9705537003465,112.97059140028432,112.9932618001476,114.48589230002835,Dummy,114.4859215002507,122.48605519998819,,,,,,,,0004,001,0,2024-05-30_11h54.50.602,ADMT_r1,2023.2.3,59.95214606992237,2024-05-30 11h55.01.212909 -0500,
95,5,10,10,ProbHH_valueL,3,1,4,0,6,6,6,122.5061457999982,,,,,,,,,,,,,,122.48658980010077,122.5061457999982,122.5061457999982,125.51911609992385,125.51911609992385,125.50330320000648,1,,,+,,10,7,125.50394019996747,126.50333090033382,126.50336749991402,126.52110530016944,128.01925890007988,A_GAIN,128.0192905003205,132.01956740021706,0.9538447000086308,None,,,,,,0004,001,0,2024-05-30_11h54.50.602,ADMT_r1,2023.2.3,59.95214606992237,2024-05-30 11h55.01.212909 -0500,
57,43,16,16,ProbMM_valueL,3,2,3,0,7,7,7,132.03638250008225,,,,,,,,,,,,,,132.02004360035062,132.03638250008225,132.03638250008225,135.03589470032603,135.03589470032603,135.02010060008615,1,,,+,,16,23,135.0208091000095,137.0194203001447,137.01944679999724,137.0354301999323,138.52014930034056,A_GAIN,138.52018869994208,141.5203064000234,1.8423909000121057,None,138.5359573001042,,,,,0004,001,0,2024-05-30_11h54.50.602,ADMT_r1,2023.2.3,59.95214606992237,2024-05-30 11h55.01.212909 -0500,
80,20,87,87,ProbHH_valueH,3,1,2,0,8,8,8,141.54368440015242,,,,,,,,,,,,,,141.5209758002311,141.54368440015242,141.54368440015242,144.55271150032058,144.55271150032058,144.5370642002672,1,,,+,,87,110,144.53776110010222,145.53675829991698,145.5367952999659,145.55570119991899,147.05344060016796,A_GAIN,147.05348060000688,149.0533350999467,1.1187665001489222,None,,,,,,0004,001,0,2024-05-30_11h54.50.602,ADMT_r1,2023.2.3,59.95214606992237,2024-05-30 11h55.01.212909 -0500,
20,80,93,-93,ProbLL_valueH,3,1,3,0,9,9,9,149.07645420031622,,,,,,,,,,,,,,149.05400370014831,149.07645420031622,149.07645420031622,152.0865052002482,152.0865052002482,152.07004819996655,2,(,),,,-93,110,152.07066880026832,153.0699943001382,153.07003120006993,153.08852310013026,154.58609439991415,R_LOSS,154.58613230008632,157.58653119998053,1.5945346001535654,None,,,,,,0004,001,0,2024-05-30_11h54.50.602,ADMT_r1,2023.2.3,59.95214606992237,2024-05-30 11h55.01.212909 -0500,
23,77,4,-4,ProbLL_valueL,3,2,4,0,10,10,10,157.60479190014303,,,,,,,,,,,,,,157.5870007001795,157.60479190014303,157.60479190014303,160.6194273000583,160.6194273000583,160.6035776003264,2,(,),,,-4,110,160.60426430031657,162.6034738002345,162.6035131001845,162.6227171001956,164.11964120017365,R_LOSS,164.1196794002317,168.12024300033227,2.037967400159687,None,,,,,,0004,001,0,2024-05-30_11h54.50.602,ADMT_r1,2023.2.3,59.95214606992237,2024-05-30 11h55.01.212909 -0500,
18,82,15,-15,ProbLL_valueL,3,2,8,0,11,11,11,168.14135030005127,,,,,,,,,,,,,,168.12084740027785,168.14135030005127,168.14135030005127,171.15348570002243,171.15348570002243,171.13704730011523,1,,,,,-15,95,171.13764390023425,173.1368466001004,173.13688480015844,173.15650080004707,174.65300780022517,A_LOSS,174.65304430015385,182.65311340009794,2.2549487999640405,None,,,,,,0004,001,0,2024-05-30_11h54.50.602,ADMT_r1,2023.2.3,59.95214606992237,2024-05-30 11h55.01.212909 -0500,
88,12,83,83,ProbHH_valueH,3,5,4,0,12,12,12,182.66888230014592,,,,,,,,,,,,,,182.65363130019978,182.66888230014592,182.66888230014592,185.66946960007772,185.66946960007772,185.6533629000187,1,,,+,,83,178,185.65391470026225,190.65380430035293,190.65384140005335,190.67210429999977,192.16961460001767,A_GAIN,192.16964650014415,196.17032200004905,1.004491999745369,None,,,,,,0004,001,0,2024-05-30_11h54.50.602,ADMT_r1,2023.2.3,59.95214606992237,2024-05-30 11h55.01.212909 -0500,
46,54,18,18,ProbMM_valueL,3,1,3,0,13,13,13,196.19478130014613,,,,,,,,,,,,,,196.17096060002223,196.19478130014613,196.19478130014613,199.2030374999158,199.2030374999158,199.18700030026957,2,(,),+,,18,178,199.18761079991236,200.18695850018412,200.18699310021475,200.20505070034415,201.7032570000738,R_GAIN,201.70329600013793,204.70371109992266,1.5724362004548311,None,,,,,,0004,001,0,2024-05-30_11h54.50.602,ADMT_r1,2023.2.3,59.95214606992237,2024-05-30 11h55.01.212909 -0500,
48,52,1381,1381,ProbMM_valueSH,1.5,1,3,0,14,14,14,204.7254250003025,,,,,,,,,,,,,,204.7042956002988,204.7254250003025,204.7254250003025,206.2362596001476,206.2362596001476,206.22025880031288,1,,,+,,1381,1559,206.220821400173,207.22066960018128,207.2206954001449,207.23772229999304,208.73649340029806,A_GAIN,208.7365272003226,211.73701700009406,1.1093394998461008,None,,,,,,0004,001,0,2024-05-30_11h54.50.602,ADMT_r1,2023.2.3,59.95214606992237,2024-05-30 11h55.01.212909 -0500,
43,57,1318,1318,ProbMM_valueSH,1.5,5,1,0,15,15,15,211.75776820024475,,,,,,,,,,,,,,211.73753460031003,211.75776820024475,211.75776820024475,213.26978670014068,213.26978670014068,213.25395520031452,None,,,,Please respond!!!,0,1559,213.25427150027826,218.25431540003046,218.25435069995,218.2746896003373,219.76989290025085,Dummy,219.76992519991472,220.770311600063,,,,,,,,0004,001,0,2024-05-30_11h54.50.602,ADMT_r1,2023.2.3,59.95214606992237,2024-05-30 11h55.01.212909 -0500,
15,85,89,-89,ProbLL_valueH,3,2,2,0,16,16,16,220.7906186003238,,,,,,,,,,,,,,220.77082780003548,220.7906186003238,220.7906186003238,223.80321920011193,223.80321920011193,223.7872272003442,1,,,,,-89,1470,223.78783660009503,225.7874505999498,225.78748800000176,225.80651560006663,227.30320540023968,A_LOSS,227.30324009992182,229.30415609991178,1.5662133996374905,None,,,,,,0004,001,0,2024-05-30_11h54.50.602,ADMT_r1,2023.2.3,59.95214606992237,2024-05-30 11h55.01.212909 -0500,
95,5,14,14,ProbHH_valueL,3,5,1,0,17,17,17,229.32739920029417,,,,,,,,,,,,,,229.3047980000265,229.32739920029417,229.32739920029417,232.33655370026827,232.33655370026827,232.3204474002123,1,,,+,,14,1484,232.32103050034493,237.32029790012166,237.32032910035923,237.35336910001934,238.83670940017328,A_GAIN,238.83674600021914,239.8371260999702,1.5867957998998463,None,,,,,,0004,001,0,2024-05-30_11h54.50.602,ADMT_r1,2023.2.3,59.95214606992237,2024-05-30 11h55.01.212909 -0500,
91,9,10,10,ProbHH_valueL,3,1,3,0,18,18,18,239.8581656999886,,,,,,,,,,,,,,239.8377177999355,239.8581656999886,239.8581656999886,242.86997340014204,242.86997340014204,242.8540720003657,1,,,+,,10,1494,242.8546712002717,243.85418660007417,243.8542256001383,243.8730641999282,245.37005860032514,A_GAIN,245.37009400036186,248.37130250036716,0.9977208999916911,None,,,,,,0004,001,0,2024-05-30_11h54.50.602,ADMT_r1,2023.2.3,59.95214606992237,2024-05-30 11h55.01.212909 -0500,
54,46,1020,-1020,ProbMM_valueSH,1.5,1,2,0,19,19,19,248.3968560001813,,,,,,,,,,,,,,248.3719896003604,248.3968560001813,248.3968560001813,249.90316849993542,249.90316849993542,249.88751420006156,1,,,,,-1020,474,249.8881483003497,250.88740370003507,250.8874397999607,250.9054245003499,252.40345370024443,A_LOSS,252.40348759992048,254.40400109998882,0.9325713999569416,None,,,,,,0004,001,0,2024-05-30_11h54.50.602,ADMT_r1,2023.2.3,59.95214606992237,2024-05-30 11h55.01.212909 -0500,
80,20,84,84,ProbHH_valueH,3,2,1,0,20,20,20,254.42461770027876,,,,,,,,,,,,,,254.40450630011037,254.42461770027876,254.42461770027876,257.4373548999429,257.4373548999429,257.4206435000524,1,,,+,,84,558,257.42125110002235,259.4207962001674,259.42083570035174,259.43996710004285,260.93689890019596,A_GAIN,260.9369320999831,261.9377089003101,1.2883039000444114,None,,,,,,0004,001,0,2024-05-30_11h54.50.602,ADMT_r1,2023.2.3,59.95214606992237,2024-05-30 11h55.01.212909 -0500,
87,13,86,86,ProbHH_valueH,3,1,1,0,21,21,21,261.9595503001474,,,,,,,,,,,,,,261.9382620002143,261.9595503001474,261.9595503001474,264.969914900139,264.969914900139,264.9542130003683,1,,,+,,86,644,264.9548989003524,265.9541919003241,265.9542275001295,265.9737893003039,267.4701765002683,A_GAIN,267.4702106001787,268.48683230020106,1.2099756002426147,None,,,,,,0004,001,0,2024-05-30_11h54.50.602,ADMT_r1,2023.2.3,59.95214606992237,2024-05-30 11h55.01.212909 -0500,
50,50,16,16,ProbMM_valueL,3,1,1,0,22,22,22,268.5056450003758,,,,,,,,,,,,,,268.48732520034537,268.5056450003758,268.5056450003758,271.519827300217,271.519827300217,271.50515040010214,1,,,+,,16,660,271.5057451003231,272.50418410031125,272.5042155003175,272.5217158999294,274.02034970000386,A_GAIN,274.0203840001486,275.02082280023023,1.2170775001868606,None,,,,,,0004,001,0,2024-05-30_11h54.50.602,ADMT_r1,2023.2.3,59.95214606992237,2024-05-30 11h55.01.212909 -0500,
54,46,86,-86,ProbMM_valueH,3,2,8,0,23,23,23,275.04485320020467,,,,,,,,,,,,,,275.0214184001088,275.04485320020467,275.04485320020467,278.0534884002991,278.0534884002991,278.03756200009957,1,,,,,-86,574,278.038201500196,280.03722340008244,280.0372532000765,280.0702969999984,281.55375279998407,A_LOSS,281.5537896002643,289.5546725001186,0.8537401999346912,None,,,,,,0004,001,0,2024-05-30_11h54.50.602,ADMT_r1,2023.2.3,59.95214606992237,2024-05-30 11h55.01.212909 -0500,
57,43,90,90,ProbMM_valueH,3,2,1,0,24,24,24,289.57471999991685,,,,,,,,,,,,,,289.5551970000379,289.57471999991685,289.57471999991685,292.58682600036263,292.58682600036263,292.5709183001891,1,,,+,,90,664,292.5715604000725,294.5714859999716,294.57152529992163,294.5903104003519,296.08698099991307,A_GAIN,296.0870147002861,297.0875041000545,1.1414938000962138,None,,,,,,0004,001,0,2024-05-30_11h54.50.602,ADMT_r1,2023.2.3,59.95214606992237,2024-05-30 11h55.01.212909 -0500,
23,77,83,-83,ProbLL_valueH,3,1,3,0,25,25,25,297.10871960036457,,,,,,,,,,,,,,297.0880518001504,297.10871960036457,297.10871960036457,300.1200610999949,300.1200610999949,300.1045317002572,1,,,,,-83,581,300.1052015000023,301.10400209994987,301.1040301001631,301.12030770024285,302.604579300154,A_LOSS,302.60462120035663,305.62133760005236,1.064953399822116,None,302.6211184002459,,,,,0004,001,0,2024-05-30_11h54.50.602,ADMT_r1,2023.2.3,59.95214606992237,2024-05-30 11h55.01.212909 -0500,
77,23,87,-87,ProbHH_valueH,3,2,3,0,26,26,26,305.6447323001921,,,,,,,,,,,,,,305.6220232001506,305.6447323001921,305.6447323001921,308.65449750004336,308.65449750004336,308.63796370010823,1,,,,,-87,494,308.63864540029317,310.65451900009066,310.6545549002476,310.67253960017115,312.17040150007233,A_LOSS,312.1704322001897,315.171554800123,0.90836640028283,None,,,,,,0004,001,0,2024-05-30_11h54.50.602,ADMT_r1,2023.2.3,59.95214606992237,2024-05-30 11h55.01.212909 -0500,
51,49,88,88,ProbMM_valueH,3,1,4,0,27,27,27,315.19606909994036,,,,,,,,,,,,,,315.172202100046,315.19606909994036,315.19606909994036,318.2037137001753,318.2037137001753,318.1880715000443,1,,,+,,88,582,318.1886749002151,319.18757010018453,319.18760180007666,319.20401440002024,320.68777830014005,A_GAIN,320.6878105001524,324.6881554001011,1.1960992002859712,None,320.70470390003175,,,,,0004,001,0,2024-05-30_11h54.50.602,ADMT_r1,2023.2.3,59.95214606992237,2024-05-30 11h55.01.212909 -0500,
50,50,84,84,ProbMM_valueH,3,5,3,0,28,28,28,324.7106985002756,,,,,,,,,,,,,,324.6888264999725,324.7106985002756,324.7106985002756,327.7208473002538,327.7208473002538,327.70461330004036,1,,,+,,84,666,327.7052424000576,332.705160100013,332.70519810030237,332.724427100271,334.22068780008703,A_GAIN,334.2207234003581,337.22091370029375,1.0765418000519276,None,,,,,,0004,001,0,2024-05-30_11h54.50.602,ADMT_r1,2023.2.3,59.95214606992237,2024-05-30 11h55.01.212909 -0500,
46,54,83,83,ProbMM_valueH,3,1,3,0,29,29,29,337.24291860032827,,,,,,,,,,,,,,337.2214693999849,337.24291860032827,337.24291860032827,340.25366300018504,340.25366300018504,340.2381724002771,2,(,),+,,83,666,340.2387789003551,341.23787760036066,341.2379090003669,341.25623359996825,342.7541283001192,R_GAIN,342.75416200002655,345.75459349993616,2.2241217996925116,None,,,,,,0004,001,0,2024-05-30_11h54.50.602,ADMT_r1,2023.2.3,59.95214606992237,2024-05-30 11h55.01.212909 -0500,
18,82,14,-14,ProbLL_valueL,3,3,3,0,30,30,30,345.7752010002732,,,,,,,,,,,,,,345.75515180034563,345.7752010002732,345.7752010002732,348.7872450002469,348.7872450002469,348.77132760034874,2,(,),,,-14,666,348.77193129993975,351.7713419003412,351.77137380000204,351.789379700087,353.28750069998205,R_LOSS,353.2875337000005,356.2881280002184,1.3592429999262094,None,,,,,,0004,001,0,2024-05-30_11h54.50.602,ADMT_r1,2023.2.3,59.95214606992237,2024-05-30 11h55.01.212909 -0500,
24,76,4,-4,ProbLL_valueL,3,5,2,0,31,31,31,356.31061400007457,,,,,,,,,,,,,,356.28868409991264,356.31061400007457,356.31061400007457,359.3207002002746,359.3207002002746,359.30482350010425,2,(,),,,-4,666,359.3054096000269,364.3041758001782,364.3042061002925,364.32014300022274,365.80440089991316,R_LOSS,365.80443880008534,367.80504740029573,1.5911418003961444,None,,,,,,0004,001,0,2024-05-30_11h54.50.602,ADMT_r1,2023.2.3,59.95214606992237,2024-05-30 11h55.01.212909 -0500,
47,53,1060,1060,ProbMM_valueSH,1.5,2,1,0,32,32,32,367.82933290023357,,,,,,,,,,,,,,367.8057157001458,367.82933290023357,367.82933290023357,369.33753400016576,369.33753400016576,369.3216254999861,None,,,,Please respond!!!,0,666,369.321947700344,371.3213015999645,371.321332400199,371.34231030009687,372.8377636000514,Dummy,372.83779529994354,373.83799900021404,,,,,,,,0004,001,0,2024-05-30_11h54.50.602,ADMT_r1,2023.2.3,59.95214606992237,2024-05-30 11h55.01.212909 -0500,
24,76,7,-7,ProbLL_valueL,3,1,1,0,33,33,33,373.85396570013836,,,,,,,,,,,,,,373.8384732003324,373.85396570013836,373.85396570013836,376.8543659001589,376.8543659001589,376.8382220999338,2,(,),,,-7,666,376.83874460030347,377.8377451999113,377.83777520013973,377.8546028002165,379.337902400177,R_LOSS,379.33792270021513,380.337979900185,1.5741320997476578,None,379.3541967002675,,,,,0004,001,0,2024-05-30_11h54.50.602,ADMT_r1,2023.2.3,59.95214606992237,2024-05-30 11h55.01.212909 -0500,
76,24,4,-4,ProbHH_valueL,3,3,3,0,34,34,34,380.3593208999373,,,,,,,,,,,,,,380.33857210027054,380.3593208999373,380.3593208999373,383.3707944001071,383.3707944001071,383.35503139998764,1,,,,,-4,662,383.3556246999651,386.35509889991954,386.35513580031693,386.37476370017976,387.87105130031705,A_LOSS,387.87108479999006,390.87197510013357,1.0890134000219405,None,,,,,,0004,001,0,2024-05-30_11h54.50.602,ADMT_r1,2023.2.3,59.95214606992237,2024-05-30 11h55.01.212909 -0500,
20,80,93,93,ProbLL_valueH,3,2,1,0,35,35,35,390.895230000373,,,,,,,,,,,,,,390.8726490000263,390.895230000373,390.895230000373,393.90395610034466,393.90395610034466,393.88846400007606,1,,,+,,93,755,393.8890945003368,395.88826890010387,395.8883017003536,395.9049887000583,397.38848840026185,A_GAIN,397.3885286003351,398.38834830000997,1.7531749000772834,None,397.4044481003657,,,,,0004,001,0,2024-05-30_11h54.50.602,ADMT_r1,2023.2.3,59.95214606992237,2024-05-30 11h55.01.212909 -0500,
55,45,1292,-1292,ProbMM_valueSH,1.5,2,4,0,36,36,36,398.40988339995965,,,,,,,,,,,,,,398.38895480008796,398.40988339995965,398.40988339995965,399.9208459001966,399.9208459001966,399.90525230020285,1,,,,,-1292,-537,399.90589210018516,401.9051310000941,401.9051689999178,401.9262188002467,403.42120040021837,A_LOSS,403.42124149994925,407.42190700024366,0.843985399696976,None,,,,,,0004,001,0,2024-05-30_11h54.50.602,ADMT_r1,2023.2.3,59.95214606992237,2024-05-30 11h55.01.212909 -0500,
90,10,85,85,ProbHH_valueH,3,3,3,0,37,37,37,407.4436399000697,,,,,,,,,,,,,,407.422556000296,407.4436399000697,407.4436399000697,410.4543920001015,410.4543920001015,410.4386137002148,1,,,+,,85,-452,410.4392602001317,413.43836610019207,413.43839820008725,413.4554662001319,414.95476470002905,A_GAIN,414.9548022001982,417.95542989997193,0.9145951000973582,None,,,,,,0004,001,0,2024-05-30_11h54.50.602,ADMT_r1,2023.2.3,59.95214606992237,2024-05-30 11h55.01.212909 -0500,
47,53,8,-8,ProbMM_valueL,3,2,1,0,38,38,38,417.9791061002761,,,,,,,,,,,,,,417.95610069995746,417.9791061002761,417.9791061002761,420.98774140002206,420.98774140002206,420.9719186001457,1,,,,,-8,-460,420.97257670015097,422.9721849001944,422.97222410002723,422.9923467999324,424.48791419994086,A_LOSS,424.4879471003078,425.48845710000023,0.9628371000289917,None,,,,,,0004,001,0,2024-05-30_11h54.50.602,ADMT_r1,2023.2.3,59.95214606992237,2024-05-30 11h55.01.212909 -0500,
93,7,3,3,ProbHH_valueL,3,2,1,0,39,39,39,425.50846150005236,,,,,,,,,,,,,,425.4890495999716,425.50846150005236,425.50846150005236,428.52122310036793,428.52122310036793,428.50528979999945,1,,,+,,3,-457,428.5058956001885,430.505131599959,430.5051645003259,430.53757099993527,432.02122900029644,A_GAIN,432.0212620999664,433.022131100297,1.1291918000206351,None,,,,,,0004,001,0,2024-05-30_11h54.50.602,ADMT_r1,2023.2.3,59.95214606992237,2024-05-30 11h55.01.212909 -0500,
46,54,18,18,ProbMM_valueL,3,3,4,0,40,40,40,433.04427079996094,,,,,,,,,,,,,,433.0227644001134,433.04427079996094,433.04427079996094,436.05439579999074,436.05439579999074,436.038857600186,2,(,),+,,18,-457,436.03951960010454,439.0382735002786,439.0383045002818,439.05489249993116,440.5385500001721,R_GAIN,440.53858399996534,444.5379182002507,1.7042824001982808,None,440.5547083001584,,,,,0004,001,0,2024-05-30_11h54.50.602,ADMT_r1,2023.2.3,59.95214606992237,2024-05-30 11h55.01.212909 -0500,
77,23,81,81,ProbHH_valueH,3,1,8,0,41,41,41,444.55400880007073,,,,,,,,,,,,,,444.53831010032445,444.55400880007073,444.55400880007073,447.55429470026866,447.55429470026866,447.53857860015705,1,,,+,,81,-376,447.5391031000763,448.5381837002933,448.5382106001489,448.5540396999568,450.038345400244,A_GAIN,450.0383831001818,458.03977680020034,0.9290427998639643,None,,,,,,0004,001,0,2024-05-30_11h54.50.602,ADMT_r1,2023.2.3,59.95214606992237,2024-05-30 11h55.01.212909 -0500,
21,79,17,-17,ProbLL_valueL,3,1,1,0,42,42,42,458.0612448002212,,,,,,,,,,,,,,458.04041590029374,458.0612448002212,458.0612448002212,461.0715052001178,461.0715052001178,461.05554700037464,2,(,),,,-17,-376,461.05612049996853,462.05547940032557,462.0555096003227,462.0754599003121,463.5716543002054,R_LOSS,463.57169040013105,464.5722155002877,1.5671137999743223,None,,,,,,0004,001,0,2024-05-30_11h54.50.602,ADMT_r1,2023.2.3,59.95214606992237,2024-05-30 11h55.01.212909 -0500,
5,95,13,13,ProbLL_valueL,3,2,3,0,43,43,43,464.5939678000286,,,,,,,,,,,,,,464.5728519000113,464.5939678000286,464.5939678000286,467.6045535001904,467.6045535001904,467.5889786002226,2,(,),+,,13,-376,467.58957999991253,469.58848239993677,469.5885085002519,469.6042768000625,471.0890431003645,R_GAIN,471.0890816003084,474.08944409992546,1.4597026999108493,None,471.10490939999,,,,,0004,001,0,2024-05-30_11h54.50.602,ADMT_r1,2023.2.3,59.95214606992237,2024-05-30 11h55.01.212909 -0500,
46,54,83,-83,ProbMM_valueH,3,3,1,0,44,44,44,474.11395360017195,,,,,,,,,,,,,,474.090123699978,474.11395360017195,474.11395360017195,477.1223603002727,477.1223603002727,477.10578610002995,1,,,,,-83,-459,477.1064202003181,480.105569800362,480.1056038001552,480.1237061000429,481.6218191003427,A_LOSS,481.6218594000675,482.62316079996526,1.5754510997794569,None,,,,,,0004,001,0,2024-05-30_11h54.50.602,ADMT_r1,2023.2.3,59.95214606992237,2024-05-30 11h55.01.212909 -0500,
95,5,11,11,ProbHH_valueL,3,1,2,0,45,45,45,482.6426262999885,,,,,,,,,,,,,,482.6236616000533,482.6426262999885,482.6426262999885,485.6546281003393,485.6546281003393,485.63876130012795,1,,,+,,11,-448,485.639385800343,486.639694200363,486.6397255002521,486.65604580007493,488.15509509993717,A_GAIN,488.1551288003102,490.17241379991174,1.3713508998043835,None,,,,,,0004,001,0,2024-05-30_11h54.50.602,ADMT_r1,2023.2.3,59.95214606992237,2024-05-30 11h55.01.212909 -0500,
43,57,1,1,ProbMM_valueL,3,2,8,0,46,46,46,490.19563480000943,,,,,,,,,,,,,,490.17305260011926,490.19563480000943,490.19563480000943,493.2049517999403,493.2049517999403,493.1900410000235,2,(,),+,,1,-448,493.1906377999112,495.1889968002215,495.1890274002217,495.2065481999889,496.70523620024323,R_GAIN,496.7052708999254,504.70612150011584,2.046364000067115,None,,,,,,0004,001,0,2024-05-30_11h54.50.602,ADMT_r1,2023.2.3,59.95214606992237,2024-05-30 11h55.01.212909 -0500,
52,48,1287,1287,ProbMM_valueSH,1.5,1,1,0,47,47,47,504.72714630002156,,,,,,,,,,,,,,504.70664310036227,504.72714630002156,504.72714630002156,506.2384073003195,506.2384073003195,506.2227046000771,1,,,+,,1287,839,506.223340800032,507.22275550011545,507.2227938002907,507.24196470016614,508.73852379992604,A_GAIN,508.738558200188,509.738711300306,0.9193520997650921,None,,,,,,0004,001,0,2024-05-30_11h54.50.602,ADMT_r1,2023.2.3,59.95214606992237,2024-05-30 11h55.01.212909 -0500,
50,50,1031,1031,ProbMM_valueSH,1.5,1,3,0,48,48,48,509.754983600229,,,,,,,,,,,,,,509.73920650035143,509.754983600229,509.754983600229,511.2551735001616,511.2551735001616,511.240266200155,1,,,+,,1031,1870,511.24093680037186,512.2390509000979,512.2390847001225,512.2588105001487,513.7553763999604,A_GAIN,513.7554132002406,516.7558550001122,0.9122569998726249,None,,,,,,0004,001,0,2024-05-30_11h54.50.602,ADMT_r1,2023.2.3,59.95214606992237,2024-05-30 11h55.01.212909 -0500,
92,8,19,19,ProbHH_valueL,3,2,8,0,49,49,49,516.7757907002233,,,,,,,,,,,,,,516.7563967001624,516.7757907002233,516.7757907002233,519.788597300183,519.788597300183,519.7726775999181,1,,,+,,19,1889,519.7733142999932,521.7726211003028,521.7726557999849,521.790312200319,523.2887393999845,A_GAIN,523.2887733001262,531.289438100066,1.0082781999371946,None,,,,,,0004,001,0,2024-05-30_11h54.50.602,ADMT_r1,2023.2.3,59.95214606992237,2024-05-30 11h55.01.212909 -0500,
47,53,88,-88,ProbMM_valueH,3,2,1,0,50,50,50,531.3141131000593,,,,,,,,,,,,,,531.2901004999876,531.3141131000593,531.3141131000593,534.3221291000955,534.3221291000955,534.3067724001594,1,,,,,-88,1801,534.3074743999168,536.3057751003653,536.305807299912,536.3221291000955,537.8063847003505,A_LOSS,537.8064256999642,538.8058954002336,1.4067266001366079,None,537.8224194999784,,,,,0004,001,0,2024-05-30_11h54.50.602,ADMT_r1,2023.2.3,59.95214606992237,2024-05-30 11h55.01.212909 -0500,
6,94,85,-85,ProbLL_valueH,3,2,8,0,51,51,51,538.8216098002158,,,,,,,,,,,,,,538.8064894001,538.8216098002158,538.8216098002158,541.8218890000135,541.8218890000135,541.8062692000531,2,(,),,,-85,1801,541.8069537999108,543.8062319001183,543.8062710999511,543.825491799973,545.3219171999954,R_LOSS,545.3219461003318,553.3230069000274,1.386250099632889,None,,,,,,0004,001,0,2024-05-30_11h54.50.602,ADMT_r1,2023.2.3,59.95214606992237,2024-05-30 11h55.01.212909 -0500,
16,84,85,-85,ProbLL_valueH,3,3,4,0,52,52,52,553.346487400122,,,,,,,,,,,,,,553.3236207002774,553.346487400122,553.346487400122,556.3556694001891,556.3556694001891,556.3398274001665,2,(,),,,-85,1801,556.3404040001333,559.3391239000484,559.3391471002251,559.3550667003728,560.8396745999344,R_LOSS,560.8397143003531,564.8397365999408,2.1367454999126494,None,560.8554830001667,,,,,0004,001,0,2024-05-30_11h54.50.602,ADMT_r1,2023.2.3,59.95214606992237,2024-05-30 11h55.01.212909 -0500,
46,54,1300,-1300,ProbMM_valueSH,1.5,3,1,0,53,53,53,564.8621645001695,,,,,,,,,,,,,,564.8403851003386,564.8621645001695,564.8621645001695,566.3721052003093,566.3721052003093,566.3562775999308,1,,,,,-1300,501,566.356896399986,569.3562593003735,569.3562890002504,569.3729801001027,570.8565020002425,A_LOSS,570.8565434999764,571.8565263003111,1.0196328000165522,None,570.8722898000851,,,,,0004,001,0,2024-05-30_11h54.50.602,ADMT_r1,2023.2.3,59.95214606992237,2024-05-30 11h55.01.212909 -0500,
54,46,84,84,ProbMM_valueH,3,1,2,0,54,54,54,571.8799662003294,,,,,,,,,,,,,,571.8571641002782,571.8799662003294,571.8799662003294,574.8888647002168,574.8888647002168,574.8729465003125,1,,,+,,84,585,574.8735525002703,575.8730998001993,575.8731344002299,575.8906020000577,577.3891128003597,A_GAIN,577.389147600159,579.3907347000204,1.3991271001286805,None,,,,,,0004,001,0,2024-05-30_11h54.50.602,ADMT_r1,2023.2.3,59.95214606992237,2024-05-30 11h55.01.212909 -0500,
75,25,2,2,ProbHH_valueL,3,2,1,0,55,55,55,579.413299900014,,,,,,,,,,,,,,579.3914042999968,579.413299900014,579.413299900014,582.4220992000774,582.4220992000774,582.4064434003085,1,,,+,,2,587,582.4070823001675,584.4064139002003,584.4064484001137,584.423543300014,585.9226355003193,A_GAIN,585.9226685999893,586.9228998003528,1.216426800005138,None,,,,,,0004,001,0,2024-05-30_11h54.50.602,ADMT_r1,2023.2.3,59.95214606992237,2024-05-30 11h55.01.212909 -0500,
14,86,3,-3,ProbLL_valueL,3,1,1,0,56,56,56,586.9441897999495,,,,,,,,,,,,,,586.9234242001548,586.9441897999495,586.9441897999495,589.9558351999149,589.9558351999149,589.9398674000986,2,(,),,,-3,587,589.9404569999315,590.9399037002586,590.9399370001629,590.9579330999404,592.4560724999756,R_LOSS,592.4561116001569,593.4565536002629,1.4111603000201285,None,,,,,,0004,001,0,2024-05-30_11h54.50.602,ADMT_r1,2023.2.3,59.95214606992237,2024-05-30 11h55.01.212909 -0500,
,,,,,,,,,,,,,,,,,,,,,,,,,,,,,,,,,,,,,,,,,,,,,,,,,,593.4566939002834,613.4567305999808,613.4567566001788,617.4729206003249,,,,,,,,,
