15.0383 	WARNING 	User requested fullscreen with size [1440  900], but screen is actually [1920, 1080]. Using actual size
15.6600 	EXP 	Created window1 = Window(allowGUI=True, allowStencil=False, autoLog=True, backendConf=UNKNOWN, backgroundFit=<method-wrapper '__getattribute__' of attributeSetter object at 0x000001B65B8F1C70>, backgroundImage=<method-wrapper '__getattribute__' of attributeSetter object at 0x000001B65B8F1C10>, bitsMode=UNKNOWN, blendMode='avg', bpc=(8, 8, 8), color=array([-1., -1., -1.]), colorSpace='rgb', depthBits=8, fullscr=<method-wrapper '__getattribute__' of attributeSetter object at 0x000001B65B8F1A60>, gamma=None, gammaErrorPolicy='raise', lms=UNKNOWN, monitor=<psychopy.monitors.calibTools.Monitor object at 0x000001B65BEC57C0>, multiSample=False, name='window1', numSamples=2, pos=(0, 0), screen=0, size=array([1920, 1080]), stencilBits=0, stereo=False, title='PsychoPy', units='height', useFBO=True, useRetina=False, viewOri=0.0, viewPos=None, viewScale=None, waitBlanking=True, winType='pyglet')
15.6602 	EXP 	window1: mouseVisible = True
15.6602 	EXP 	window1: backgroundImage = ''
15.6602 	EXP 	window1: backgroundFit = 'none'
15.6653 	EXP 	window1: Attempting to measure frame rate of screen (0) ...
15.6654 	EXP 	window1: recordFrameIntervals = False
15.8256 	EXP 	window1: recordFrameIntervals = True
16.0092 	EXP 	Screen (0) actual frame rate measured at 59.98Hz
16.0093 	EXP 	window1: recordFrameIntervals = False
16.0095 	EXP 	window1: mouseVisible = False
19.2563 	EXP 	ADMT_r2: status = STARTED
19.2570 	EXP 	window1: mouseVisible = True
19.3609 	EXP 	Created welcome = TextStim(__class__=<class 'psychopy.visual.text.TextStim'>, alignHoriz=method-wrapper(...), alignText='center', alignVert=method-wrapper(...), anchorHoriz='center', anchorVert='center', antialias=True, autoDraw=False, autoLog=True, bold=False, color=array([1., 1., 1.]), colorSpace='rgb', contrast=1.0, depth=0.0, draggable=False, flipHoriz=False, flipVert=False, font='Arial', fontFiles=[], height=0.1, italic=False, languageStyle='LTR', name='welcome', opacity=1.0, ori=0, pos=array([0., 0.]), rgb=UNKNOWN, text=str(...), units='norm', win=Window(...), wrapWidth=10)
19.3611 	EXP 	window1: mouseVisible = True
19.3760 	EXP 	Created review1 = TextStim(__class__=<class 'psychopy.visual.text.TextStim'>, alignHoriz=method-wrapper(...), alignText='center', alignVert=method-wrapper(...), anchorHoriz='center', anchorVert='center', antialias=True, autoDraw=False, autoLog=True, bold=False, color=array([1., 1., 1.]), colorSpace='rgb', contrast=1.0, depth=0.0, draggable=False, flipHoriz=False, flipVert=False, font='Arial', fontFiles=[], height=0.1, italic=False, languageStyle='LTR', name='review1', opacity=1.0, ori=0, pos=array([0., 0.]), rgb=UNKNOWN, text=str(...), units='norm', win=Window(...), wrapWidth=10)
19.3762 	EXP 	window1: mouseVisible = True
19.4106 	EXP 	Created review2 = TextStim(__class__=<class 'psychopy.visual.text.TextStim'>, alignHoriz=method-wrapper(...), alignText='center', alignVert=method-wrapper(...), anchorHoriz='center', anchorVert='center', antialias=True, autoDraw=False, autoLog=True, bold=False, color=array([1., 1., 1.]), colorSpace='rgb', contrast=1.0, depth=0.0, draggable=False, flipHoriz=False, flipVert=False, font='Arial', fontFiles=[], height=0.08, italic=False, languageStyle='LTR', name='review2', opacity=1.0, ori=0, pos=array([0., 0.]), rgb=UNKNOWN, text=str(...), units='norm', win=Window(...), wrapWidth=10)
19.4107 	EXP 	window1: mouseVisible = True
19.4140 	EXP 	Created scannerpulse = TextStim(__class__=<class 'psychopy.visual.text.TextStim'>, alignHoriz=method-wrapper(...), alignText='center', alignVert=method-wrapper(...), anchorHoriz='center', anchorVert='center', antialias=True, autoDraw=False, autoLog=True, bold=False, color=array([1., 1., 1.]), colorSpace='rgb', contrast=1.0, depth=0.0, draggable=False, flipHoriz=False, flipVert=False, font='Arial', fontFiles=[], height=0.1, italic=False, languageStyle='LTR', name='scannerpulse', opacity=1.0, ori=0, pos=array([0., 0.]), rgb=UNKNOWN, text='+', units='norm', win=Window(...), wrapWidth=1)
19.4141 	EXP 	window1: mouseVisible = True
19.4189 	EXP 	Created longiti1 = TextStim(__class__=<class 'psychopy.visual.text.TextStim'>, alignHoriz=method-wrapper(...), alignText='center', alignVert=method-wrapper(...), anchorHoriz='center', anchorVert='center', antialias=True, autoDraw=False, autoLog=True, bold=False, color=array([1., 1., 1.]), colorSpace='rgb', contrast=1.0, depth=0.0, draggable=False, flipHoriz=False, flipVert=False, font='Arial', fontFiles=[], height=0.1, italic=False, languageStyle='LTR', name='longiti1', opacity=1.0, ori=0, pos=array([0., 0.]), rgb=UNKNOWN, text='+', units='height', win=Window(...), wrapWidth=1)
19.4190 	EXP 	window1: mouseVisible = True
19.4228 	EXP 	Created choice = TextStim(__class__=<class 'psychopy.visual.text.TextStim'>, alignHoriz=method-wrapper(...), alignText='center', alignVert=method-wrapper(...), anchorHoriz='center', anchorVert='center', antialias=True, autoDraw=False, autoLog=True, bold=False, color=array([1., 1., 1.]), colorSpace='rgb', contrast=1.0, depth=-2.0, draggable=False, flipHoriz=False, flipVert=False, font='Arial', fontFiles=[], height=0.15, italic=False, languageStyle='LTR', name='choice', opacity=1.0, ori=0, pos=array([0., 0.]), rgb=UNKNOWN, text='', units='norm', win=Window(...), wrapWidth=1)
19.4231 	EXP 	window1: mouseVisible = True
19.4271 	EXP 	Created iti1 = TextStim(__class__=<class 'psychopy.visual.text.TextStim'>, alignHoriz=method-wrapper(...), alignText='center', alignVert=method-wrapper(...), anchorHoriz='center', anchorVert='center', antialias=True, autoDraw=False, autoLog=True, bold=False, color=array([1., 1., 1.]), colorSpace='rgb', contrast=1.0, depth=0.0, draggable=False, flipHoriz=False, flipVert=False, font='Arial', fontFiles=[], height=0.1, italic=False, languageStyle='LTR', name='iti1', opacity=1.0, ori=0, pos=array([0., 0.]), rgb=UNKNOWN, text='+', units='height', win=Window(...), wrapWidth=1)
19.4272 	EXP 	window1: mouseVisible = True
19.4282 	EXP 	Created feedback = TextStim(__class__=<class 'psychopy.visual.text.TextStim'>, alignHoriz=method-wrapper(...), alignText='center', alignVert=method-wrapper(...), anchorHoriz='center', anchorVert='center', antialias=True, autoDraw=False, autoLog=True, bold=False, color=array([1., 1., 1.]), colorSpace='rgb', contrast=1.0, depth=-1.0, draggable=False, flipHoriz=False, flipVert=False, font='Arial', fontFiles=[], height=0.15, italic=False, languageStyle='LTR', name='feedback', opacity=1.0, ori=0, pos=array([0., 0.]), rgb=UNKNOWN, text='', units='norm', win=Window(...), wrapWidth=1)
19.4283 	EXP 	window1: mouseVisible = True
19.4302 	EXP 	Created iti2 = TextStim(__class__=<class 'psychopy.visual.text.TextStim'>, alignHoriz=method-wrapper(...), alignText='center', alignVert=method-wrapper(...), anchorHoriz='center', anchorVert='center', antialias=True, autoDraw=False, autoLog=True, bold=False, color=array([1., 1., 1.]), colorSpace='rgb', contrast=1.0, depth=0.0, draggable=False, flipHoriz=False, flipVert=False, font='Arial', fontFiles=[], height=0.1, italic=False, languageStyle='LTR', name='iti2', opacity=1.0, ori=0, pos=array([0., 0.]), rgb=UNKNOWN, text='+', units='height', win=Window(...), wrapWidth=1)
19.4302 	EXP 	window1: mouseVisible = True
19.4321 	EXP 	Created longiti2 = TextStim(__class__=<class 'psychopy.visual.text.TextStim'>, alignHoriz=method-wrapper(...), alignText='center', alignVert=method-wrapper(...), anchorHoriz='center', anchorVert='center', antialias=True, autoDraw=False, autoLog=True, bold=False, color=array([1., 1., 1.]), colorSpace='rgb', contrast=1.0, depth=0.0, draggable=False, flipHoriz=False, flipVert=False, font='Arial', fontFiles=[], height=0.1, italic=False, languageStyle='LTR', name='longiti2', opacity=1.0, ori=0, pos=array([0., 0.]), rgb=UNKNOWN, text='+', units='height', win=Window(...), wrapWidth=1)
19.4322 	EXP 	window1: mouseVisible = True
19.4332 	EXP 	Created text = TextStim(__class__=<class 'psychopy.visual.text.TextStim'>, alignHoriz=method-wrapper(...), alignText='center', alignVert=method-wrapper(...), anchorHoriz='center', anchorVert='center', antialias=True, autoDraw=False, autoLog=True, bold=False, color=array([1., 1., 1.]), colorSpace='rgb', contrast=1.0, depth=-1.0, draggable=False, flipHoriz=False, flipVert=False, font='Arial', fontFiles=[], height=0.1, italic=False, languageStyle='LTR', name='text', opacity=1.0, ori=0, pos=array([0., 0.]), rgb=UNKNOWN, text='', units='norm', win=Window(...), wrapWidth=1)
0.0099 	EXP 	welcome: autoDraw = True
1.8672 	DATA 	Keypress: 1
1.8773 	EXP 	welcome: autoDraw = False
1.8773 	EXP 	review1: autoDraw = True
9.9972 	DATA 	Keypress: 2
10.0089 	EXP 	review1: autoDraw = False
10.0089 	EXP 	review2: autoDraw = True
13.3638 	DATA 	Keypress: 1
13.3776 	EXP 	review2: autoDraw = False
13.3776 	EXP 	scannerpulse: autoDraw = True
26.7816 	DATA 	Keypress: equal
26.7936 	EXP 	scannerpulse: autoDraw = False
26.7936 	EXP 	longiti1: autoDraw = True
29.8645 	DATA 	Keypress: equal
32.9497 	DATA 	Keypress: equal
36.0310 	DATA 	Keypress: equal
39.1310 	DATA 	Keypress: equal
42.2146 	DATA 	Keypress: equal
45.2973 	DATA 	Keypress: equal
46.8176 	EXP 	Imported BML_r2.xlsx as conditions, 57 conditions, 8 params
46.8192 	EXP 	Created sequence: sequential, trialTypes=57, nReps=1, seed=None
46.8195 	EXP 	New trial (rep=0, index=0): {'Win': 56, 'Lose': 44, 'Value': 85, 'RealValue': 85, 'Label': 'ProbMM_valueH', 'ChoiceDur': 3, 'ITIDur1': 1, 'ITIDur2': 2}
46.8677 	EXP 	longiti1: autoDraw = False
46.8677 	EXP 	longiti1: autoDraw = False
46.8677 	EXP 	choice: height = 0.15
46.8677 	EXP 	choice: height = 0.15
46.8677 	EXP 	choice: height = 0.15
46.8677 	EXP 	choice: text = '     85 points\n\n56% win      44% lose\n\n  Accept         Decline  '
46.8677 	EXP 	choice: autoDraw = True
48.1994 	DATA 	Keypress: 1
48.3792 	DATA 	Keypress: equal
49.8775 	EXP 	choice: autoDraw = False
49.8775 	EXP 	choice: autoDraw = False
49.8775 	EXP 	iti1: autoDraw = True
50.8830 	EXP 	iti1: autoDraw = False
50.8830 	EXP 	iti1: autoDraw = False
50.8830 	EXP 	feedback: height = 0.15
50.8830 	EXP 	feedback: height = 0.15
50.8830 	EXP 	feedback: height = 0.15
50.8830 	EXP 	feedback: text = '  +85 points\n \n\n Total 672 points'
50.8830 	EXP 	feedback: autoDraw = True
51.4650 	DATA 	Keypress: equal
52.3944 	EXP 	feedback: autoDraw = False
52.3944 	EXP 	iti2: autoDraw = True
54.3793 	EXP 	New trial (rep=0, index=1): {'Win': 53, 'Lose': 47, 'Value': 2, 'RealValue': 2, 'Label': 'ProbMM_valueL', 'ChoiceDur': 3, 'ITIDur1': 1, 'ITIDur2': 1}
54.4049 	EXP 	iti2: autoDraw = False
54.4049 	EXP 	iti2: autoDraw = False
54.4049 	EXP 	choice: height = 0.15
54.4049 	EXP 	choice: height = 0.15
54.4049 	EXP 	choice: height = 0.15
54.4049 	EXP 	choice: text = '     2 points\n\n53% win      47% lose\n\n  Accept         Decline  '
54.4049 	EXP 	choice: autoDraw = True
54.5491 	DATA 	Keypress: equal
55.3626 	DATA 	Keypress: 1
57.4109 	EXP 	choice: autoDraw = False
57.4109 	EXP 	choice: autoDraw = False
57.4109 	EXP 	iti1: autoDraw = True
57.6486 	DATA 	Keypress: equal
58.4117 	EXP 	iti1: autoDraw = False
58.4117 	EXP 	iti1: autoDraw = False
58.4117 	EXP 	feedback: height = 0.15
58.4117 	EXP 	feedback: height = 0.15
58.4117 	EXP 	feedback: height = 0.15
58.4117 	EXP 	feedback: text = '  +2 points\n \n\n Total 674 points'
58.4117 	EXP 	feedback: autoDraw = True
59.9111 	EXP 	feedback: autoDraw = False
59.9111 	EXP 	feedback: autoDraw = False
59.9111 	EXP 	iti2: autoDraw = True
60.7301 	DATA 	Keypress: equal
60.8945 	EXP 	New trial (rep=0, index=2): {'Win': 91, 'Lose': 9, 'Value': 15, 'RealValue': 15, 'Label': 'ProbHH_valueL', 'ChoiceDur': 3, 'ITIDur1': 5, 'ITIDur2': 1}
60.9103 	EXP 	iti2: autoDraw = False
60.9103 	EXP 	iti2: autoDraw = False
60.9103 	EXP 	choice: height = 0.15
60.9103 	EXP 	choice: height = 0.15
60.9103 	EXP 	choice: height = 0.15
60.9103 	EXP 	choice: text = '     15 points\n\n91% win      9% lose\n\n  Accept         Decline  '
60.9103 	EXP 	choice: autoDraw = True
62.1295 	DATA 	Keypress: 1
63.8154 	DATA 	Keypress: equal
63.9109 	EXP 	choice: autoDraw = False
63.9109 	EXP 	choice: autoDraw = False
63.9109 	EXP 	iti1: autoDraw = True
66.8985 	DATA 	Keypress: equal
68.9150 	EXP 	iti1: autoDraw = False
68.9150 	EXP 	iti1: autoDraw = False
68.9150 	EXP 	feedback: height = 0.15
68.9150 	EXP 	feedback: height = 0.15
68.9150 	EXP 	feedback: height = 0.15
68.9150 	EXP 	feedback: text = '  +15 points\n \n\n Total 689 points'
68.9150 	EXP 	feedback: autoDraw = True
69.9797 	DATA 	Keypress: equal
70.4276 	EXP 	feedback: autoDraw = False
70.4276 	EXP 	iti2: autoDraw = True
71.4127 	EXP 	New trial (rep=0, index=3): {'Win': 11, 'Lose': 89, 'Value': 6, 'RealValue': -6, 'Label': 'ProbLL_valueL', 'ChoiceDur': 3, 'ITIDur1': 1, 'ITIDur2': 3}
71.4344 	EXP 	iti2: autoDraw = False
71.4344 	EXP 	iti2: autoDraw = False
71.4344 	EXP 	choice: height = 0.15
71.4344 	EXP 	choice: height = 0.15
71.4344 	EXP 	choice: height = 0.15
71.4344 	EXP 	choice: text = '     6 points\n\n11% win      89% lose\n\n  Accept         Decline  '
71.4344 	EXP 	choice: autoDraw = True
72.8334 	DATA 	Keypress: 2
73.0666 	DATA 	Keypress: equal
74.4446 	EXP 	choice: autoDraw = False
74.4446 	EXP 	choice: autoDraw = False
74.4446 	EXP 	iti1: autoDraw = True
75.4438 	EXP 	iti1: autoDraw = False
75.4438 	EXP 	iti1: autoDraw = False
75.4438 	EXP 	feedback: height = 0.15
75.4438 	EXP 	feedback: height = 0.15
75.4438 	EXP 	feedback: height = 0.15
75.4438 	EXP 	feedback: text = '  (-6) points\n \n\n Total 689 points'
75.4438 	EXP 	feedback: autoDraw = True
76.1488 	DATA 	Keypress: equal
76.9446 	EXP 	feedback: autoDraw = False
76.9446 	EXP 	feedback: autoDraw = False
76.9446 	EXP 	iti2: autoDraw = True
79.2319 	DATA 	Keypress: equal
79.9289 	EXP 	New trial (rep=0, index=4): {'Win': 55, 'Lose': 45, 'Value': 92, 'RealValue': -92, 'Label': 'ProbMM_valueH', 'ChoiceDur': 3, 'ITIDur1': 2, 'ITIDur2': 1}
79.9496 	EXP 	iti2: autoDraw = False
79.9496 	EXP 	iti2: autoDraw = False
79.9496 	EXP 	choice: height = 0.15
79.9496 	EXP 	choice: height = 0.15
79.9496 	EXP 	choice: height = 0.15
79.9496 	EXP 	choice: text = '     92 points\n\n55% win      45% lose\n\n  Accept         Decline  '
79.9496 	EXP 	choice: autoDraw = True
81.2624 	DATA 	Keypress: 1
82.3327 	DATA 	Keypress: equal
82.9612 	EXP 	choice: autoDraw = False
82.9612 	EXP 	choice: autoDraw = False
82.9612 	EXP 	iti1: autoDraw = True
84.9634 	EXP 	iti1: autoDraw = False
84.9634 	EXP 	iti1: autoDraw = False
84.9634 	EXP 	feedback: height = 0.15
84.9634 	EXP 	feedback: height = 0.15
84.9634 	EXP 	feedback: height = 0.15
84.9634 	EXP 	feedback: text = '  -92 points\n \n\n Total 597 points'
84.9634 	EXP 	feedback: autoDraw = True
85.4152 	DATA 	Keypress: equal
86.4778 	EXP 	feedback: autoDraw = False
86.4778 	EXP 	iti2: autoDraw = True
87.4623 	EXP 	New trial (rep=0, index=5): {'Win': 85, 'Lose': 15, 'Value': 11, 'RealValue': 11, 'Label': 'ProbHH_valueL', 'ChoiceDur': 3, 'ITIDur1': 1, 'ITIDur2': 3}
87.4835 	EXP 	iti2: autoDraw = False
87.4835 	EXP 	iti2: autoDraw = False
87.4835 	EXP 	choice: height = 0.15
87.4835 	EXP 	choice: height = 0.15
87.4835 	EXP 	choice: height = 0.15
87.4835 	EXP 	choice: text = '     11 points\n\n85% win      15% lose\n\n  Accept         Decline  '
87.4835 	EXP 	choice: autoDraw = True
88.3965 	DATA 	Keypress: 1
88.4962 	DATA 	Keypress: equal
90.4944 	EXP 	choice: autoDraw = False
90.4944 	EXP 	choice: autoDraw = False
90.4944 	EXP 	iti1: autoDraw = True
91.4961 	EXP 	iti1: autoDraw = False
91.4961 	EXP 	iti1: autoDraw = False
91.4961 	EXP 	feedback: height = 0.15
91.4961 	EXP 	feedback: height = 0.15
91.4961 	EXP 	feedback: height = 0.15
91.4961 	EXP 	feedback: text = '  +11 points\n \n\n Total 608 points'
91.4961 	EXP 	feedback: autoDraw = True
91.5825 	DATA 	Keypress: equal
93.0113 	EXP 	feedback: autoDraw = False
93.0113 	EXP 	iti2: autoDraw = True
94.6658 	DATA 	Keypress: equal
95.9963 	EXP 	New trial (rep=0, index=6): {'Win': 56, 'Lose': 44, 'Value': 93, 'RealValue': 93, 'Label': 'ProbMM_valueH', 'ChoiceDur': 3, 'ITIDur1': 1, 'ITIDur2': 1}
96.0187 	EXP 	iti2: autoDraw = False
96.0187 	EXP 	iti2: autoDraw = False
96.0187 	EXP 	choice: height = 0.15
96.0187 	EXP 	choice: height = 0.15
96.0187 	EXP 	choice: height = 0.15
96.0187 	EXP 	choice: text = '     93 points\n\n56% win      44% lose\n\n  Accept         Decline  '
96.0187 	EXP 	choice: autoDraw = True
97.2996 	DATA 	Keypress: 1
97.7487 	DATA 	Keypress: equal
99.0280 	EXP 	choice: autoDraw = False
99.0280 	EXP 	choice: autoDraw = False
99.0280 	EXP 	iti1: autoDraw = True
100.0318 	EXP 	iti1: autoDraw = False
100.0318 	EXP 	iti1: autoDraw = False
100.0318 	EXP 	feedback: height = 0.15
100.0318 	EXP 	feedback: height = 0.15
100.0318 	EXP 	feedback: height = 0.15
100.0318 	EXP 	feedback: text = '  +93 points\n \n\n Total 701 points'
100.0318 	EXP 	feedback: autoDraw = True
100.8323 	DATA 	Keypress: equal
101.5446 	EXP 	feedback: autoDraw = False
101.5446 	EXP 	iti2: autoDraw = True
102.5296 	EXP 	New trial (rep=0, index=7): {'Win': 6, 'Lose': 94, 'Value': 6, 'RealValue': -6, 'Label': 'ProbLL_valueL', 'ChoiceDur': 3, 'ITIDur1': 2, 'ITIDur2': 2}
102.5519 	EXP 	iti2: autoDraw = False
102.5519 	EXP 	iti2: autoDraw = False
102.5519 	EXP 	choice: height = 0.15
102.5519 	EXP 	choice: height = 0.15
102.5519 	EXP 	choice: height = 0.15
102.5519 	EXP 	choice: text = '     6 points\n\n6% win      94% lose\n\n  Accept         Decline  '
102.5519 	EXP 	choice: autoDraw = True
103.9331 	DATA 	Keypress: equal
104.1333 	DATA 	Keypress: 2
105.5611 	EXP 	choice: autoDraw = False
105.5611 	EXP 	choice: autoDraw = False
105.5611 	EXP 	iti1: autoDraw = True
107.0149 	DATA 	Keypress: equal
107.5650 	EXP 	iti1: autoDraw = False
107.5650 	EXP 	iti1: autoDraw = False
107.5650 	EXP 	feedback: height = 0.15
107.5650 	EXP 	feedback: height = 0.15
107.5650 	EXP 	feedback: height = 0.15
107.5650 	EXP 	feedback: text = '  (-6) points\n \n\n Total 701 points'
107.5650 	EXP 	feedback: autoDraw = True
109.0787 	EXP 	feedback: autoDraw = False
109.0787 	EXP 	iti2: autoDraw = True
110.1006 	DATA 	Keypress: equal
111.0628 	EXP 	New trial (rep=0, index=8): {'Win': 83, 'Lose': 17, 'Value': 1, 'RealValue': 1, 'Label': 'ProbHH_valueL', 'ChoiceDur': 3, 'ITIDur1': 3, 'ITIDur2': 2}
111.0864 	EXP 	iti2: autoDraw = False
111.0864 	EXP 	iti2: autoDraw = False
111.0864 	EXP 	choice: height = 0.15
111.0864 	EXP 	choice: height = 0.15
111.0864 	EXP 	choice: height = 0.15
111.0864 	EXP 	choice: text = '     1 points\n\n83% win      17% lose\n\n  Accept         Decline  '
111.0864 	EXP 	choice: autoDraw = True
112.2473 	DATA 	Keypress: 1
113.1824 	DATA 	Keypress: equal
114.0946 	EXP 	choice: autoDraw = False
114.0946 	EXP 	choice: autoDraw = False
114.0946 	EXP 	iti1: autoDraw = True
116.2662 	DATA 	Keypress: equal
117.0996 	EXP 	iti1: autoDraw = False
117.0996 	EXP 	iti1: autoDraw = False
117.0996 	EXP 	feedback: height = 0.15
117.0996 	EXP 	feedback: height = 0.15
117.0996 	EXP 	feedback: height = 0.15
117.0996 	EXP 	feedback: text = '  +1 points\n \n\n Total 702 points'
117.0996 	EXP 	feedback: autoDraw = True
118.6114 	EXP 	feedback: autoDraw = False
118.6114 	EXP 	iti2: autoDraw = True
119.3491 	DATA 	Keypress: equal
120.5962 	EXP 	New trial (rep=0, index=9): {'Win': 56, 'Lose': 44, 'Value': 1101, 'RealValue': 1101, 'Label': 'ProbMM_valueSH', 'ChoiceDur': 1.5, 'ITIDur1': 1, 'ITIDur2': 1}
120.6189 	EXP 	iti2: autoDraw = False
120.6189 	EXP 	iti2: autoDraw = False
120.6189 	EXP 	choice: height = 0.15
120.6189 	EXP 	choice: height = 0.15
120.6189 	EXP 	choice: height = 0.15
120.6189 	EXP 	choice: text = '     1101 points\n\n56% win      44% lose\n\n  Accept         Decline  '
120.6189 	EXP 	choice: autoDraw = True
121.6007 	DATA 	Keypress: 1
122.1281 	EXP 	choice: autoDraw = False
122.1281 	EXP 	choice: autoDraw = False
122.1281 	EXP 	iti1: autoDraw = True
122.4486 	DATA 	Keypress: equal
123.1306 	EXP 	iti1: autoDraw = False
123.1306 	EXP 	iti1: autoDraw = False
123.1306 	EXP 	feedback: height = 0.15
123.1306 	EXP 	feedback: height = 0.15
123.1306 	EXP 	feedback: height = 0.15
123.1306 	EXP 	feedback: text = '  +1101 points\n \n\n Total 1803 points'
123.1306 	EXP 	feedback: autoDraw = True
124.6446 	EXP 	feedback: autoDraw = False
124.6446 	EXP 	iti2: autoDraw = True
125.5324 	DATA 	Keypress: equal
125.6293 	EXP 	New trial (rep=0, index=10): {'Win': 49, 'Lose': 51, 'Value': 11, 'RealValue': -11, 'Label': 'ProbMM_valueL', 'ChoiceDur': 3, 'ITIDur1': 3, 'ITIDur2': 1}
125.6511 	EXP 	iti2: autoDraw = False
125.6511 	EXP 	iti2: autoDraw = False
125.6511 	EXP 	choice: height = 0.15
125.6511 	EXP 	choice: height = 0.15
125.6511 	EXP 	choice: height = 0.15
125.6511 	EXP 	choice: text = '     11 points\n\n49% win      51% lose\n\n  Accept         Decline  '
125.6511 	EXP 	choice: autoDraw = True
127.0500 	DATA 	Keypress: 2
128.6140 	DATA 	Keypress: equal
128.6615 	EXP 	choice: autoDraw = False
128.6615 	EXP 	choice: autoDraw = False
128.6615 	EXP 	iti1: autoDraw = True
131.6637 	EXP 	iti1: autoDraw = False
131.6637 	EXP 	iti1: autoDraw = False
131.6637 	EXP 	feedback: height = 0.15
131.6637 	EXP 	feedback: height = 0.15
131.6637 	EXP 	feedback: height = 0.15
131.6637 	EXP 	feedback: text = '  (-11) points\n \n\n Total 1803 points'
131.6637 	EXP 	feedback: autoDraw = True
131.6992 	DATA 	Keypress: equal
133.1782 	EXP 	feedback: autoDraw = False
133.1782 	EXP 	iti2: autoDraw = True
134.1627 	EXP 	New trial (rep=0, index=11): {'Win': 78, 'Lose': 22, 'Value': 87, 'RealValue': 87, 'Label': 'ProbHH_valueH', 'ChoiceDur': 3, 'ITIDur1': 1, 'ITIDur2': 1}
134.1838 	EXP 	iti2: autoDraw = False
134.1838 	EXP 	iti2: autoDraw = False
134.1838 	EXP 	choice: height = 0.15
134.1838 	EXP 	choice: height = 0.15
134.1838 	EXP 	choice: height = 0.15
134.1838 	EXP 	choice: text = '     87 points\n\n78% win      22% lose\n\n  Accept         Decline  '
134.1838 	EXP 	choice: autoDraw = True
134.7836 	DATA 	Keypress: equal
135.2324 	DATA 	Keypress: 1
137.1947 	EXP 	choice: autoDraw = False
137.1947 	EXP 	choice: autoDraw = False
137.1947 	EXP 	iti1: autoDraw = True
137.8654 	DATA 	Keypress: equal
138.1967 	EXP 	iti1: autoDraw = False
138.1967 	EXP 	iti1: autoDraw = False
138.1967 	EXP 	feedback: height = 0.15
138.1967 	EXP 	feedback: height = 0.15
138.1967 	EXP 	feedback: height = 0.15
138.1967 	EXP 	feedback: text = '  +87 points\n \n\n Total 1890 points'
138.1967 	EXP 	feedback: autoDraw = True
139.7115 	EXP 	feedback: autoDraw = False
139.7115 	EXP 	iti2: autoDraw = True
140.6953 	EXP 	New trial (rep=0, index=12): {'Win': 25, 'Lose': 75, 'Value': 7, 'RealValue': 7, 'Label': 'ProbLL_valueL', 'ChoiceDur': 3, 'ITIDur1': 2, 'ITIDur2': 1}
140.7124 	EXP 	iti2: autoDraw = False
140.7124 	EXP 	iti2: autoDraw = False
140.7124 	EXP 	choice: height = 0.15
140.7124 	EXP 	choice: height = 0.15
140.7124 	EXP 	choice: height = 0.15
140.7124 	EXP 	choice: text = '     7 points\n\n25% win      75% lose\n\n  Accept         Decline  '
140.7124 	EXP 	choice: autoDraw = True
140.9496 	DATA 	Keypress: equal
142.0658 	DATA 	Keypress: 2
143.7281 	EXP 	choice: autoDraw = False
143.7281 	EXP 	choice: autoDraw = False
143.7281 	EXP 	iti1: autoDraw = True
144.0487 	DATA 	Keypress: equal
145.7314 	EXP 	iti1: autoDraw = False
145.7314 	EXP 	iti1: autoDraw = False
145.7314 	EXP 	feedback: height = 0.15
145.7314 	EXP 	feedback: height = 0.15
145.7314 	EXP 	feedback: height = 0.15
145.7314 	EXP 	feedback: text = '  (+7) points\n \n\n Total 1890 points'
145.7314 	EXP 	feedback: autoDraw = True
147.1320 	DATA 	Keypress: equal
147.2449 	EXP 	feedback: autoDraw = False
147.2449 	EXP 	iti2: autoDraw = True
148.2297 	EXP 	New trial (rep=0, index=13): {'Win': 13, 'Lose': 87, 'Value': 85, 'RealValue': 85, 'Label': 'ProbLL_valueH', 'ChoiceDur': 3, 'ITIDur1': 5, 'ITIDur2': 1}
148.2514 	EXP 	iti2: autoDraw = False
148.2514 	EXP 	iti2: autoDraw = False
148.2514 	EXP 	choice: height = 0.15
148.2514 	EXP 	choice: height = 0.15
148.2514 	EXP 	choice: height = 0.15
148.2514 	EXP 	choice: text = '     85 points\n\n13% win      87% lose\n\n  Accept         Decline  '
148.2514 	EXP 	choice: autoDraw = True
149.6133 	DATA 	Keypress: 2
150.2135 	DATA 	Keypress: equal
151.2614 	EXP 	choice: autoDraw = False
151.2614 	EXP 	choice: autoDraw = False
151.2614 	EXP 	iti1: autoDraw = True
153.2990 	DATA 	Keypress: equal
156.2629 	EXP 	iti1: autoDraw = False
156.2629 	EXP 	iti1: autoDraw = False
156.2629 	EXP 	feedback: height = 0.15
156.2629 	EXP 	feedback: height = 0.15
156.2629 	EXP 	feedback: height = 0.15
156.2629 	EXP 	feedback: text = '  (+85) points\n \n\n Total 1890 points'
156.2629 	EXP 	feedback: autoDraw = True
156.3801 	DATA 	Keypress: equal
157.7783 	EXP 	feedback: autoDraw = False
157.7783 	EXP 	iti2: autoDraw = True
158.7628 	EXP 	New trial (rep=0, index=14): {'Win': 92, 'Lose': 8, 'Value': 91, 'RealValue': 91, 'Label': 'ProbHH_valueH', 'ChoiceDur': 3, 'ITIDur1': 1, 'ITIDur2': 1}
158.7831 	EXP 	iti2: autoDraw = False
158.7831 	EXP 	iti2: autoDraw = False
158.7831 	EXP 	choice: height = 0.15
158.7831 	EXP 	choice: height = 0.15
158.7831 	EXP 	choice: height = 0.15
158.7831 	EXP 	choice: text = '     91 points\n\n92% win      8% lose\n\n  Accept         Decline  '
158.7831 	EXP 	choice: autoDraw = True
159.4676 	DATA 	Keypress: equal
159.7971 	DATA 	Keypress: 1
161.7948 	EXP 	choice: autoDraw = False
161.7948 	EXP 	choice: autoDraw = False
161.7948 	EXP 	iti1: autoDraw = True
162.5490 	DATA 	Keypress: equal
162.7992 	EXP 	iti1: autoDraw = False
162.7992 	EXP 	iti1: autoDraw = False
162.7992 	EXP 	feedback: height = 0.15
162.7992 	EXP 	feedback: height = 0.15
162.7992 	EXP 	feedback: height = 0.15
162.7992 	EXP 	feedback: text = '  +91 points\n \n\n Total 1981 points'
162.7992 	EXP 	feedback: autoDraw = True
164.3115 	EXP 	feedback: autoDraw = False
164.3115 	EXP 	iti2: autoDraw = True
165.2966 	EXP 	New trial (rep=0, index=15): {'Win': 83, 'Lose': 17, 'Value': 95, 'RealValue': 95, 'Label': 'ProbHH_valueH', 'ChoiceDur': 3, 'ITIDur1': 5, 'ITIDur2': 3}
165.3188 	EXP 	iti2: autoDraw = False
165.3188 	EXP 	iti2: autoDraw = False
165.3188 	EXP 	choice: height = 0.15
165.3188 	EXP 	choice: height = 0.15
165.3188 	EXP 	choice: height = 0.15
165.3188 	EXP 	choice: text = '     95 points\n\n83% win      17% lose\n\n  Accept         Decline  '
165.3188 	EXP 	choice: autoDraw = True
165.6504 	DATA 	Keypress: equal
166.3003 	DATA 	Keypress: 1
168.3283 	EXP 	choice: autoDraw = False
168.3283 	EXP 	choice: autoDraw = False
168.3283 	EXP 	iti1: autoDraw = True
168.7308 	DATA 	Keypress: equal
171.8153 	DATA 	Keypress: equal
173.3305 	EXP 	iti1: autoDraw = False
173.3305 	EXP 	iti1: autoDraw = False
173.3305 	EXP 	feedback: height = 0.15
173.3305 	EXP 	feedback: height = 0.15
173.3305 	EXP 	feedback: height = 0.15
173.3305 	EXP 	feedback: text = '  +95 points\n \n\n Total 2076 points'
173.3305 	EXP 	feedback: autoDraw = True
174.8451 	EXP 	feedback: autoDraw = False
174.8451 	EXP 	iti2: autoDraw = True
174.8995 	DATA 	Keypress: equal
177.8300 	EXP 	New trial (rep=0, index=16): {'Win': 80, 'Lose': 20, 'Value': 94, 'RealValue': 94, 'Label': 'ProbHH_valueH', 'ChoiceDur': 3, 'ITIDur1': 1, 'ITIDur2': 2}
177.8508 	EXP 	iti2: autoDraw = False
177.8508 	EXP 	iti2: autoDraw = False
177.8508 	EXP 	choice: height = 0.15
177.8508 	EXP 	choice: height = 0.15
177.8508 	EXP 	choice: height = 0.15
177.8508 	EXP 	choice: text = '     94 points\n\n80% win      20% lose\n\n  Accept         Decline  '
177.8508 	EXP 	choice: autoDraw = True
177.9839 	DATA 	Keypress: equal
178.8138 	DATA 	Keypress: 1
180.8618 	EXP 	choice: autoDraw = False
180.8618 	EXP 	choice: autoDraw = False
180.8618 	EXP 	iti1: autoDraw = True
181.0648 	DATA 	Keypress: equal
181.8651 	EXP 	iti1: autoDraw = False
181.8651 	EXP 	iti1: autoDraw = False
181.8651 	EXP 	feedback: height = 0.15
181.8651 	EXP 	feedback: height = 0.15
181.8651 	EXP 	feedback: height = 0.15
181.8651 	EXP 	feedback: text = '  +94 points\n \n\n Total 2170 points'
181.8651 	EXP 	feedback: autoDraw = True
183.3789 	EXP 	feedback: autoDraw = False
183.3789 	EXP 	iti2: autoDraw = True
184.1651 	DATA 	Keypress: equal
185.3626 	EXP 	New trial (rep=0, index=17): {'Win': 9, 'Lose': 91, 'Value': 16, 'RealValue': 16, 'Label': 'ProbLL_valueL', 'ChoiceDur': 3, 'ITIDur1': 2, 'ITIDur2': 1}
185.3809 	EXP 	iti2: autoDraw = False
185.3809 	EXP 	iti2: autoDraw = False
185.3809 	EXP 	choice: height = 0.15
185.3809 	EXP 	choice: height = 0.15
185.3809 	EXP 	choice: height = 0.15
185.3809 	EXP 	choice: text = '     16 points\n\n9% win      91% lose\n\n  Accept         Decline  '
185.3809 	EXP 	choice: autoDraw = True
186.5481 	DATA 	Keypress: 2
187.2478 	DATA 	Keypress: equal
188.3954 	EXP 	choice: autoDraw = False
188.3954 	EXP 	choice: autoDraw = False
188.3954 	EXP 	iti1: autoDraw = True
190.3352 	DATA 	Keypress: equal
190.3981 	EXP 	iti1: autoDraw = False
190.3981 	EXP 	iti1: autoDraw = False
190.3981 	EXP 	feedback: height = 0.15
190.3981 	EXP 	feedback: height = 0.15
190.3981 	EXP 	feedback: height = 0.15
190.3981 	EXP 	feedback: text = '  (+16) points\n \n\n Total 2170 points'
190.3981 	EXP 	feedback: autoDraw = True
191.9116 	EXP 	feedback: autoDraw = False
191.9116 	EXP 	iti2: autoDraw = True
192.8966 	EXP 	New trial (rep=0, index=18): {'Win': 54, 'Lose': 46, 'Value': 81, 'RealValue': 81, 'Label': 'ProbMM_valueH', 'ChoiceDur': 3, 'ITIDur1': 2, 'ITIDur2': 8}
192.9174 	EXP 	iti2: autoDraw = False
192.9174 	EXP 	iti2: autoDraw = False
192.9174 	EXP 	choice: height = 0.15
192.9174 	EXP 	choice: height = 0.15
192.9174 	EXP 	choice: height = 0.15
192.9174 	EXP 	choice: text = '     81 points\n\n54% win      46% lose\n\n  Accept         Decline  '
192.9174 	EXP 	choice: autoDraw = True
193.4163 	DATA 	Keypress: equal
194.5497 	DATA 	Keypress: 1
195.9286 	EXP 	choice: autoDraw = False
195.9286 	EXP 	choice: autoDraw = False
195.9286 	EXP 	iti1: autoDraw = True
196.4994 	DATA 	Keypress: equal
197.9280 	EXP 	iti1: autoDraw = False
197.9280 	EXP 	iti1: autoDraw = False
197.9280 	EXP 	feedback: height = 0.15
197.9280 	EXP 	feedback: height = 0.15
197.9280 	EXP 	feedback: height = 0.15
197.9280 	EXP 	feedback: text = '  +81 points\n \n\n Total 2251 points'
197.9280 	EXP 	feedback: autoDraw = True
199.4285 	EXP 	feedback: autoDraw = False
199.4285 	EXP 	feedback: autoDraw = False
199.4285 	EXP 	iti2: autoDraw = True
199.5818 	DATA 	Keypress: equal
202.6831 	DATA 	Keypress: equal
205.7663 	DATA 	Keypress: equal
207.4134 	EXP 	New trial (rep=0, index=19): {'Win': 47, 'Lose': 53, 'Value': 1322, 'RealValue': -1322, 'Label': 'ProbMM_valueSH', 'ChoiceDur': 1.5, 'ITIDur1': 1, 'ITIDur2': 1}
207.4347 	EXP 	iti2: autoDraw = False
207.4347 	EXP 	iti2: autoDraw = False
207.4347 	EXP 	choice: height = 0.15
207.4347 	EXP 	choice: height = 0.15
207.4347 	EXP 	choice: height = 0.15
207.4347 	EXP 	choice: text = '     1322 points\n\n47% win      53% lose\n\n  Accept         Decline  '
207.4347 	EXP 	choice: autoDraw = True
208.6831 	DATA 	Keypress: 2
208.8464 	DATA 	Keypress: equal
208.9450 	EXP 	choice: autoDraw = False
208.9450 	EXP 	choice: autoDraw = False
208.9450 	EXP 	iti1: autoDraw = True
209.9478 	EXP 	iti1: autoDraw = False
209.9478 	EXP 	iti1: autoDraw = False
209.9478 	EXP 	feedback: height = 0.15
209.9478 	EXP 	feedback: height = 0.15
209.9478 	EXP 	feedback: height = 0.15
209.9478 	EXP 	feedback: text = '  (-1322) points\n \n\n Total 2251 points'
209.9478 	EXP 	feedback: autoDraw = True
211.4622 	EXP 	feedback: autoDraw = False
211.4622 	EXP 	iti2: autoDraw = True
211.9317 	DATA 	Keypress: equal
212.4469 	EXP 	New trial (rep=0, index=20): {'Win': 18, 'Lose': 82, 'Value': 97, 'RealValue': -97, 'Label': 'ProbLL_valueH', 'ChoiceDur': 3, 'ITIDur1': 2, 'ITIDur2': 8}
212.4695 	EXP 	iti2: autoDraw = False
212.4695 	EXP 	iti2: autoDraw = False
212.4695 	EXP 	choice: height = 0.15
212.4695 	EXP 	choice: height = 0.15
212.4695 	EXP 	choice: height = 0.15
212.4695 	EXP 	choice: text = '     97 points\n\n18% win      82% lose\n\n  Accept         Decline  '
212.4695 	EXP 	choice: autoDraw = True
213.9996 	DATA 	Keypress: 2
215.0163 	DATA 	Keypress: equal
215.4785 	EXP 	choice: autoDraw = False
215.4785 	EXP 	choice: autoDraw = False
215.4785 	EXP 	iti1: autoDraw = True
217.4821 	EXP 	iti1: autoDraw = False
217.4821 	EXP 	iti1: autoDraw = False
217.4821 	EXP 	feedback: height = 0.15
217.4821 	EXP 	feedback: height = 0.15
217.4821 	EXP 	feedback: height = 0.15
217.4821 	EXP 	feedback: text = '  (-97) points\n \n\n Total 2251 points'
217.4821 	EXP 	feedback: autoDraw = True
218.0967 	DATA 	Keypress: equal
218.9951 	EXP 	feedback: autoDraw = False
218.9951 	EXP 	iti2: autoDraw = True
221.1821 	DATA 	Keypress: equal
224.2652 	DATA 	Keypress: equal
226.9803 	EXP 	New trial (rep=0, index=21): {'Win': 83, 'Lose': 17, 'Value': 7, 'RealValue': -7, 'Label': 'ProbHH_valueL', 'ChoiceDur': 3, 'ITIDur1': 1, 'ITIDur2': 1}
227.0028 	EXP 	iti2: autoDraw = False
227.0028 	EXP 	iti2: autoDraw = False
227.0028 	EXP 	choice: height = 0.15
227.0028 	EXP 	choice: height = 0.15
227.0028 	EXP 	choice: height = 0.15
227.0028 	EXP 	choice: text = '     7 points\n\n83% win      17% lose\n\n  Accept         Decline  '
227.0028 	EXP 	choice: autoDraw = True
227.3498 	DATA 	Keypress: equal
227.9339 	DATA 	Keypress: 1
230.0116 	EXP 	choice: autoDraw = False
230.0116 	EXP 	choice: autoDraw = False
230.0116 	EXP 	iti1: autoDraw = True
230.4498 	DATA 	Keypress: equal
231.0115 	EXP 	iti1: autoDraw = False
231.0115 	EXP 	iti1: autoDraw = False
231.0115 	EXP 	feedback: height = 0.15
231.0115 	EXP 	feedback: height = 0.15
231.0115 	EXP 	feedback: height = 0.15
231.0115 	EXP 	feedback: text = '  -7 points\n \n\n Total 2244 points'
231.0115 	EXP 	feedback: autoDraw = True
232.5121 	EXP 	feedback: autoDraw = False
232.5121 	EXP 	feedback: autoDraw = False
232.5121 	EXP 	iti2: autoDraw = True
233.4970 	EXP 	New trial (rep=0, index=22): {'Win': 53, 'Lose': 47, 'Value': 1, 'RealValue': 1, 'Label': 'ProbMM_valueL', 'ChoiceDur': 3, 'ITIDur1': 1, 'ITIDur2': 3}
233.5192 	EXP 	iti2: autoDraw = False
233.5192 	EXP 	iti2: autoDraw = False
233.5192 	EXP 	choice: height = 0.15
233.5192 	EXP 	choice: height = 0.15
233.5192 	EXP 	choice: height = 0.15
233.5192 	EXP 	choice: text = '     1 points\n\n53% win      47% lose\n\n  Accept         Decline  '
233.5192 	EXP 	choice: autoDraw = True
233.5257 	DATA 	Keypress: equal
234.6008 	DATA 	Keypress: 1
236.5288 	EXP 	choice: autoDraw = False
236.5288 	EXP 	choice: autoDraw = False
236.5288 	EXP 	iti1: autoDraw = True
236.6150 	DATA 	Keypress: equal
237.5323 	EXP 	iti1: autoDraw = False
237.5323 	EXP 	iti1: autoDraw = False
237.5323 	EXP 	feedback: height = 0.15
237.5323 	EXP 	feedback: height = 0.15
237.5323 	EXP 	feedback: height = 0.15
237.5323 	EXP 	feedback: text = '  +1 points\n \n\n Total 2245 points'
237.5323 	EXP 	feedback: autoDraw = True
239.0454 	EXP 	feedback: autoDraw = False
239.0454 	EXP 	iti2: autoDraw = True
239.7001 	DATA 	Keypress: equal
242.0298 	EXP 	New trial (rep=0, index=23): {'Win': 84, 'Lose': 16, 'Value': 91, 'RealValue': -91, 'Label': 'ProbHH_valueH', 'ChoiceDur': 3, 'ITIDur1': 2, 'ITIDur2': 1}
242.0498 	EXP 	iti2: autoDraw = False
242.0498 	EXP 	iti2: autoDraw = False
242.0498 	EXP 	choice: height = 0.15
242.0498 	EXP 	choice: height = 0.15
242.0498 	EXP 	choice: height = 0.15
242.0498 	EXP 	choice: text = '     91 points\n\n84% win      16% lose\n\n  Accept         Decline  '
242.0498 	EXP 	choice: autoDraw = True
242.7841 	DATA 	Keypress: equal
242.8640 	DATA 	Keypress: 1
245.0623 	EXP 	choice: autoDraw = False
245.0623 	EXP 	choice: autoDraw = False
245.0623 	EXP 	iti1: autoDraw = True
245.8831 	DATA 	Keypress: equal
247.0654 	EXP 	iti1: autoDraw = False
247.0654 	EXP 	iti1: autoDraw = False
247.0654 	EXP 	feedback: height = 0.15
247.0654 	EXP 	feedback: height = 0.15
247.0654 	EXP 	feedback: height = 0.15
247.0654 	EXP 	feedback: text = '  -91 points\n \n\n Total 2154 points'
247.0654 	EXP 	feedback: autoDraw = True
248.5791 	EXP 	feedback: autoDraw = False
248.5791 	EXP 	iti2: autoDraw = True
248.9664 	DATA 	Keypress: equal
249.5637 	EXP 	New trial (rep=0, index=24): {'Win': 12, 'Lose': 88, 'Value': 8, 'RealValue': -8, 'Label': 'ProbLL_valueL', 'ChoiceDur': 3, 'ITIDur1': 3, 'ITIDur2': 8}
249.5837 	EXP 	iti2: autoDraw = False
249.5837 	EXP 	iti2: autoDraw = False
249.5837 	EXP 	choice: height = 0.15
249.5837 	EXP 	choice: height = 0.15
249.5837 	EXP 	choice: height = 0.15
249.5837 	EXP 	choice: text = '     8 points\n\n12% win      88% lose\n\n  Accept         Decline  '
249.5837 	EXP 	choice: autoDraw = True
251.0343 	DATA 	Keypress: 2
252.0476 	DATA 	Keypress: equal
252.5958 	EXP 	choice: autoDraw = False
252.5958 	EXP 	choice: autoDraw = False
252.5958 	EXP 	iti1: autoDraw = True
255.1332 	DATA 	Keypress: equal
255.5985 	EXP 	iti1: autoDraw = False
255.5985 	EXP 	iti1: autoDraw = False
255.5985 	EXP 	feedback: height = 0.15
255.5985 	EXP 	feedback: height = 0.15
255.5985 	EXP 	feedback: height = 0.15
255.5985 	EXP 	feedback: text = '  (-8) points\n \n\n Total 2154 points'
255.5985 	EXP 	feedback: autoDraw = True
257.1124 	EXP 	feedback: autoDraw = False
257.1124 	EXP 	iti2: autoDraw = True
258.2171 	DATA 	Keypress: equal
261.2991 	DATA 	Keypress: equal
264.3823 	DATA 	Keypress: equal
265.0968 	EXP 	New trial (rep=0, index=25): {'Win': 53, 'Lose': 47, 'Value': 17, 'RealValue': 17, 'Label': 'ProbMM_valueL', 'ChoiceDur': 3, 'ITIDur1': 2, 'ITIDur2': 4}
265.1174 	EXP 	iti2: autoDraw = False
265.1174 	EXP 	iti2: autoDraw = False
265.1174 	EXP 	choice: height = 0.15
265.1174 	EXP 	choice: height = 0.15
265.1174 	EXP 	choice: height = 0.15
265.1174 	EXP 	choice: text = '     17 points\n\n53% win      47% lose\n\n  Accept         Decline  '
265.1174 	EXP 	choice: autoDraw = True
266.3171 	DATA 	Keypress: 1
267.4669 	DATA 	Keypress: equal
268.1289 	EXP 	choice: autoDraw = False
268.1289 	EXP 	choice: autoDraw = False
268.1289 	EXP 	iti1: autoDraw = True
270.1313 	EXP 	iti1: autoDraw = False
270.1313 	EXP 	iti1: autoDraw = False
270.1313 	EXP 	feedback: height = 0.15
270.1313 	EXP 	feedback: height = 0.15
270.1313 	EXP 	feedback: height = 0.15
270.1313 	EXP 	feedback: text = '  +17 points\n \n\n Total 2171 points'
270.1313 	EXP 	feedback: autoDraw = True
270.5670 	DATA 	Keypress: equal
271.6459 	EXP 	feedback: autoDraw = False
271.6459 	EXP 	iti2: autoDraw = True
273.6493 	DATA 	Keypress: equal
275.6304 	EXP 	New trial (rep=0, index=26): {'Win': 75, 'Lose': 25, 'Value': 94, 'RealValue': -94, 'Label': 'ProbHH_valueH', 'ChoiceDur': 3, 'ITIDur1': 2, 'ITIDur2': 3}
275.6510 	EXP 	iti2: autoDraw = False
275.6510 	EXP 	iti2: autoDraw = False
275.6510 	EXP 	choice: height = 0.15
275.6510 	EXP 	choice: height = 0.15
275.6510 	EXP 	choice: height = 0.15
275.6510 	EXP 	choice: text = '     94 points\n\n75% win      25% lose\n\n  Accept         Decline  '
275.6510 	EXP 	choice: autoDraw = True
276.5843 	DATA 	Keypress: 1
276.7339 	DATA 	Keypress: equal
278.6630 	EXP 	choice: autoDraw = False
278.6630 	EXP 	choice: autoDraw = False
278.6630 	EXP 	iti1: autoDraw = True
279.8168 	DATA 	Keypress: equal
280.6647 	EXP 	iti1: autoDraw = False
280.6647 	EXP 	iti1: autoDraw = False
280.6647 	EXP 	feedback: height = 0.15
280.6647 	EXP 	feedback: height = 0.15
280.6647 	EXP 	feedback: height = 0.15
280.6647 	EXP 	feedback: text = '  -94 points\n \n\n Total 2077 points'
280.6647 	EXP 	feedback: autoDraw = True
282.1790 	EXP 	feedback: autoDraw = False
282.1790 	EXP 	iti2: autoDraw = True
282.8990 	DATA 	Keypress: equal
285.1642 	EXP 	New trial (rep=0, index=27): {'Win': 49, 'Lose': 51, 'Value': 1241, 'RealValue': -1241, 'Label': 'ProbMM_valueSH', 'ChoiceDur': 1.5, 'ITIDur1': 2, 'ITIDur2': 3}
285.1854 	EXP 	iti2: autoDraw = False
285.1854 	EXP 	iti2: autoDraw = False
285.1854 	EXP 	choice: height = 0.15
285.1854 	EXP 	choice: height = 0.15
285.1854 	EXP 	choice: height = 0.15
285.1854 	EXP 	choice: text = '     1241 points\n\n49% win      51% lose\n\n  Accept         Decline  '
285.1854 	EXP 	choice: autoDraw = True
285.9834 	DATA 	Keypress: equal
286.0984 	DATA 	Keypress: 1
286.6965 	EXP 	choice: autoDraw = False
286.6965 	EXP 	choice: autoDraw = False
286.6965 	EXP 	iti1: autoDraw = True
288.6991 	EXP 	iti1: autoDraw = False
288.6991 	EXP 	iti1: autoDraw = False
288.6991 	EXP 	feedback: height = 0.15
288.6991 	EXP 	feedback: height = 0.15
288.6991 	EXP 	feedback: height = 0.15
288.6991 	EXP 	feedback: text = '  -1241 points\n \n\n Total 836 points'
288.6991 	EXP 	feedback: autoDraw = True
289.0836 	DATA 	Keypress: equal
290.2126 	EXP 	feedback: autoDraw = False
290.2126 	EXP 	iti2: autoDraw = True
292.1670 	DATA 	Keypress: equal
293.1969 	EXP 	New trial (rep=0, index=28): {'Win': 9, 'Lose': 91, 'Value': 91, 'RealValue': 91, 'Label': 'ProbLL_valueH', 'ChoiceDur': 3, 'ITIDur1': 1, 'ITIDur2': 1}
293.2150 	EXP 	iti2: autoDraw = False
293.2150 	EXP 	iti2: autoDraw = False
293.2150 	EXP 	choice: height = 0.15
293.2150 	EXP 	choice: height = 0.15
293.2150 	EXP 	choice: height = 0.15
293.2150 	EXP 	choice: text = '     91 points\n\n9% win      91% lose\n\n  Accept         Decline  '
293.2150 	EXP 	choice: autoDraw = True
294.5509 	DATA 	Keypress: 2
295.2516 	DATA 	Keypress: equal
296.2293 	EXP 	choice: autoDraw = False
296.2293 	EXP 	choice: autoDraw = False
296.2293 	EXP 	iti1: autoDraw = True
297.2309 	EXP 	iti1: autoDraw = False
297.2309 	EXP 	iti1: autoDraw = False
297.2309 	EXP 	feedback: height = 0.15
297.2309 	EXP 	feedback: height = 0.15
297.2309 	EXP 	feedback: height = 0.15
297.2309 	EXP 	feedback: text = '  (+91) points\n \n\n Total 836 points'
297.2309 	EXP 	feedback: autoDraw = True
298.3336 	DATA 	Keypress: equal
298.7297 	EXP 	feedback: autoDraw = False
298.7297 	EXP 	iti2: autoDraw = True
299.7138 	EXP 	New trial (rep=0, index=29): {'Win': 81, 'Lose': 19, 'Value': 14, 'RealValue': 14, 'Label': 'ProbHH_valueL', 'ChoiceDur': 3, 'ITIDur1': 2, 'ITIDur2': 1}
299.7352 	EXP 	iti2: autoDraw = False
299.7352 	EXP 	iti2: autoDraw = False
299.7352 	EXP 	choice: height = 0.15
299.7352 	EXP 	choice: height = 0.15
299.7352 	EXP 	choice: height = 0.15
299.7352 	EXP 	choice: text = '     14 points\n\n81% win      19% lose\n\n  Accept         Decline  '
299.7352 	EXP 	choice: autoDraw = True
300.9345 	DATA 	Keypress: 1
301.4181 	DATA 	Keypress: equal
302.7458 	EXP 	choice: autoDraw = False
302.7458 	EXP 	choice: autoDraw = False
302.7458 	EXP 	iti1: autoDraw = True
304.5005 	DATA 	Keypress: equal
304.7487 	EXP 	iti1: autoDraw = False
304.7487 	EXP 	iti1: autoDraw = False
304.7487 	EXP 	feedback: height = 0.15
304.7487 	EXP 	feedback: height = 0.15
304.7487 	EXP 	feedback: height = 0.15
304.7487 	EXP 	feedback: text = '  +14 points\n \n\n Total 850 points'
304.7487 	EXP 	feedback: autoDraw = True
306.2628 	EXP 	feedback: autoDraw = False
306.2628 	EXP 	iti2: autoDraw = True
307.2472 	EXP 	New trial (rep=0, index=30): {'Win': 16, 'Lose': 84, 'Value': 87, 'RealValue': -87, 'Label': 'ProbLL_valueH', 'ChoiceDur': 3, 'ITIDur1': 2, 'ITIDur2': 3}
307.2669 	EXP 	iti2: autoDraw = False
307.2669 	EXP 	iti2: autoDraw = False
307.2669 	EXP 	choice: height = 0.15
307.2669 	EXP 	choice: height = 0.15
307.2669 	EXP 	choice: height = 0.15
307.2669 	EXP 	choice: text = '     87 points\n\n16% win      84% lose\n\n  Accept         Decline  '
307.2669 	EXP 	choice: autoDraw = True
307.6004 	DATA 	Keypress: equal
308.5520 	DATA 	Keypress: 2
310.2794 	EXP 	choice: autoDraw = False
310.2794 	EXP 	choice: autoDraw = False
310.2794 	EXP 	iti1: autoDraw = True
310.6837 	DATA 	Keypress: equal
312.2838 	EXP 	iti1: autoDraw = False
312.2838 	EXP 	iti1: autoDraw = False
312.2838 	EXP 	feedback: height = 0.15
312.2838 	EXP 	feedback: height = 0.15
312.2838 	EXP 	feedback: height = 0.15
312.2838 	EXP 	feedback: text = '  (-87) points\n \n\n Total 850 points'
312.2838 	EXP 	feedback: autoDraw = True
313.7675 	DATA 	Keypress: equal
313.7962 	EXP 	feedback: autoDraw = False
313.7962 	EXP 	iti2: autoDraw = True
316.7810 	EXP 	New trial (rep=0, index=31): {'Win': 55, 'Lose': 45, 'Value': 1068, 'RealValue': 1068, 'Label': 'ProbMM_valueSH', 'ChoiceDur': 1.5, 'ITIDur1': 2, 'ITIDur2': 4}
316.8033 	EXP 	iti2: autoDraw = False
316.8033 	EXP 	iti2: autoDraw = False
316.8033 	EXP 	choice: height = 0.15
316.8033 	EXP 	choice: height = 0.15
316.8033 	EXP 	choice: height = 0.15
316.8033 	EXP 	choice: text = '     1068 points\n\n55% win      45% lose\n\n  Accept         Decline  '
316.8033 	EXP 	choice: autoDraw = True
316.8506 	DATA 	Keypress: equal
317.8343 	DATA 	Keypress: 1
318.3126 	EXP 	choice: autoDraw = False
318.3126 	EXP 	choice: autoDraw = False
318.3126 	EXP 	iti1: autoDraw = True
319.9328 	DATA 	Keypress: equal
320.3154 	EXP 	iti1: autoDraw = False
320.3154 	EXP 	iti1: autoDraw = False
320.3154 	EXP 	feedback: height = 0.15
320.3154 	EXP 	feedback: height = 0.15
320.3154 	EXP 	feedback: height = 0.15
320.3154 	EXP 	feedback: text = '  +1068 points\n \n\n Total 1918 points'
320.3154 	EXP 	feedback: autoDraw = True
321.8127 	EXP 	feedback: autoDraw = False
321.8127 	EXP 	iti2: autoDraw = True
323.0165 	DATA 	Keypress: equal
325.7975 	EXP 	New trial (rep=0, index=32): {'Win': 43, 'Lose': 57, 'Value': 86, 'RealValue': -86, 'Label': 'ProbMM_valueH', 'ChoiceDur': 3, 'ITIDur1': 3, 'ITIDur2': 3}
325.8177 	EXP 	iti2: autoDraw = False
325.8177 	EXP 	iti2: autoDraw = False
325.8177 	EXP 	choice: height = 0.15
325.8177 	EXP 	choice: height = 0.15
325.8177 	EXP 	choice: height = 0.15
325.8177 	EXP 	choice: text = '     86 points\n\n43% win      57% lose\n\n  Accept         Decline  '
325.8177 	EXP 	choice: autoDraw = True
326.1019 	DATA 	Keypress: equal
327.0816 	DATA 	Keypress: 2
328.8295 	EXP 	choice: autoDraw = False
328.8295 	EXP 	choice: autoDraw = False
328.8295 	EXP 	iti1: autoDraw = True
329.1836 	DATA 	Keypress: equal
331.8334 	EXP 	iti1: autoDraw = False
331.8334 	EXP 	iti1: autoDraw = False
331.8334 	EXP 	feedback: height = 0.15
331.8334 	EXP 	feedback: height = 0.15
331.8334 	EXP 	feedback: height = 0.15
331.8334 	EXP 	feedback: text = '  (-86) points\n \n\n Total 1918 points'
331.8334 	EXP 	feedback: autoDraw = True
332.2837 	DATA 	Keypress: equal
333.3463 	EXP 	feedback: autoDraw = False
333.3463 	EXP 	iti2: autoDraw = True
335.3669 	DATA 	Keypress: equal
336.3310 	EXP 	New trial (rep=0, index=33): {'Win': 79, 'Lose': 21, 'Value': 16, 'RealValue': -16, 'Label': 'ProbHH_valueL', 'ChoiceDur': 3, 'ITIDur1': 1, 'ITIDur2': 3}
336.3526 	EXP 	iti2: autoDraw = False
336.3526 	EXP 	iti2: autoDraw = False
336.3526 	EXP 	choice: height = 0.15
336.3526 	EXP 	choice: height = 0.15
336.3526 	EXP 	choice: height = 0.15
336.3526 	EXP 	choice: text = '     16 points\n\n79% win      21% lose\n\n  Accept         Decline  '
336.3526 	EXP 	choice: autoDraw = True
337.2015 	DATA 	Keypress: 1
338.4506 	DATA 	Keypress: equal
339.3629 	EXP 	choice: autoDraw = False
339.3629 	EXP 	choice: autoDraw = False
339.3629 	EXP 	iti1: autoDraw = True
340.3626 	EXP 	iti1: autoDraw = False
340.3626 	EXP 	iti1: autoDraw = False
340.3626 	EXP 	feedback: height = 0.15
340.3626 	EXP 	feedback: height = 0.15
340.3626 	EXP 	feedback: height = 0.15
340.3626 	EXP 	feedback: text = '  -16 points\n \n\n Total 1902 points'
340.3626 	EXP 	feedback: autoDraw = True
341.5318 	DATA 	Keypress: equal
341.8629 	EXP 	feedback: autoDraw = False
341.8629 	EXP 	iti2: autoDraw = True
344.6159 	DATA 	Keypress: equal
344.8475 	EXP 	New trial (rep=0, index=34): {'Win': 13, 'Lose': 87, 'Value': 96, 'RealValue': -96, 'Label': 'ProbLL_valueH', 'ChoiceDur': 3, 'ITIDur1': 1, 'ITIDur2': 4}
344.8672 	EXP 	iti2: autoDraw = False
344.8672 	EXP 	iti2: autoDraw = False
344.8672 	EXP 	choice: height = 0.15
344.8672 	EXP 	choice: height = 0.15
344.8672 	EXP 	choice: height = 0.15
344.8672 	EXP 	choice: text = '     96 points\n\n13% win      87% lose\n\n  Accept         Decline  '
344.8672 	EXP 	choice: autoDraw = True
346.4019 	DATA 	Keypress: 2
347.7013 	DATA 	Keypress: equal
347.8795 	EXP 	choice: autoDraw = False
347.8795 	EXP 	choice: autoDraw = False
347.8795 	EXP 	iti1: autoDraw = True
348.8842 	EXP 	iti1: autoDraw = False
348.8842 	EXP 	iti1: autoDraw = False
348.8842 	EXP 	feedback: height = 0.15
348.8842 	EXP 	feedback: height = 0.15
348.8842 	EXP 	feedback: height = 0.15
348.8842 	EXP 	feedback: text = '  (-96) points\n \n\n Total 1902 points'
348.8842 	EXP 	feedback: autoDraw = True
350.3963 	EXP 	feedback: autoDraw = False
350.3963 	EXP 	iti2: autoDraw = True
350.8008 	DATA 	Keypress: equal
353.8834 	DATA 	Keypress: equal
354.3811 	EXP 	New trial (rep=0, index=35): {'Win': 46, 'Lose': 54, 'Value': 16, 'RealValue': 16, 'Label': 'ProbMM_valueL', 'ChoiceDur': 3, 'ITIDur1': 2, 'ITIDur2': 3}
354.4030 	EXP 	iti2: autoDraw = False
354.4030 	EXP 	iti2: autoDraw = False
354.4030 	EXP 	choice: height = 0.15
354.4030 	EXP 	choice: height = 0.15
354.4030 	EXP 	choice: height = 0.15
354.4030 	EXP 	choice: text = '     16 points\n\n46% win      54% lose\n\n  Accept         Decline  '
354.4030 	EXP 	choice: autoDraw = True
355.8349 	DATA 	Keypress: 2
356.9647 	DATA 	Keypress: equal
357.4131 	EXP 	choice: autoDraw = False
357.4131 	EXP 	choice: autoDraw = False
357.4131 	EXP 	iti1: autoDraw = True
359.4151 	EXP 	iti1: autoDraw = False
359.4151 	EXP 	iti1: autoDraw = False
359.4151 	EXP 	feedback: height = 0.15
359.4151 	EXP 	feedback: height = 0.15
359.4151 	EXP 	feedback: height = 0.15
359.4151 	EXP 	feedback: text = '  (+16) points\n \n\n Total 1902 points'
359.4151 	EXP 	feedback: autoDraw = True
360.0515 	DATA 	Keypress: equal
360.9298 	EXP 	feedback: autoDraw = False
360.9298 	EXP 	iti2: autoDraw = True
363.1336 	DATA 	Keypress: equal
363.9143 	EXP 	New trial (rep=0, index=36): {'Win': 19, 'Lose': 81, 'Value': 94, 'RealValue': -94, 'Label': 'ProbLL_valueH', 'ChoiceDur': 3, 'ITIDur1': 1, 'ITIDur2': 2}
363.9356 	EXP 	iti2: autoDraw = False
363.9356 	EXP 	iti2: autoDraw = False
363.9356 	EXP 	choice: height = 0.15
363.9356 	EXP 	choice: height = 0.15
363.9356 	EXP 	choice: height = 0.15
363.9356 	EXP 	choice: text = '     94 points\n\n19% win      81% lose\n\n  Accept         Decline  '
363.9356 	EXP 	choice: autoDraw = True
365.0351 	DATA 	Keypress: 2
366.2197 	DATA 	Keypress: equal
366.9465 	EXP 	choice: autoDraw = False
366.9465 	EXP 	choice: autoDraw = False
366.9465 	EXP 	iti1: autoDraw = True
367.9494 	EXP 	iti1: autoDraw = False
367.9494 	EXP 	iti1: autoDraw = False
367.9494 	EXP 	feedback: height = 0.15
367.9494 	EXP 	feedback: height = 0.15
367.9494 	EXP 	feedback: height = 0.15
367.9494 	EXP 	feedback: text = '  (-94) points\n \n\n Total 1902 points'
367.9494 	EXP 	feedback: autoDraw = True
369.3004 	DATA 	Keypress: equal
369.4630 	EXP 	feedback: autoDraw = False
369.4630 	EXP 	iti2: autoDraw = True
371.4475 	EXP 	New trial (rep=0, index=37): {'Win': 45, 'Lose': 55, 'Value': 12, 'RealValue': -12, 'Label': 'ProbMM_valueL', 'ChoiceDur': 3, 'ITIDur1': 2, 'ITIDur2': 2}
371.4677 	EXP 	iti2: autoDraw = False
371.4677 	EXP 	iti2: autoDraw = False
371.4677 	EXP 	choice: height = 0.15
371.4677 	EXP 	choice: height = 0.15
371.4677 	EXP 	choice: height = 0.15
371.4677 	EXP 	choice: text = '     12 points\n\n45% win      55% lose\n\n  Accept         Decline  '
371.4677 	EXP 	choice: autoDraw = True
372.4015 	DATA 	Keypress: equal
372.6516 	DATA 	Keypress: 2
374.4796 	EXP 	choice: autoDraw = False
374.4796 	EXP 	choice: autoDraw = False
374.4796 	EXP 	iti1: autoDraw = True
375.4829 	DATA 	Keypress: equal
376.4822 	EXP 	iti1: autoDraw = False
376.4822 	EXP 	iti1: autoDraw = False
376.4822 	EXP 	feedback: height = 0.15
376.4822 	EXP 	feedback: height = 0.15
376.4822 	EXP 	feedback: height = 0.15
376.4822 	EXP 	feedback: text = '  (-12) points\n \n\n Total 1902 points'
376.4822 	EXP 	feedback: autoDraw = True
377.9964 	EXP 	feedback: autoDraw = False
377.9964 	EXP 	iti2: autoDraw = True
378.5657 	DATA 	Keypress: equal
379.9815 	EXP 	New trial (rep=0, index=38): {'Win': 48, 'Lose': 52, 'Value': 1295, 'RealValue': -1295, 'Label': 'ProbMM_valueSH', 'ChoiceDur': 1.5, 'ITIDur1': 1, 'ITIDur2': 1}
380.0025 	EXP 	iti2: autoDraw = False
380.0025 	EXP 	iti2: autoDraw = False
380.0025 	EXP 	choice: height = 0.15
380.0025 	EXP 	choice: height = 0.15
380.0025 	EXP 	choice: height = 0.15
380.0025 	EXP 	choice: text = '     1295 points\n\n48% win      52% lose\n\n  Accept         Decline  '
380.0025 	EXP 	choice: autoDraw = True
381.3511 	DATA 	Keypress: 2
381.5134 	EXP 	choice: autoDraw = False
381.5134 	EXP 	choice: autoDraw = False
381.5134 	EXP 	iti1: autoDraw = True
381.6514 	DATA 	Keypress: equal
382.5155 	EXP 	iti1: autoDraw = False
382.5155 	EXP 	iti1: autoDraw = False
382.5155 	EXP 	feedback: height = 0.15
382.5155 	EXP 	feedback: height = 0.15
382.5155 	EXP 	feedback: height = 0.15
382.5155 	EXP 	feedback: text = '  (-1295) points\n \n\n Total 1902 points'
382.5155 	EXP 	feedback: autoDraw = True
384.0297 	EXP 	feedback: autoDraw = False
384.0297 	EXP 	iti2: autoDraw = True
384.7338 	DATA 	Keypress: equal
385.0144 	EXP 	New trial (rep=0, index=39): {'Win': 45, 'Lose': 55, 'Value': 1271, 'RealValue': -1271, 'Label': 'ProbMM_valueSH', 'ChoiceDur': 1.5, 'ITIDur1': 3, 'ITIDur2': 2}
385.0339 	EXP 	iti2: autoDraw = False
385.0339 	EXP 	iti2: autoDraw = False
385.0339 	EXP 	choice: height = 0.15
385.0339 	EXP 	choice: height = 0.15
385.0339 	EXP 	choice: height = 0.15
385.0339 	EXP 	choice: text = '     1271 points\n\n45% win      55% lose\n\n  Accept         Decline  '
385.0339 	EXP 	choice: autoDraw = True
386.2182 	DATA 	Keypress: 2
386.5465 	EXP 	choice: autoDraw = False
386.5465 	EXP 	choice: autoDraw = False
386.5465 	EXP 	iti1: autoDraw = True
387.8169 	DATA 	Keypress: equal
389.5472 	EXP 	iti1: autoDraw = False
389.5472 	EXP 	iti1: autoDraw = False
389.5472 	EXP 	feedback: height = 0.15
389.5472 	EXP 	feedback: height = 0.15
389.5472 	EXP 	feedback: height = 0.15
389.5472 	EXP 	feedback: text = '  (-1271) points\n \n\n Total 1902 points'
389.5472 	EXP 	feedback: autoDraw = True
390.9008 	DATA 	Keypress: equal
391.0465 	EXP 	feedback: autoDraw = False
391.0465 	EXP 	feedback: autoDraw = False
391.0465 	EXP 	iti2: autoDraw = True
393.0308 	EXP 	New trial (rep=0, index=40): {'Win': 23, 'Lose': 77, 'Value': 3, 'RealValue': 3, 'Label': 'ProbLL_valueL', 'ChoiceDur': 3, 'ITIDur1': 1, 'ITIDur2': 3}
393.0501 	EXP 	iti2: autoDraw = False
393.0501 	EXP 	iti2: autoDraw = False
393.0501 	EXP 	choice: height = 0.15
393.0501 	EXP 	choice: height = 0.15
393.0501 	EXP 	choice: height = 0.15
393.0501 	EXP 	choice: text = '     3 points\n\n23% win      77% lose\n\n  Accept         Decline  '
393.0501 	EXP 	choice: autoDraw = True
394.0010 	DATA 	Keypress: equal
394.0851 	DATA 	Keypress: 2
396.0633 	EXP 	choice: autoDraw = False
396.0633 	EXP 	choice: autoDraw = False
396.0633 	EXP 	iti1: autoDraw = True
397.0665 	EXP 	iti1: autoDraw = False
397.0665 	EXP 	iti1: autoDraw = False
397.0665 	EXP 	feedback: height = 0.15
397.0665 	EXP 	feedback: height = 0.15
397.0665 	EXP 	feedback: height = 0.15
397.0665 	EXP 	feedback: text = '  (+3) points\n \n\n Total 1902 points'
397.0665 	EXP 	feedback: autoDraw = True
397.0811 	DATA 	Keypress: equal
398.5800 	EXP 	feedback: autoDraw = False
398.5800 	EXP 	iti2: autoDraw = True
400.1677 	DATA 	Keypress: equal
401.5648 	EXP 	New trial (rep=0, index=41): {'Win': 76, 'Lose': 24, 'Value': 90, 'RealValue': 90, 'Label': 'ProbHH_valueH', 'ChoiceDur': 3, 'ITIDur1': 2, 'ITIDur2': 8}
401.5874 	EXP 	iti2: autoDraw = False
401.5874 	EXP 	iti2: autoDraw = False
401.5874 	EXP 	choice: height = 0.15
401.5874 	EXP 	choice: height = 0.15
401.5874 	EXP 	choice: height = 0.15
401.5874 	EXP 	choice: text = '     90 points\n\n76% win      24% lose\n\n  Accept         Decline  '
401.5874 	EXP 	choice: autoDraw = True
402.7849 	DATA 	Keypress: 1
403.2492 	DATA 	Keypress: equal
404.5975 	EXP 	choice: autoDraw = False
404.5975 	EXP 	choice: autoDraw = False
404.5975 	EXP 	iti1: autoDraw = True
406.3344 	DATA 	Keypress: equal
406.5981 	EXP 	iti1: autoDraw = False
406.5981 	EXP 	iti1: autoDraw = False
406.5981 	EXP 	feedback: height = 0.15
406.5981 	EXP 	feedback: height = 0.15
406.5981 	EXP 	feedback: height = 0.15
406.5981 	EXP 	feedback: text = '  +90 points\n \n\n Total 1992 points'
406.5981 	EXP 	feedback: autoDraw = True
408.1140 	EXP 	feedback: autoDraw = False
408.1140 	EXP 	iti2: autoDraw = True
409.4182 	DATA 	Keypress: equal
412.5183 	DATA 	Keypress: equal
415.5999 	DATA 	Keypress: equal
416.0983 	EXP 	New trial (rep=0, index=42): {'Win': 45, 'Lose': 55, 'Value': 96, 'RealValue': -96, 'Label': 'ProbMM_valueH', 'ChoiceDur': 3, 'ITIDur1': 1, 'ITIDur2': 4}
416.1202 	EXP 	iti2: autoDraw = False
416.1202 	EXP 	iti2: autoDraw = False
416.1202 	EXP 	choice: height = 0.15
416.1202 	EXP 	choice: height = 0.15
416.1202 	EXP 	choice: height = 0.15
416.1202 	EXP 	choice: text = '     96 points\n\n45% win      55% lose\n\n  Accept         Decline  '
416.1202 	EXP 	choice: autoDraw = True
417.1521 	DATA 	Keypress: 2
418.6829 	DATA 	Keypress: equal
419.1299 	EXP 	choice: autoDraw = False
419.1299 	EXP 	choice: autoDraw = False
419.1299 	EXP 	iti1: autoDraw = True
420.1347 	EXP 	iti1: autoDraw = False
420.1347 	EXP 	iti1: autoDraw = False
420.1347 	EXP 	feedback: height = 0.15
420.1347 	EXP 	feedback: height = 0.15
420.1347 	EXP 	feedback: height = 0.15
420.1347 	EXP 	feedback: text = '  (-96) points\n \n\n Total 1992 points'
420.1347 	EXP 	feedback: autoDraw = True
421.6470 	EXP 	feedback: autoDraw = False
421.6470 	EXP 	iti2: autoDraw = True
421.7684 	DATA 	Keypress: equal
424.8495 	DATA 	Keypress: equal
425.6316 	EXP 	New trial (rep=0, index=43): {'Win': 53, 'Lose': 47, 'Value': 5, 'RealValue': -5, 'Label': 'ProbMM_valueL', 'ChoiceDur': 3, 'ITIDur1': 5, 'ITIDur2': 8}
425.6527 	EXP 	iti2: autoDraw = False
425.6527 	EXP 	iti2: autoDraw = False
425.6527 	EXP 	choice: height = 0.15
425.6527 	EXP 	choice: height = 0.15
425.6527 	EXP 	choice: height = 0.15
425.6527 	EXP 	choice: text = '     5 points\n\n53% win      47% lose\n\n  Accept         Decline  '
425.6527 	EXP 	choice: autoDraw = True
426.8355 	DATA 	Keypress: 1
427.9360 	DATA 	Keypress: equal
428.6635 	EXP 	choice: autoDraw = False
428.6635 	EXP 	choice: autoDraw = False
428.6635 	EXP 	iti1: autoDraw = True
431.0166 	DATA 	Keypress: equal
433.6647 	EXP 	iti1: autoDraw = False
433.6647 	EXP 	iti1: autoDraw = False
433.6647 	EXP 	feedback: height = 0.15
433.6647 	EXP 	feedback: height = 0.15
433.6647 	EXP 	feedback: height = 0.15
433.6647 	EXP 	feedback: text = '  -5 points\n \n\n Total 1987 points'
433.6647 	EXP 	feedback: autoDraw = True
434.1018 	DATA 	Keypress: equal
435.1635 	EXP 	feedback: autoDraw = False
435.1635 	EXP 	feedback: autoDraw = False
435.1635 	EXP 	iti2: autoDraw = True
437.1994 	DATA 	Keypress: equal
440.2842 	DATA 	Keypress: equal
443.1480 	EXP 	New trial (rep=0, index=44): {'Win': 84, 'Lose': 16, 'Value': 9, 'RealValue': 9, 'Label': 'ProbHH_valueL', 'ChoiceDur': 3, 'ITIDur1': 2, 'ITIDur2': 4}
443.1674 	EXP 	iti2: autoDraw = False
443.1674 	EXP 	iti2: autoDraw = False
443.1674 	EXP 	choice: height = 0.15
443.1674 	EXP 	choice: height = 0.15
443.1674 	EXP 	choice: height = 0.15
443.1674 	EXP 	choice: text = '     9 points\n\n84% win      16% lose\n\n  Accept         Decline  '
443.1674 	EXP 	choice: autoDraw = True
443.3684 	DATA 	Keypress: equal
444.0324 	DATA 	Keypress: 1
446.1806 	EXP 	choice: autoDraw = False
446.1806 	EXP 	choice: autoDraw = False
446.1806 	EXP 	iti1: autoDraw = True
446.4509 	DATA 	Keypress: equal
448.1844 	EXP 	iti1: autoDraw = False
448.1844 	EXP 	iti1: autoDraw = False
448.1844 	EXP 	feedback: height = 0.15
448.1844 	EXP 	feedback: height = 0.15
448.1844 	EXP 	feedback: height = 0.15
448.1844 	EXP 	feedback: text = '  +9 points\n \n\n Total 1996 points'
448.1844 	EXP 	feedback: autoDraw = True
449.5355 	DATA 	Keypress: equal
449.6970 	EXP 	feedback: autoDraw = False
449.6970 	EXP 	iti2: autoDraw = True
452.6348 	DATA 	Keypress: equal
453.6810 	EXP 	New trial (rep=0, index=45): {'Win': 43, 'Lose': 57, 'Value': 88, 'RealValue': -88, 'Label': 'ProbMM_valueH', 'ChoiceDur': 3, 'ITIDur1': 2, 'ITIDur2': 1}
453.6983 	EXP 	iti2: autoDraw = False
453.6983 	EXP 	iti2: autoDraw = False
453.6983 	EXP 	choice: height = 0.15
453.6983 	EXP 	choice: height = 0.15
453.6983 	EXP 	choice: height = 0.15
453.6983 	EXP 	choice: text = '     88 points\n\n43% win      57% lose\n\n  Accept         Decline  '
453.6983 	EXP 	choice: autoDraw = True
454.6021 	DATA 	Keypress: 2
455.7160 	DATA 	Keypress: equal
456.7136 	EXP 	choice: autoDraw = False
456.7136 	EXP 	choice: autoDraw = False
456.7136 	EXP 	iti1: autoDraw = True
458.7133 	EXP 	iti1: autoDraw = False
458.7133 	EXP 	iti1: autoDraw = False
458.7133 	EXP 	feedback: height = 0.15
458.7133 	EXP 	feedback: height = 0.15
458.7133 	EXP 	feedback: height = 0.15
458.7133 	EXP 	feedback: text = '  (-88) points\n \n\n Total 1996 points'
458.7133 	EXP 	feedback: autoDraw = True
458.8023 	DATA 	Keypress: equal
460.2138 	EXP 	feedback: autoDraw = False
460.2138 	EXP 	feedback: autoDraw = False
460.2138 	EXP 	iti2: autoDraw = True
461.1976 	EXP 	New trial (rep=0, index=46): {'Win': 49, 'Lose': 51, 'Value': 1095, 'RealValue': 1095, 'Label': 'ProbMM_valueSH', 'ChoiceDur': 1.5, 'ITIDur1': 2, 'ITIDur2': 8}
461.2132 	EXP 	iti2: autoDraw = False
461.2132 	EXP 	iti2: autoDraw = False
461.2132 	EXP 	choice: height = 0.15
461.2132 	EXP 	choice: height = 0.15
461.2132 	EXP 	choice: height = 0.15
461.2132 	EXP 	choice: text = '     1095 points\n\n49% win      51% lose\n\n  Accept         Decline  '
461.2132 	EXP 	choice: autoDraw = True
461.8827 	DATA 	Keypress: equal
462.1827 	DATA 	Keypress: 2
462.7139 	EXP 	choice: autoDraw = False
462.7139 	EXP 	choice: autoDraw = False
462.7139 	EXP 	iti1: autoDraw = True
464.7147 	EXP 	iti1: autoDraw = False
464.7147 	EXP 	iti1: autoDraw = False
464.7147 	EXP 	feedback: height = 0.15
464.7147 	EXP 	feedback: height = 0.15
464.7147 	EXP 	feedback: height = 0.15
464.7147 	EXP 	feedback: text = '  (+1095) points\n \n\n Total 1996 points'
464.7147 	EXP 	feedback: autoDraw = True
464.9688 	DATA 	Keypress: equal
466.2139 	EXP 	feedback: autoDraw = False
466.2139 	EXP 	iti2: autoDraw = True
468.0505 	DATA 	Keypress: equal
471.1341 	DATA 	Keypress: equal
474.1981 	EXP 	New trial (rep=0, index=47): {'Win': 12, 'Lose': 88, 'Value': 95, 'RealValue': -95, 'Label': 'ProbLL_valueH', 'ChoiceDur': 3, 'ITIDur1': 2, 'ITIDur2': 3}
474.2132 	EXP 	iti2: autoDraw = False
474.2132 	EXP 	iti2: autoDraw = False
474.2132 	EXP 	choice: height = 0.15
474.2132 	EXP 	choice: height = 0.15
474.2132 	EXP 	choice: height = 0.15
474.2132 	EXP 	choice: text = '     95 points\n\n12% win      88% lose\n\n  Accept         Decline  '
474.2132 	EXP 	choice: autoDraw = True
474.2303 	DATA 	Keypress: equal
475.7669 	DATA 	Keypress: 2
477.2141 	EXP 	choice: autoDraw = False
477.2141 	EXP 	choice: autoDraw = False
477.2141 	EXP 	iti1: autoDraw = True
477.3173 	DATA 	Keypress: equal
479.2166 	EXP 	iti1: autoDraw = False
479.2166 	EXP 	iti1: autoDraw = False
479.2166 	EXP 	feedback: height = 0.15
479.2166 	EXP 	feedback: height = 0.15
479.2166 	EXP 	feedback: height = 0.15
479.2166 	EXP 	feedback: text = '  (-95) points\n \n\n Total 1996 points'
479.2166 	EXP 	feedback: autoDraw = True
480.4019 	DATA 	Keypress: equal
480.7305 	EXP 	feedback: autoDraw = False
480.7305 	EXP 	iti2: autoDraw = True
483.4849 	DATA 	Keypress: equal
483.7153 	EXP 	New trial (rep=0, index=48): {'Win': 53, 'Lose': 47, 'Value': 17, 'RealValue': -17, 'Label': 'ProbMM_valueL', 'ChoiceDur': 3, 'ITIDur1': 1, 'ITIDur2': 1}
483.7360 	EXP 	iti2: autoDraw = False
483.7360 	EXP 	iti2: autoDraw = False
483.7360 	EXP 	choice: height = 0.15
483.7360 	EXP 	choice: height = 0.15
483.7360 	EXP 	choice: height = 0.15
483.7360 	EXP 	choice: text = '     17 points\n\n53% win      47% lose\n\n  Accept         Decline  '
483.7360 	EXP 	choice: autoDraw = True
484.8352 	DATA 	Keypress: 1
486.5694 	DATA 	Keypress: equal
486.7472 	EXP 	choice: autoDraw = False
486.7472 	EXP 	choice: autoDraw = False
486.7472 	EXP 	iti1: autoDraw = True
487.7515 	EXP 	iti1: autoDraw = False
487.7515 	EXP 	iti1: autoDraw = False
487.7515 	EXP 	feedback: height = 0.15
487.7515 	EXP 	feedback: height = 0.15
487.7515 	EXP 	feedback: height = 0.15
487.7515 	EXP 	feedback: text = '  -17 points\n \n\n Total 1979 points'
487.7515 	EXP 	feedback: autoDraw = True
489.2641 	EXP 	feedback: autoDraw = False
489.2641 	EXP 	iti2: autoDraw = True
489.6511 	DATA 	Keypress: equal
490.2492 	EXP 	New trial (rep=0, index=49): {'Win': 9, 'Lose': 91, 'Value': 13, 'RealValue': 13, 'Label': 'ProbLL_valueL', 'ChoiceDur': 3, 'ITIDur1': 5, 'ITIDur2': 1}
490.2694 	EXP 	iti2: autoDraw = False
490.2694 	EXP 	iti2: autoDraw = False
490.2694 	EXP 	choice: height = 0.15
490.2694 	EXP 	choice: height = 0.15
490.2694 	EXP 	choice: height = 0.15
490.2694 	EXP 	choice: text = '     13 points\n\n9% win      91% lose\n\n  Accept         Decline  '
490.2694 	EXP 	choice: autoDraw = True
491.3687 	DATA 	Keypress: 2
492.7527 	DATA 	Keypress: equal
493.2805 	EXP 	choice: autoDraw = False
493.2805 	EXP 	choice: autoDraw = False
493.2805 	EXP 	iti1: autoDraw = True
495.8346 	DATA 	Keypress: equal
498.2837 	EXP 	iti1: autoDraw = False
498.2837 	EXP 	iti1: autoDraw = False
498.2837 	EXP 	feedback: height = 0.15
498.2837 	EXP 	feedback: height = 0.15
498.2837 	EXP 	feedback: height = 0.15
498.2837 	EXP 	feedback: text = '  (+13) points\n \n\n Total 1979 points'
498.2837 	EXP 	feedback: autoDraw = True
498.9187 	DATA 	Keypress: equal
499.7973 	EXP 	feedback: autoDraw = False
499.7973 	EXP 	iti2: autoDraw = True
500.7822 	EXP 	New trial (rep=0, index=50): {'Win': 44, 'Lose': 56, 'Value': 1107, 'RealValue': -1107, 'Label': 'ProbMM_valueSH', 'ChoiceDur': 1.5, 'ITIDur1': 1, 'ITIDur2': 3}
500.8045 	EXP 	iti2: autoDraw = False
500.8045 	EXP 	iti2: autoDraw = False
500.8045 	EXP 	choice: height = 0.15
500.8045 	EXP 	choice: height = 0.15
500.8045 	EXP 	choice: height = 0.15
500.8045 	EXP 	choice: text = '     1107 points\n\n44% win      56% lose\n\n  Accept         Decline  '
500.8045 	EXP 	choice: autoDraw = True
501.9159 	DATA 	Keypress: 2
502.0024 	DATA 	Keypress: equal
502.3141 	EXP 	choice: autoDraw = False
502.3141 	EXP 	choice: autoDraw = False
502.3141 	EXP 	iti1: autoDraw = True
503.3177 	EXP 	iti1: autoDraw = False
503.3177 	EXP 	iti1: autoDraw = False
503.3177 	EXP 	feedback: height = 0.15
503.3177 	EXP 	feedback: height = 0.15
503.3177 	EXP 	feedback: height = 0.15
503.3177 	EXP 	feedback: text = '  (-1107) points\n \n\n Total 1979 points'
503.3177 	EXP 	feedback: autoDraw = True
504.8307 	EXP 	feedback: autoDraw = False
504.8307 	EXP 	iti2: autoDraw = True
505.0854 	DATA 	Keypress: equal
507.8147 	EXP 	New trial (rep=0, index=51): {'Win': 55, 'Lose': 45, 'Value': 1029, 'RealValue': -1029, 'Label': 'ProbMM_valueSH', 'ChoiceDur': 1.5, 'ITIDur1': 5, 'ITIDur2': 1}
507.8321 	EXP 	iti2: autoDraw = False
507.8321 	EXP 	iti2: autoDraw = False
507.8321 	EXP 	choice: height = 0.15
507.8321 	EXP 	choice: height = 0.15
507.8321 	EXP 	choice: height = 0.15
507.8321 	EXP 	choice: text = '     1029 points\n\n55% win      45% lose\n\n  Accept         Decline  '
507.8321 	EXP 	choice: autoDraw = True
508.1698 	DATA 	Keypress: equal
508.8499 	DATA 	Keypress: 1
509.3475 	EXP 	choice: autoDraw = False
509.3475 	EXP 	choice: autoDraw = False
509.3475 	EXP 	iti1: autoDraw = True
511.2511 	DATA 	Keypress: equal
514.3478 	DATA 	Keypress: equal
514.3523 	EXP 	iti1: autoDraw = False
514.3523 	EXP 	iti1: autoDraw = False
514.3523 	EXP 	feedback: height = 0.15
514.3523 	EXP 	feedback: height = 0.15
514.3523 	EXP 	feedback: height = 0.15
514.3523 	EXP 	feedback: text = '  -1029 points\n \n\n Total 950 points'
514.3523 	EXP 	feedback: autoDraw = True
515.8640 	EXP 	feedback: autoDraw = False
515.8640 	EXP 	iti2: autoDraw = True
516.8488 	EXP 	New trial (rep=0, index=52): {'Win': 46, 'Lose': 54, 'Value': 86, 'RealValue': -86, 'Label': 'ProbMM_valueH', 'ChoiceDur': 3, 'ITIDur1': 5, 'ITIDur2': 3}
516.8695 	EXP 	iti2: autoDraw = False
516.8695 	EXP 	iti2: autoDraw = False
516.8695 	EXP 	choice: height = 0.15
516.8695 	EXP 	choice: height = 0.15
516.8695 	EXP 	choice: height = 0.15
516.8695 	EXP 	choice: text = '     86 points\n\n46% win      54% lose\n\n  Accept         Decline  '
516.8695 	EXP 	choice: autoDraw = True
517.4330 	DATA 	Keypress: equal
518.0324 	DATA 	Keypress: 2
519.8809 	EXP 	choice: autoDraw = False
519.8809 	EXP 	choice: autoDraw = False
519.8809 	EXP 	iti1: autoDraw = True
520.5176 	DATA 	Keypress: equal
523.6019 	DATA 	Keypress: equal
524.8844 	EXP 	iti1: autoDraw = False
524.8844 	EXP 	iti1: autoDraw = False
524.8844 	EXP 	feedback: height = 0.15
524.8844 	EXP 	feedback: height = 0.15
524.8844 	EXP 	feedback: height = 0.15
524.8844 	EXP 	feedback: text = '  (-86) points\n \n\n Total 950 points'
524.8844 	EXP 	feedback: autoDraw = True
526.3808 	EXP 	feedback: autoDraw = False
526.3808 	EXP 	iti2: autoDraw = True
526.6852 	DATA 	Keypress: equal
529.3659 	EXP 	New trial (rep=0, index=53): {'Win': 5, 'Lose': 95, 'Value': 89, 'RealValue': -89, 'Label': 'ProbLL_valueH', 'ChoiceDur': 3, 'ITIDur1': 3, 'ITIDur2': 1}
529.3893 	EXP 	iti2: autoDraw = False
529.3893 	EXP 	iti2: autoDraw = False
529.3893 	EXP 	choice: height = 0.15
529.3893 	EXP 	choice: height = 0.15
529.3893 	EXP 	choice: height = 0.15
529.3893 	EXP 	choice: text = '     89 points\n\n5% win      95% lose\n\n  Accept         Decline  '
529.3893 	EXP 	choice: autoDraw = True
529.7695 	DATA 	Keypress: equal
530.3500 	DATA 	Keypress: 2
532.3975 	EXP 	choice: autoDraw = False
532.3975 	EXP 	choice: autoDraw = False
532.3975 	EXP 	iti1: autoDraw = True
532.8522 	DATA 	Keypress: equal
535.4028 	EXP 	iti1: autoDraw = False
535.4028 	EXP 	iti1: autoDraw = False
535.4028 	EXP 	feedback: height = 0.15
535.4028 	EXP 	feedback: height = 0.15
535.4028 	EXP 	feedback: height = 0.15
535.4028 	EXP 	feedback: text = '  (-89) points\n \n\n Total 950 points'
535.4028 	EXP 	feedback: autoDraw = True
535.9354 	DATA 	Keypress: equal
536.9143 	EXP 	feedback: autoDraw = False
536.9143 	EXP 	iti2: autoDraw = True
537.8992 	EXP 	New trial (rep=0, index=54): {'Win': 85, 'Lose': 15, 'Value': 93, 'RealValue': 93, 'Label': 'ProbHH_valueH', 'ChoiceDur': 3, 'ITIDur1': 3, 'ITIDur2': 4}
537.9215 	EXP 	iti2: autoDraw = False
537.9215 	EXP 	iti2: autoDraw = False
537.9215 	EXP 	choice: height = 0.15
537.9215 	EXP 	choice: height = 0.15
537.9215 	EXP 	choice: height = 0.15
537.9215 	EXP 	choice: text = '     93 points\n\n85% win      15% lose\n\n  Accept         Decline  '
537.9215 	EXP 	choice: autoDraw = True
538.8834 	DATA 	Keypress: 1
539.0326 	DATA 	Keypress: equal
540.9310 	EXP 	choice: autoDraw = False
540.9310 	EXP 	choice: autoDraw = False
540.9310 	EXP 	iti1: autoDraw = True
542.1173 	DATA 	Keypress: equal
543.9317 	EXP 	iti1: autoDraw = False
543.9317 	EXP 	iti1: autoDraw = False
543.9317 	EXP 	feedback: height = 0.15
543.9317 	EXP 	feedback: height = 0.15
543.9317 	EXP 	feedback: height = 0.15
543.9317 	EXP 	feedback: text = '  +93 points\n \n\n Total 1043 points'
543.9317 	EXP 	feedback: autoDraw = True
545.1984 	DATA 	Keypress: equal
545.4312 	EXP 	feedback: autoDraw = False
545.4312 	EXP 	feedback: autoDraw = False
545.4312 	EXP 	iti2: autoDraw = True
548.2850 	DATA 	Keypress: equal
549.4159 	EXP 	New trial (rep=0, index=55): {'Win': 10, 'Lose': 90, 'Value': 5, 'RealValue': -5, 'Label': 'ProbLL_valueL', 'ChoiceDur': 3, 'ITIDur1': 1, 'ITIDur2': 4}
549.4377 	EXP 	iti2: autoDraw = False
549.4377 	EXP 	iti2: autoDraw = False
549.4377 	EXP 	choice: height = 0.15
549.4377 	EXP 	choice: height = 0.15
549.4377 	EXP 	choice: height = 0.15
549.4377 	EXP 	choice: text = '     5 points\n\n10% win      90% lose\n\n  Accept         Decline  '
549.4377 	EXP 	choice: autoDraw = True
550.6002 	DATA 	Keypress: 2
551.3698 	DATA 	Keypress: equal
552.4481 	EXP 	choice: autoDraw = False
552.4481 	EXP 	choice: autoDraw = False
552.4481 	EXP 	iti1: autoDraw = True
553.4509 	EXP 	iti1: autoDraw = False
553.4509 	EXP 	iti1: autoDraw = False
553.4509 	EXP 	feedback: height = 0.15
553.4509 	EXP 	feedback: height = 0.15
553.4509 	EXP 	feedback: height = 0.15
553.4509 	EXP 	feedback: text = '  (-5) points\n \n\n Total 1043 points'
553.4509 	EXP 	feedback: autoDraw = True
554.4525 	DATA 	Keypress: equal
554.9645 	EXP 	feedback: autoDraw = False
554.9645 	EXP 	iti2: autoDraw = True
557.5519 	DATA 	Keypress: equal
558.9496 	EXP 	New trial (rep=0, index=56): {'Win': 80, 'Lose': 20, 'Value': 10, 'RealValue': 10, 'Label': 'ProbHH_valueL', 'ChoiceDur': 3, 'ITIDur1': 2, 'ITIDur2': 8}
558.9704 	EXP 	iti2: autoDraw = False
558.9704 	EXP 	iti2: autoDraw = False
558.9704 	EXP 	choice: height = 0.15
558.9704 	EXP 	choice: height = 0.15
558.9704 	EXP 	choice: height = 0.15
558.9704 	EXP 	choice: text = '     10 points\n\n80% win      20% lose\n\n  Accept         Decline  '
558.9704 	EXP 	choice: autoDraw = True
559.8530 	DATA 	Keypress: 1
560.6328 	DATA 	Keypress: equal
561.9808 	EXP 	choice: autoDraw = False
561.9808 	EXP 	choice: autoDraw = False
561.9808 	EXP 	iti1: autoDraw = True
563.7188 	DATA 	Keypress: equal
563.9838 	EXP 	iti1: autoDraw = False
563.9838 	EXP 	iti1: autoDraw = False
563.9838 	EXP 	feedback: height = 0.15
563.9838 	EXP 	feedback: height = 0.15
563.9838 	EXP 	feedback: height = 0.15
563.9838 	EXP 	feedback: text = '  +10 points\n \n\n Total 1053 points'
563.9838 	EXP 	feedback: autoDraw = True
565.4978 	EXP 	feedback: autoDraw = False
565.4978 	EXP 	iti2: autoDraw = True
566.8001 	DATA 	Keypress: equal
569.8857 	DATA 	Keypress: equal
572.9686 	DATA 	Keypress: equal
573.4979 	EXP 	iti2: autoDraw = False
573.4979 	EXP 	iti2: autoDraw = False
573.4979 	EXP 	longiti2: autoDraw = True
576.0522 	DATA 	Keypress: equal
579.1514 	DATA 	Keypress: equal
582.2338 	DATA 	Keypress: equal
585.3195 	DATA 	Keypress: equal
588.4022 	DATA 	Keypress: equal
591.4857 	DATA 	Keypress: equal
593.5191 	EXP 	longiti2: autoDraw = False
593.5191 	EXP 	longiti2: autoDraw = False
593.5191 	EXP 	text: height = 0.1
593.5191 	EXP 	text: height = 0.1
593.5191 	EXP 	text: height = 0.1
593.5191 	EXP 	text: text = 'You are done with the first part! \nSo far you have collected 1053 points.\n\nWe will now take a short break.'
593.5191 	EXP 	text: autoDraw = True
595.4024 	DATA 	Keypress: equal
597.5149 	EXP 	text: autoDraw = False
597.5151 	EXP 	ADMT_r2: status = STOPPED
597.6145 	EXP 	window1: mouseVisible = True
