State		Iter	X	Y 	Angle	Timestamp
location	0	0	0	0	08:56:36.881
location	1	0	0	0	08:56:37.128
location	2	0	0	0	08:56:37.378
location	3	0	0	0	08:56:37.628
location	4	0	0	0	08:56:37.879
location	5	0	0	0	08:56:38.127
location	6	0	0	0	08:56:38.378
location	7	0	0	0	08:56:38.629
location	8	0	0	0	08:56:38.879
location	9	0	0	0	08:56:39.130
location	10	0	0	0	08:56:39.378
location	11	0	0	0	08:56:39.628
location	12	0	0	0	08:56:39.879
location	13	0	0	0	08:56:40.128
location	14	0	0	0	08:56:40.379
location	15	0	0	0	08:56:40.629
location	16	0	0	0	08:56:40.879
location	17	0	0	0	08:56:41.128
location	18	0	0	0	08:56:41.379
location	19	0	0	0	08:56:41.628
location	20	0	0	0	08:56:41.879
location	21	0	0	0	08:56:42.129
location	22	0	0	0	08:56:42.378
location	23	0	0	0	08:56:42.630
location	24	0	0	0	08:56:42.879
location	25	0	0	0	08:56:43.127
location	26	0	0	0	08:56:43.379
location	27	0	0	0	08:56:43.629
location	28	0	0	0	08:56:43.879
location	29	0	0	0	08:56:44.129
location	30	0	0	0	08:56:44.379
location	31	0	0	0	08:56:44.629
location	32	0	0	0	08:56:44.880
location	33	0	0	0	08:56:45.129
location	34	0	0	0	08:56:45.380
location	35	0	0	0	08:56:45.629
location	36	0	0	0	08:56:45.879
location	37	0	0	0	08:56:46.129
location	38	0	0	0	08:56:46.379
location	39	0	0	0	08:56:46.629
location	40	0	0	0	08:56:46.879
location	41	0	0	0	08:56:47.129
location	42	0	0	0	08:56:47.378
location	43	0	0	0	08:56:47.629
location	44	0	0	0	08:56:47.879
location	45	0	0	0	08:56:48.130
location	46	0	0	0	08:56:48.379
location	47	0	0	0	08:56:48.629
location	48	0	0	0	08:56:48.879
location	49	0	0	0	08:56:49.126
location	50	0	0	0	08:56:49.379
location	51	0	0	0	08:56:49.629
location	52	0	0	315	08:56:49.879
location	53	0	0	315	08:56:50.126
location	54	0	0	315	08:56:50.376
location	55	0	0	315	08:56:50.626
location	56	0	0	315	08:56:50.876
location	57	0	0	315	08:56:51.126
location	58	0	0	315	08:56:51.376
location	59	0	0	315	08:56:51.626
location	60	0	0	315	08:56:51.876
location	61	0	0	315	08:56:52.126
location	62	0	0	315	08:56:52.376
location	63	0	0	315	08:56:52.626
location	64	0	0	315	08:56:52.876
location	65	0	0	315	08:56:53.126
location	66	0	0	315	08:56:53.376
location	67	0	0	315	08:56:53.626
location	68	0	0	315	08:56:53.876
location	69	0	0	315	08:56:54.126
location	70	0	0	315	08:56:54.376
location	71	0	0	315	08:56:54.626
location	72	0	0	315	08:56:54.876
location	73	0	0	315	08:56:55.126
location	74	0	0	315	08:56:55.376
location	75	0	0	315	08:56:55.626
location	76	0	0	315	08:56:55.876
location	77	0	0	315	08:56:56.127
location	78	0	0	315	08:56:56.376
location	79	0	0	315	08:56:56.626
location	80	0	0	315	08:56:56.876
location	81	0	0	315	08:56:57.126
location	82	0	0	315	08:56:57.376
location	83	0	0	315	08:56:57.626
location	84	0	0	315	08:56:57.876
location	85	0	0	315	08:56:58.126
location	86	0	0	315	08:56:58.376
location	87	0	0	315	08:56:58.626
location	88	0	0	315	08:56:58.876
location	89	0	0	315	08:56:59.126
location	90	0	0	315	08:56:59.377
location	91	0	0	270	08:56:59.626
location	92	0	0	270	08:56:59.875
location	93	0	0	270	08:57:00.124
location	94	0	0	270	08:57:00.375
location	95	0	0	270	08:57:00.625
location	96	0	0	270	08:57:00.875
location	97	0	0	270	08:57:01.125
location	98	0	0	270	08:57:01.375
location	99	1	20	270	08:57:01.625
location	100	1	20	270	08:57:01.875
location	101	1	20	270	08:57:02.124
location	102	1	20	270	08:57:02.375
location	103	1	20	270	08:57:02.625
location	104	0	20	270	08:57:02.874
location	105	0	20	270	08:57:03.124
location	106	0	20	270	08:57:03.374
location	107	0	20	270	08:57:03.624
location	108	0	20	270	08:57:03.874
location	109	0	20	270	08:57:04.124
location	110	0	20	270	08:57:04.374
location	111	0	20	270	08:57:04.624
location	112	0	20	270	08:57:04.875
location	113	0	20	270	08:57:05.124
location	114	0	20	270	08:57:05.375
location	115	0	20	270	08:57:05.624
location	116	0	20	270	08:57:05.875
location	117	0	20	270	08:57:06.124
location	118	0	20	270	08:57:06.374
location	119	0	20	270	08:57:06.625
location	120	0	20	270	08:57:06.875
location	121	0	20	270	08:57:07.125
location	122	0	20	315	08:57:07.375
location	123	0	20	315	08:57:07.627
location	124	0	20	315	08:57:07.876
location	125	0	20	315	08:57:08.125
location	126	0	20	315	08:57:08.375
location	127	0	20	315	08:57:08.626
location	128	0	20	315	08:57:08.876
location	129	0	20	315	08:57:09.125
location	130	0	20	315	08:57:09.375
location	131	0	20	315	08:57:09.626
location	132	0	20	315	08:57:09.875
location	133	0	20	315	08:57:10.125
location	134	0	20	315	08:57:10.375
location	135	0	20	315	08:57:10.625
location	136	0	20	315	08:57:10.875
location	137	0	20	315	08:57:11.125
location	138	0	20	315	08:57:11.375
location	139	0	20	315	08:57:11.625
location	140	0	20	315	08:57:11.875
location	141	0	20	315	08:57:12.125
location	142	0	20	315	08:57:12.375
location	143	0	20	315	08:57:12.626
location	144	0	20	315	08:57:12.876
location	145	0	20	315	08:57:13.125
location	146	0	20	315	08:57:13.375
location	147	0	20	315	08:57:13.625
location	148	0	20	0	08:57:13.875
location	149	0	20	0	08:57:14.128
location	150	0	20	0	08:57:14.378
location	151	0	20	0	08:57:14.629
location	152	0	19	0	08:57:14.878
location	153	0	19	0	08:57:15.128
location	154	0	19	0	08:57:15.379
location	155	0	18	0	08:57:15.630
location	156	0	18	0	08:57:15.880
location	157	0	18	0	08:57:16.128
location	158	0	17	0	08:57:16.378
location	159	0	17	0	08:57:16.628
location	160	0	17	0	08:57:16.878
location	161	0	17	0	08:57:17.128
location	162	0	16	0	08:57:17.378
location	163	0	16	0	08:57:17.628
location	164	0	16	0	08:57:17.878
location	165	0	16	0	08:57:18.127
location	166	0	16	0	08:57:18.378
location	167	0	16	0	08:57:18.628
location	168	0	16	0	08:57:18.878
location	169	0	16	0	08:57:19.127
location	170	0	16	0	08:57:19.378
location	171	0	16	0	08:57:19.627
location	172	0	16	0	08:57:19.877
location	173	0	16	0	08:57:20.128
location	174	0	16	0	08:57:20.377
location	175	0	16	0	08:57:20.627
location	176	0	16	0	08:57:20.878
location	177	0	16	0	08:57:21.129
location	178	0	16	0	08:57:21.378
location	179	0	16	0	08:57:21.627
location	180	0	16	0	08:57:21.878
location	181	0	16	0	08:57:22.127
location	182	0	16	0	08:57:22.377
location	183	0	16	0	08:57:22.628
location	184	0	16	0	08:57:22.875
location	185	0	16	0	08:57:23.124
location	186	0	16	0	08:57:23.374
location	187	0	16	0	08:57:23.628
location	188	0	16	0	08:57:23.877
location	189	0	16	0	08:57:24.129
location	190	0	16	0	08:57:24.378
location	191	0	16	0	08:57:24.627
location	192	0	16	0	08:57:24.878
location	193	0	16	0	08:57:25.128
location	194	0	16	0	08:57:25.378
location	195	0	16	0	08:57:25.627
location	196	0	16	0	08:57:25.878
location	197	0	16	0	08:57:26.128
location	198	0	16	0	08:57:26.377
location	199	0	16	0	08:57:26.627
location	200	0	16	0	08:57:26.877
location	201	0	16	0	08:57:27.128
location	202	0	16	0	08:57:27.377
location	203	0	16	0	08:57:27.628
location	204	0	16	0	08:57:27.877
location	205	0	16	0	08:57:28.128
location	206	0	16	0	08:57:28.377
location	207	0	16	0	08:57:28.628
location	208	0	16	0	08:57:28.877
location	209	0	16	0	08:57:29.127
location	210	0	16	0	08:57:29.378
location	211	0	16	0	08:57:29.627
location	212	0	16	0	08:57:29.878
location	213	0	16	0	08:57:30.128
location	214	0	16	0	08:57:30.377
location	215	0	16	0	08:57:30.627
location	216	0	16	0	08:57:30.878
location	217	0	16	0	08:57:31.128
location	218	0	16	0	08:57:31.378
location	219	0	16	0	08:57:31.627
location	220	0	16	0	08:57:31.878
location	221	0	16	0	08:57:32.127
location	222	0	16	0	08:57:32.377
location	223	0	16	0	08:57:32.627
location	224	0	16	315	08:57:32.878
location	225	0	16	315	08:57:33.125
location	226	0	16	315	08:57:33.375
location	227	0	16	315	08:57:33.625
location	228	0	16	315	08:57:33.875
location	229	0	16	315	08:57:34.125
location	230	0	16	315	08:57:34.375
location	231	0	16	270	08:57:34.625
location	232	0	16	270	08:57:34.874
location	233	0	16	270	08:57:35.124
location	234	0	16	270	08:57:35.374
location	235	0	16	270	08:57:35.624
location	236	0	16	225	08:57:35.874
location	237	0	16	225	08:57:36.125
location	238	0	16	225	08:57:36.375
location	239	0	16	225	08:57:36.624
location	240	0	16	225	08:57:36.875
location	241	0	16	225	08:57:37.125
location	242	0	16	225	08:57:37.375
location	243	0	16	225	08:57:37.625
location	244	0	16	225	08:57:37.874
location	245	0	16	225	08:57:38.125
location	246	0	16	225	08:57:38.374
location	247	0	16	225	08:57:38.625
location	248	0	16	225	08:57:38.875
location	249	0	16	180	08:57:39.125
location	250	0	16	180	08:57:39.375
location	251	0	16	180	08:57:39.625
location	252	0	16	180	08:57:39.875
location	253	0	16	180	08:57:40.125
location	254	0	16	180	08:57:40.375
location	255	0	16	180	08:57:40.625
location	256	0	17	180	08:57:40.875
location	257	0	17	180	08:57:41.125
location	258	0	17	180	08:57:41.375
location	259	0	18	180	08:57:41.625
location	260	0	18	180	08:57:41.875
location	261	0	18	180	08:57:42.125
location	262	0	18	180	08:57:42.374
location	263	0	18	180	08:57:42.625
location	264	0	18	180	08:57:42.875
location	265	0	19	180	08:57:43.125
location	266	0	19	180	08:57:43.375
location	267	0	19	180	08:57:43.625
location	268	0	19	180	08:57:43.874
location	269	0	19	180	08:57:44.125
location	270	0	19	180	08:57:44.375
location	271	0	19	180	08:57:44.625
location	272	0	19	180	08:57:44.875
location	273	0	19	180	08:57:45.124
location	274	0	19	180	08:57:45.374
location	275	0	19	180	08:57:45.625
location	276	0	20	180	08:57:45.875
location	277	0	20	180	08:57:46.124
location	278	0	20	180	08:57:46.375
location	279	0	20	180	08:57:46.624
location	280	0	20	180	08:57:46.874
location	281	0	20	180	08:57:47.124
location	282	0	20	180	08:57:47.374
location	283	0	20	180	08:57:47.625
location	284	0	20	180	08:57:47.874
location	285	0	20	180	08:57:48.125
location	286	0	20	180	08:57:48.375
location	287	0	20	180	08:57:48.624
location	288	0	20	135	08:57:48.874
location	289	0	20	135	08:57:49.126
location	290	0	20	135	08:57:49.375
location	291	0	20	135	08:57:49.625
location	292	0	20	135	08:57:49.875
location	293	0	20	135	08:57:50.125
location	294	0	20	135	08:57:50.375
location	295	0	20	135	08:57:50.625
location	296	0	20	135	08:57:50.875
location	297	0	20	135	08:57:51.125
location	298	0	20	135	08:57:51.375
location	299	0	20	135	08:57:51.625
location	300	0	20	135	08:57:51.875
location	301	0	20	135	08:57:52.125
location	302	0	20	135	08:57:52.374
location	303	0	20	135	08:57:52.625
location	304	0	20	135	08:57:52.874
location	305	0	20	135	08:57:53.125
location	306	0	20	135	08:57:53.374
location	307	0	20	135	08:57:53.625
location	308	0	20	90	08:57:53.874
location	309	0	20	45	08:57:54.126
location	310	0	20	45	08:57:54.379
location	311	0	20	90	08:57:54.629
location	312	0	20	90	08:57:54.875
location	313	0	20	90	08:57:55.126
location	314	0	20	90	08:57:55.375
location	315	0	20	90	08:57:55.625
location	316	0	20	90	08:57:55.876
location	317	0	20	90	08:57:56.125
location	318	0	20	90	08:57:56.376
location	319	0	20	90	08:57:56.626
location	320	0	20	90	08:57:56.875
location	321	0	20	90	08:57:57.126
location	322	0	20	90	08:57:57.377
location	323	0	20	90	08:57:57.625
location	324	0	20	90	08:57:57.876
location	325	0	20	90	08:57:58.126
location	326	0	20	90	08:57:58.376
location	327	0	20	45	08:57:58.626
location	328	0	20	45	08:57:58.878
location	329	0	20	90	08:57:59.127
location	330	0	20	90	08:57:59.376
location	331	0	20	90	08:57:59.626
location	332	1	20	90	08:57:59.876
location	333	2	20	90	08:58:00.125
location	334	2	20	90	08:58:00.375
location	335	2	20	90	08:58:00.625
location	336	2	20	90	08:58:00.875
location	337	2	20	90	08:58:01.125
location	338	2	20	90	08:58:01.375
location	339	2	20	90	08:58:01.625
location	340	2	20	90	08:58:01.875
location	341	2	20	90	08:58:02.125
location	342	2	20	45	08:58:02.375
location	343	2	20	0	08:58:02.628
location	344	2	20	0	08:58:02.879
location	345	2	20	0	08:58:03.129
location	346	2	20	0	08:58:03.379
location	347	2	20	0	08:58:03.628
location	348	2	20	0	08:58:03.877
location	349	2	20	315	08:58:04.129
location	350	2	20	315	08:58:04.376
location	351	2	20	315	08:58:04.626
location	352	2	20	315	08:58:04.876
location	353	2	20	315	08:58:05.125
location	354	2	20	315	08:58:05.376
location	355	2	20	315	08:58:05.628
location	356	2	20	315	08:58:05.876
location	357	2	20	315	08:58:06.126
location	358	2	20	315	08:58:06.376
location	359	2	20	315	08:58:06.626
location	360	2	20	315	08:58:06.876
location	361	2	20	315	08:58:07.126
location	362	2	20	0	08:58:07.377
location	363	2	20	0	08:58:07.627
location	364	2	20	0	08:58:07.877
location	365	2	20	45	08:58:08.129
location	366	2	20	45	08:58:08.378
location	367	2	20	45	08:58:08.628
location	368	2	20	45	08:58:08.877
location	369	2	20	45	08:58:09.128
location	370	2	20	45	08:58:09.376
location	371	2	20	45	08:58:09.628
location	372	2	20	45	08:58:09.878
location	373	2	20	45	08:58:10.128
location	374	2	20	45	08:58:10.378
location	375	2	20	45	08:58:10.628
location	376	2	20	45	08:58:10.878
location	377	2	20	45	08:58:11.128
location	378	2	20	45	08:58:11.378
location	379	2	20	45	08:58:11.628
location	380	2	20	90	08:58:11.878
location	381	2	20	90	08:58:12.125
location	382	2	20	90	08:58:12.375
location	383	3	20	90	08:58:12.625
location	384	3	20	90	08:58:12.875
location	385	3	20	90	08:58:13.125
location	386	4	20	90	08:58:13.375
location	387	4	20	90	08:58:13.624
location	388	4	20	90	08:58:13.874
location	389	4	20	135	08:58:14.124
location	390	4	20	135	08:58:14.374
location	391	4	20	135	08:58:14.624
location	392	4	20	135	08:58:14.874
location	393	4	20	180	08:58:15.124
location	394	4	20	180	08:58:15.374
location	395	4	20	180	08:58:15.624
location	396	4	20	225	08:58:15.874
location	397	4	20	225	08:58:16.125
location	398	4	20	225	08:58:16.375
location	399	4	20	225	08:58:16.624
location	400	4	20	225	08:58:16.874
location	401	4	20	225	08:58:17.124
location	402	4	20	225	08:58:17.375
location	403	4	20	225	08:58:17.624
location	404	4	20	225	08:58:17.874
location	405	4	20	225	08:58:18.124
location	406	4	20	225	08:58:18.374
location	407	4	20	270	08:58:18.625
location	408	4	20	270	08:58:18.876
location	409	4	20	270	08:58:19.124
location	410	3	20	270	08:58:19.375
location	411	3	20	270	08:58:19.625
location	412	2	20	270	08:58:19.875
location	413	2	20	270	08:58:20.125
location	414	2	20	270	08:58:20.375
location	415	1	20	270	08:58:20.625
location	416	1	20	270	08:58:20.875
location	417	1	20	270	08:58:21.124
location	418	1	20	270	08:58:21.375
location	419	1	20	270	08:58:21.624
location	420	0	20	270	08:58:21.876
location	421	0	20	270	08:58:22.124
location	422	0	20	270	08:58:22.374
location	423	0	20	315	08:58:22.624
location	424	0	20	315	08:58:22.875
location	425	0	20	315	08:58:23.125
location	426	0	20	315	08:58:23.375
location	427	0	20	0	08:58:23.624
location	428	0	20	0	08:58:23.876
location	429	0	20	0	08:58:24.128
location	430	0	20	0	08:58:24.376
location	431	0	19	0	08:58:24.629
location	432	0	19	0	08:58:24.878
location	433	0	19	0	08:58:25.129
location	434	0	19	0	08:58:25.379
location	435	0	19	0	08:58:25.629
location	436	0	19	0	08:58:25.878
location	437	0	19	0	08:58:26.129
location	438	0	19	0	08:58:26.378
location	439	0	19	0	08:58:26.628
location	440	0	19	0	08:58:26.878
location	441	0	19	0	08:58:27.128
location	442	0	19	0	08:58:27.379
location	443	0	19	0	08:58:27.628
location	444	0	19	0	08:58:27.879
location	445	0	19	0	08:58:28.128
location	446	0	19	0	08:58:28.379
location	447	0	19	0	08:58:28.628
location	448	0	19	0	08:58:28.878
location	449	0	19	0	08:58:29.128
location	450	0	19	0	08:58:29.378
location	451	0	19	0	08:58:29.628
location	452	0	19	0	08:58:29.878
location	453	0	19	0	08:58:30.130
location	454	0	19	0	08:58:30.378
location	455	0	19	0	08:58:30.628
location	456	0	19	0	08:58:30.877
location	457	0	19	0	08:58:31.128
location	458	0	19	0	08:58:31.378
location	459	0	19	0	08:58:31.628
location	460	0	19	0	08:58:31.878
location	461	0	19	0	08:58:32.129
location	462	0	19	0	08:58:32.379
location	463	0	19	0	08:58:32.629
location	464	0	19	0	08:58:32.878
location	465	0	19	0	08:58:33.128
location	466	0	19	0	08:58:33.378
location	467	0	19	0	08:58:33.629
location	468	0	19	0	08:58:33.878
location	469	0	19	0	08:58:34.129
location	470	0	19	0	08:58:34.378
location	471	0	19	0	08:58:34.628
location	472	0	19	0	08:58:34.878
location	473	0	19	0	08:58:35.128
location	474	0	19	0	08:58:35.378
location	475	0	19	0	08:58:35.628
location	476	0	19	0	08:58:35.879
location	477	0	19	0	08:58:36.128
location	478	0	19	0	08:58:36.377
location	479	0	19	0	08:58:36.629
location	480	0	19	0	08:58:36.879
location	481	0	19	0	08:58:37.129
location	482	0	19	0	08:58:37.378
location	483	0	19	0	08:58:37.628
location	484	0	19	0	08:58:37.876
location	485	0	19	0	08:58:38.128
location	486	0	19	0	08:58:38.379
location	487	0	19	0	08:58:38.634
location	488	0	19	0	08:58:38.878
location	489	0	19	0	08:58:39.127
location	490	0	19	0	08:58:39.378
location	491	0	19	0	08:58:39.628
location	492	0	19	0	08:58:39.878
location	493	0	19	0	08:58:40.128
location	494	0	19	0	08:58:40.378
location	495	0	19	0	08:58:40.628
location	496	0	19	0	08:58:40.878
location	497	0	19	0	08:58:41.128
location	498	0	19	0	08:58:41.379
location	499	0	19	0	08:58:41.629
location	500	0	19	0	08:58:41.878
location	501	0	19	0	08:58:42.129
location	502	0	19	0	08:58:42.379
location	503	0	19	0	08:58:42.629
location	504	0	19	0	08:58:42.879
location	505	0	19	0	08:58:43.128
location	506	0	19	0	08:58:43.378
location	507	0	19	0	08:58:43.628
location	508	0	19	0	08:58:43.879
location	509	0	19	0	08:58:44.128
location	510	0	19	0	08:58:44.378
location	511	0	19	0	08:58:44.629
location	512	0	19	0	08:58:44.879
location	513	0	19	0	08:58:45.129
location	514	0	19	0	08:58:45.379
location	515	0	19	0	08:58:45.629
location	516	0	19	0	08:58:45.878
location	517	0	19	0	08:58:46.128
location	518	0	19	0	08:58:46.378
location	519	0	19	0	08:58:46.629
location	520	0	19	0	08:58:46.880
location	521	0	19	0	08:58:47.129
location	522	0	19	0	08:58:47.377
location	523	0	19	0	08:58:47.628
location	524	0	19	0	08:58:47.879
location	525	0	19	0	08:58:48.128
location	526	0	19	0	08:58:48.378
location	527	0	19	0	08:58:48.628
location	528	0	19	0	08:58:48.878
location	529	0	19	0	08:58:49.129
location	530	0	19	0	08:58:49.377
location	531	0	19	0	08:58:49.628
location	532	0	19	0	08:58:49.879
location	533	0	19	0	08:58:50.129
location	534	0	19	0	08:58:50.379
location	535	0	19	0	08:58:50.629
location	536	0	19	0	08:58:50.878
location	537	0	19	0	08:58:51.128
location	538	0	19	0	08:58:51.375
location	539	0	19	0	08:58:51.629
location	540	0	19	0	08:58:51.879
location	541	0	19	0	08:58:52.128
location	542	0	19	0	08:58:52.378
location	543	0	19	0	08:58:52.629
location	544	0	19	0	08:58:52.878
location	545	0	19	0	08:58:53.128
location	546	0	19	0	08:58:53.378
location	547	0	19	0	08:58:53.636
location	548	0	19	0	08:58:53.879
location	549	0	19	0	08:58:54.128
location	550	0	19	0	08:58:54.377
location	551	0	19	0	08:58:54.627
location	552	0	19	0	08:58:54.878
location	553	0	19	0	08:58:55.129
location	554	0	19	0	08:58:55.378
location	555	0	19	0	08:58:55.628
location	556	0	19	0	08:58:55.879
location	557	0	19	0	08:58:56.129
location	558	0	19	0	08:58:56.379
location	559	0	19	0	08:58:56.629
location	560	0	19	0	08:58:56.877
location	561	0	19	0	08:58:57.127
location	562	0	19	0	08:58:57.378
location	563	0	19	0	08:58:57.628
location	564	0	19	0	08:58:57.878
location	565	0	19	0	08:58:58.129
location	566	0	19	0	08:58:58.378
location	567	0	19	0	08:58:58.629
location	568	0	19	0	08:58:58.878
location	569	0	19	315	08:58:59.129
location	570	0	19	315	08:58:59.375
location	571	0	19	315	08:58:59.625
location	572	0	19	315	08:58:59.875
location	573	0	19	315	08:59:00.124
location	574	0	19	270	08:59:00.375
location	575	0	19	270	08:59:00.625
location	576	0	19	270	08:59:00.874
location	577	0	19	270	08:59:01.124
location	578	0	19	225	08:59:01.374
location	579	0	19	225	08:59:01.624
location	580	0	19	225	08:59:01.874
location	581	0	19	180	08:59:02.125
location	582	0	19	180	08:59:02.374
location	583	0	19	180	08:59:02.625
location	584	0	19	180	08:59:02.875
location	585	0	19	135	08:59:03.124
location	586	0	19	135	08:59:03.375
location	587	0	19	135	08:59:03.625
location	588	0	19	90	08:59:03.875
location	589	0	19	90	08:59:04.126
location	590	0	19	90	08:59:04.376
location	591	0	19	45	08:59:04.626
location	592	0	19	45	08:59:04.878
location	593	0	19	45	08:59:05.129
location	594	0	19	45	08:59:05.378
location	595	0	19	45	08:59:05.629
location	596	0	19	45	08:59:05.878
location	597	0	19	45	08:59:06.128
location	598	0	19	45	08:59:06.379
location	599	0	19	45	08:59:06.629
location	600	0	19	45	08:59:06.879
location	601	0	19	45	08:59:07.129
location	602	0	19	45	08:59:07.378
location	603	0	19	45	08:59:07.629
location	604	0	19	45	08:59:07.878
location	605	0	19	45	08:59:08.129
location	606	0	19	45	08:59:08.379
location	607	0	19	45	08:59:08.629
location	608	0	19	45	08:59:08.879
location	609	0	19	90	08:59:09.129
location	610	0	19	90	08:59:09.375
location	611	0	19	90	08:59:09.626
location	612	0	19	90	08:59:09.876
location	613	0	19	135	08:59:10.126
location	614	0	19	135	08:59:10.375
location	615	0	19	135	08:59:10.625
location	616	0	19	135	08:59:10.875
location	617	0	19	135	08:59:11.125
location	618	0	19	135	08:59:11.374
location	619	0	19	135	08:59:11.625
location	620	0	19	180	08:59:11.876
location	621	0	19	180	08:59:12.124
location	622	0	19	180	08:59:12.375
location	623	0	19	180	08:59:12.624
location	624	0	19	180	08:59:12.874
location	625	0	20	180	08:59:13.124
location	626	0	20	180	08:59:13.374
location	627	0	20	180	08:59:13.624
location	628	0	20	180	08:59:13.875
location	629	0	20	180	08:59:14.124
location	630	0	20	180	08:59:14.374
location	631	0	20	225	08:59:14.624
location	632	0	20	225	08:59:14.874
location	633	0	20	225	08:59:15.124
location	634	0	20	225	08:59:15.374
location	635	0	20	270	08:59:15.624
location	636	0	20	270	08:59:15.874
location	637	0	20	270	08:59:16.124
location	638	0	20	270	08:59:16.374
location	639	0	20	270	08:59:16.624
location	640	0	20	315	08:59:16.874
location	641	0	20	315	08:59:17.125
location	642	0	20	315	08:59:17.375
location	643	0	20	315	08:59:17.625
location	644	0	20	315	08:59:17.875
location	645	0	20	315	08:59:18.125
location	646	0	20	0	08:59:18.375
location	647	0	20	0	08:59:18.630
location	648	0	20	0	08:59:18.879
location	649	0	20	0	08:59:19.129
location	650	0	20	0	08:59:19.379
location	651	0	20	0	08:59:19.629
location	652	0	20	0	08:59:19.878
location	653	0	20	0	08:59:20.130
location	654	0	20	0	08:59:20.378
location	655	0	20	0	08:59:20.629
location	656	0	20	0	08:59:20.879
location	657	0	20	0	08:59:21.129
location	658	0	20	0	08:59:21.379
location	659	0	20	0	08:59:21.629
location	660	0	19	0	08:59:21.878
location	661	0	19	0	08:59:22.129
location	662	0	19	0	08:59:22.378
location	663	0	18	0	08:59:22.628
location	664	0	18	0	08:59:22.878
location	665	0	18	0	08:59:23.129
location	666	0	18	0	08:59:23.378
location	667	0	18	0	08:59:23.628
location	668	0	17	0	08:59:23.878
location	669	0	17	0	08:59:24.124
location	670	0	17	0	08:59:24.376
location	671	0	17	0	08:59:24.627
location	672	0	17	0	08:59:24.877
location	673	0	17	0	08:59:25.128
location	674	0	17	0	08:59:25.377
location	675	0	17	0	08:59:25.628
location	676	0	17	0	08:59:25.878
location	677	0	17	0	08:59:26.128
location	678	0	17	0	08:59:26.378
location	679	0	17	0	08:59:26.628
location	680	0	17	0	08:59:26.878
location	681	0	17	0	08:59:27.128
location	682	0	17	0	08:59:27.378
location	683	0	17	0	08:59:27.628
location	684	0	17	0	08:59:27.878
location	685	0	17	0	08:59:28.128
location	686	0	17	0	08:59:28.379
location	687	0	17	0	08:59:28.628
location	688	0	17	0	08:59:28.878
location	689	0	17	0	08:59:29.128
location	690	0	17	0	08:59:29.378
location	691	0	17	0	08:59:29.628
location	692	0	17	0	08:59:29.877
location	693	0	17	0	08:59:30.127
location	694	0	17	45	08:59:30.377
location	695	0	17	45	08:59:30.628
location	696	0	17	45	08:59:30.878
location	697	0	17	45	08:59:31.128
location	698	0	17	45	08:59:31.379
location	699	0	17	45	08:59:31.628
location	700	0	17	90	08:59:31.878
location	701	0	17	90	08:59:32.126
location	702	0	17	90	08:59:32.376
location	703	0	17	90	08:59:32.626
location	704	0	17	90	08:59:32.877
location	705	0	17	90	08:59:33.127
location	706	0	17	90	08:59:33.376
location	707	0	17	90	08:59:33.626
location	708	0	17	90	08:59:33.876
location	709	0	17	90	08:59:34.126
location	710	0	17	90	08:59:34.377
location	711	0	17	90	08:59:34.626
location	712	0	17	45	08:59:34.876
location	713	0	17	45	08:59:35.128
location	714	0	17	45	08:59:35.378
location	715	0	17	45	08:59:35.628
location	716	0	17	45	08:59:35.877
location	717	0	17	45	08:59:36.128
location	718	0	17	45	08:59:36.379
location	719	0	17	45	08:59:36.629
location	720	0	17	45	08:59:36.878
location	721	0	17	45	08:59:37.128
location	722	0	17	45	08:59:37.378
location	723	0	17	45	08:59:37.629
location	724	0	17	45	08:59:37.878
location	725	0	17	45	08:59:38.129
location	726	0	17	45	08:59:38.378
location	727	0	17	90	08:59:38.628
location	728	0	17	90	08:59:38.876
location	729	0	17	90	08:59:39.126
location	730	0	17	135	08:59:39.377
location	731	0	17	135	08:59:39.626
location	732	0	17	135	08:59:39.875
location	733	0	17	135	08:59:40.125
location	734	0	17	135	08:59:40.375
location	735	0	17	135	08:59:40.625
location	736	0	17	135	08:59:40.875
location	737	0	17	135	08:59:41.125
location	738	0	17	135	08:59:41.375
location	739	0	17	135	08:59:41.625
location	740	0	17	135	08:59:41.875
location	741	0	17	135	08:59:42.125
location	742	0	17	135	08:59:42.376
location	743	0	17	135	08:59:42.625
location	744	0	17	135	08:59:42.875
location	745	0	17	135	08:59:43.125
location	746	0	17	135	08:59:43.375
location	747	0	17	135	08:59:43.625
location	748	0	17	135	08:59:43.875
location	749	0	17	180	08:59:44.125
location	750	0	17	180	08:59:44.375
location	751	0	17	180	08:59:44.624
location	752	0	17	180	08:59:44.877
location	753	0	17	180	08:59:45.125
location	754	0	17	180	08:59:45.375
location	755	0	17	180	08:59:45.625
location	756	0	17	180	08:59:45.875
location	757	0	17	180	08:59:46.125
location	758	0	17	180	08:59:46.375
location	759	0	17	180	08:59:46.625
location	760	0	17	180	08:59:46.874
location	761	0	17	180	08:59:47.123
location	762	0	17	225	08:59:47.375
location	763	0	17	225	08:59:47.624
location	764	0	17	225	08:59:47.874
location	765	0	17	225	08:59:48.124
location	766	0	17	225	08:59:48.375
location	767	0	17	225	08:59:48.625
location	768	0	17	225	08:59:48.875
location	769	0	17	180	08:59:49.125
location	770	0	17	180	08:59:49.375
location	771	0	17	180	08:59:49.625
location	772	0	17	135	08:59:49.875
location	773	0	17	90	08:59:50.125
location	774	0	17	90	08:59:50.376
location	775	0	17	90	08:59:50.626
location	776	0	17	90	08:59:50.881
location	777	0	17	45	08:59:51.125
location	778	0	17	45	08:59:51.378
location	779	0	17	45	08:59:51.628
location	780	0	17	45	08:59:51.878
location	781	0	17	45	08:59:52.128
location	782	0	17	45	08:59:52.377
location	783	0	17	45	08:59:52.628
location	784	0	17	45	08:59:52.877
location	785	0	17	45	08:59:53.129
location	786	0	17	45	08:59:53.378
location	787	0	17	45	08:59:53.628
location	788	0	17	90	08:59:53.877
location	789	0	17	90	08:59:54.125
location	790	0	17	90	08:59:54.375
location	791	0	17	135	08:59:54.626
location	792	0	17	135	08:59:54.875
location	793	0	17	135	08:59:55.125
location	794	0	17	135	08:59:55.375
location	795	0	17	135	08:59:55.625
location	796	0	17	135	08:59:55.875
location	797	0	17	135	08:59:56.124
location	798	0	17	135	08:59:56.375
location	799	0	17	135	08:59:56.624
location	800	0	17	135	08:59:56.874
location	801	0	17	135	08:59:57.125
location	802	0	17	90	08:59:57.374
location	803	0	17	45	08:59:57.625
location	804	0	17	45	08:59:57.877
location	805	0	17	45	08:59:58.128
location	806	0	17	45	08:59:58.377
location	807	0	17	45	08:59:58.626
location	808	0	17	45	08:59:58.877
location	809	0	17	45	08:59:59.127
location	810	0	17	45	08:59:59.378
location	811	0	17	45	08:59:59.628
location	812	0	17	45	08:59:59.877
location	813	0	17	45	09:00:00.124
location	814	0	17	45	09:00:00.377
location	815	0	17	45	09:00:00.629
location	816	0	17	45	09:00:00.878
location	817	0	17	45	09:00:01.128
location	818	0	17	45	09:00:01.379
location	819	0	17	0	09:00:01.627
location	820	0	17	0	09:00:01.877
location	821	0	17	0	09:00:02.127
location	822	0	17	0	09:00:02.377
location	823	0	17	0	09:00:02.627
location	824	0	17	315	09:00:02.877
location	825	0	17	315	09:00:03.125
location	826	0	17	315	09:00:03.374
location	827	0	17	315	09:00:03.624
location	828	0	17	315	09:00:03.874
location	829	0	17	315	09:00:04.124
location	830	0	17	315	09:00:04.374
location	831	0	17	315	09:00:04.624
location	832	0	17	315	09:00:04.874
location	833	0	17	315	09:00:05.124
location	834	0	17	315	09:00:05.374
location	835	0	17	315	09:00:05.625
location	836	0	17	315	09:00:05.875
location	837	0	17	315	09:00:06.125
location	838	0	17	315	09:00:06.374
location	839	0	17	315	09:00:06.624
location	840	0	17	315	09:00:06.875
location	841	0	17	315	09:00:07.125
location	842	0	17	315	09:00:07.374
location	843	0	17	315	09:00:07.624
location	844	0	17	315	09:00:07.874
location	845	0	17	0	09:00:08.124
location	846	0	17	0	09:00:08.377
location	847	0	17	0	09:00:08.627
location	848	0	17	0	09:00:08.877
location	849	0	17	0	09:00:09.127
location	850	0	17	0	09:00:09.377
location	851	0	17	0	09:00:09.628
location	852	0	17	0	09:00:09.877
location	853	0	17	0	09:00:10.127
location	854	0	17	0	09:00:10.377
location	855	0	16	0	09:00:10.627
location	856	0	16	0	09:00:10.877
location	857	0	16	0	09:00:11.126
location	858	0	16	0	09:00:11.376
location	859	0	16	0	09:00:11.628
location	860	0	16	45	09:00:11.876
location	861	0	16	45	09:00:12.128
location	862	0	16	45	09:00:12.377
location	863	0	16	45	09:00:12.628
location	864	0	16	45	09:00:12.877
location	865	0	16	90	09:00:13.126
location	866	0	16	90	09:00:13.374
location	867	0	16	90	09:00:13.624
location	868	0	16	90	09:00:13.876
location	869	0	16	90	09:00:14.125
location	870	0	16	90	09:00:14.375
location	871	0	16	90	09:00:14.625
location	872	0	16	90	09:00:14.875
location	873	0	16	90	09:00:15.126
location	874	0	16	90	09:00:15.376
location	875	0	16	90	09:00:15.625
location	876	0	16	90	09:00:15.875
location	877	0	16	90	09:00:16.126
location	878	0	16	90	09:00:16.375
location	879	0	16	90	09:00:16.625
location	880	0	16	90	09:00:16.875
location	881	0	16	90	09:00:17.125
location	882	1	16	90	09:00:17.375
location	883	1	16	90	09:00:17.625
location	884	1	16	90	09:00:17.877
location	885	1	16	90	09:00:18.126
location	886	1	16	90	09:00:18.375
location	887	1	16	90	09:00:18.627
location	888	1	16	90	09:00:18.876
location	889	2	16	90	09:00:19.125
location	890	2	16	90	09:00:19.375
location	891	2	16	90	09:00:19.625
location	892	2	16	90	09:00:19.875
location	893	2	16	90	09:00:20.125
location	894	2	16	90	09:00:20.375
location	895	2	16	90	09:00:20.625
location	896	2	16	90	09:00:20.875
location	897	2	16	90	09:00:21.125
location	898	2	16	90	09:00:21.375
location	899	2	16	135	09:00:21.626
location	900	2	16	135	09:00:21.874
location	901	2	16	135	09:00:22.124
location	902	2	16	135	09:00:22.374
location	903	2	16	135	09:00:22.624
location	904	2	16	135	09:00:22.874
location	905	2	16	135	09:00:23.124
location	906	2	16	135	09:00:23.374
location	907	2	16	135	09:00:23.624
location	908	2	16	135	09:00:23.874
location	909	2	16	135	09:00:24.124
location	910	2	16	135	09:00:24.374
location	911	2	16	135	09:00:24.624
location	912	2	16	135	09:00:24.872
location	913	2	16	135	09:00:25.123
location	914	2	16	135	09:00:25.375
location	915	2	16	135	09:00:25.624
location	916	2	16	135	09:00:25.875
location	917	2	16	135	09:00:26.126
location	918	2	16	135	09:00:26.375
location	919	2	16	135	09:00:26.625
location	920	2	16	180	09:00:26.875
location	921	2	16	180	09:00:27.125
location	922	2	16	180	09:00:27.375
location	923	2	16	180	09:00:27.625
location	924	2	16	180	09:00:27.875
location	925	2	16	225	09:00:28.125
location	926	2	16	225	09:00:28.374
location	927	2	16	225	09:00:28.624
location	928	2	16	225	09:00:28.875
location	929	2	16	225	09:00:29.125
location	930	2	16	225	09:00:29.375
location	931	2	16	225	09:00:29.624
location	932	2	16	225	09:00:29.874
location	933	2	16	225	09:00:30.124
location	934	2	16	225	09:00:30.374
location	935	2	16	225	09:00:30.625
location	936	2	16	225	09:00:30.874
location	937	2	16	225	09:00:31.124
location	938	2	16	225	09:00:31.374
location	939	2	16	225	09:00:31.625
location	940	2	16	225	09:00:31.874
location	941	2	16	225	09:00:32.125
location	942	2	16	225	09:00:32.374
location	943	2	16	270	09:00:32.624
location	944	2	16	270	09:00:32.874
location	945	2	16	270	09:00:33.124
location	946	2	16	270	09:00:33.374
location	947	2	16	270	09:00:33.624
location	948	2	16	270	09:00:33.875
location	949	1	16	270	09:00:34.124
location	950	1	16	270	09:00:34.375
location	951	1	16	270	09:00:34.624
location	952	0	16	270	09:00:34.874
location	953	0	16	270	09:00:35.124
location	954	0	16	270	09:00:35.374
location	955	0	16	270	09:00:35.624
location	956	0	16	270	09:00:35.874
location	957	0	16	270	09:00:36.124
location	958	0	16	270	09:00:36.374
location	959	0	16	225	09:00:36.624
location	960	0	16	225	09:00:36.873
location	961	0	16	225	09:00:37.124
location	962	0	16	225	09:00:37.374
location	963	0	16	180	09:00:37.624
location	964	0	16	180	09:00:37.874
location	965	0	16	180	09:00:38.124
location	966	0	16	180	09:00:38.374
location	967	0	16	180	09:00:38.625
location	968	0	16	180	09:00:38.874
location	969	0	16	180	09:00:39.124
location	970	0	16	180	09:00:39.375
location	971	0	16	180	09:00:39.624
location	972	0	16	180	09:00:39.874
location	973	0	16	180	09:00:40.124
location	974	0	16	180	09:00:40.374
location	975	0	16	180	09:00:40.624
location	976	0	17	180	09:00:40.875
location	977	0	17	180	09:00:41.124
location	978	0	18	180	09:00:41.374
location	979	0	18	180	09:00:41.624
location	980	0	19	180	09:00:41.875
location	981	0	19	180	09:00:42.124
location	982	0	19	180	09:00:42.374
location	983	0	19	180	09:00:42.625
location	984	0	19	180	09:00:42.874
location	985	0	19	180	09:00:43.124
location	986	0	19	180	09:00:43.374
location	987	0	20	180	09:00:43.624
location	988	0	20	180	09:00:43.873
location	989	0	20	180	09:00:44.124
location	990	0	20	135	09:00:44.374
location	991	0	20	135	09:00:44.624
location	992	0	20	135	09:00:44.874
location	993	0	20	135	09:00:45.124
location	994	0	20	90	09:00:45.374
location	995	0	20	90	09:00:45.624
location	996	0	20	90	09:00:45.874
location	997	0	20	90	09:00:46.125
location	998	0	20	90	09:00:46.375
location	999	1	20	90	09:00:46.625
location	1000	1	20	90	09:00:46.875
location	1001	2	20	90	09:00:47.124
location	1002	2	20	90	09:00:47.374
location	1003	3	20	90	09:00:47.625
location	1004	3	20	90	09:00:47.874
location	1005	4	20	90	09:00:48.124
location	1006	4	20	90	09:00:48.374
location	1007	4	20	90	09:00:48.624
location	1008	4	20	45	09:00:48.873
location	1009	4	20	45	09:00:49.126
location	1010	4	20	45	09:00:49.376
location	1011	4	20	45	09:00:49.627
location	1012	4	20	45	09:00:49.876
location	1013	4	20	45	09:00:50.126
location	1014	4	20	45	09:00:50.376
location	1015	4	20	0	09:00:50.626
location	1016	4	20	0	09:00:50.878
location	1017	4	20	0	09:00:51.127
location	1018	4	20	0	09:00:51.378
location	1019	4	20	0	09:00:51.628
location	1020	4	20	0	09:00:51.878
location	1021	4	20	0	09:00:52.127
location	1022	4	20	0	09:00:52.377
location	1023	4	20	0	09:00:52.628
location	1024	4	20	0	09:00:52.878
location	1025	4	20	0	09:00:53.127
location	1026	4	20	0	09:00:53.378
location	1027	4	19	0	09:00:53.629
location	1028	4	19	0	09:00:53.878
location	1029	4	19	0	09:00:54.127
location	1030	4	19	0	09:00:54.377
location	1031	4	19	0	09:00:54.627
location	1032	4	19	0	09:00:54.878
location	1033	4	19	0	09:00:55.127
location	1034	4	19	0	09:00:55.377
location	1035	4	19	0	09:00:55.628
location	1036	4	18	0	09:00:55.878
location	1037	4	18	0	09:00:56.128
location	1038	4	18	0	09:00:56.378
location	1039	4	18	0	09:00:56.628
location	1040	4	18	0	09:00:56.877
location	1041	4	18	0	09:00:57.127
location	1042	4	18	0	09:00:57.377
location	1043	4	18	0	09:00:57.627
location	1044	4	17	0	09:00:57.877
location	1045	4	17	0	09:00:58.127
location	1046	4	17	0	09:00:58.376
location	1047	4	17	0	09:00:58.627
location	1048	4	16	0	09:00:58.877
location	1049	4	16	0	09:00:59.129
location	1050	4	16	0	09:00:59.377
location	1051	4	16	0	09:00:59.627
location	1052	4	16	0	09:00:59.877
location	1053	4	16	0	09:01:00.124
location	1054	4	16	0	09:01:00.376
location	1055	4	16	0	09:01:00.627
location	1056	4	16	0	09:01:00.877
location	1057	4	16	0	09:01:01.127
location	1058	4	16	315	09:01:01.376
location	1059	4	16	315	09:01:01.625
location	1060	4	16	315	09:01:01.875
location	1061	4	16	315	09:01:02.126
location	1062	4	16	315	09:01:02.375
location	1063	4	16	270	09:01:02.626
location	1064	4	16	270	09:01:02.874
location	1065	4	16	270	09:01:03.124
location	1066	4	16	270	09:01:03.374
location	1067	4	16	270	09:01:03.625
location	1068	4	16	270	09:01:03.874
location	1069	4	16	270	09:01:04.124
location	1070	4	16	270	09:01:04.374
location	1071	4	16	270	09:01:04.626
location	1072	4	16	270	09:01:04.874
location	1073	4	16	270	09:01:05.124
location	1074	4	16	270	09:01:05.374
location	1075	4	16	270	09:01:05.624
location	1076	4	16	270	09:01:05.874
location	1077	3	16	270	09:01:06.125
location	1078	3	16	270	09:01:06.374
location	1079	3	16	270	09:01:06.624
location	1080	3	16	270	09:01:06.874
location	1081	2	16	270	09:01:07.124
location	1082	2	16	270	09:01:07.376
location	1083	2	16	270	09:01:07.624
location	1084	2	16	270	09:01:07.874
location	1085	1	16	270	09:01:08.124
location	1086	1	16	270	09:01:08.373
location	1087	1	16	270	09:01:08.624
location	1088	1	16	270	09:01:08.874
location	1089	0	16	270	09:01:09.124
location	1090	0	16	270	09:01:09.373
location	1091	0	16	270	09:01:09.623
location	1092	0	16	225	09:01:09.874
location	1093	0	16	225	09:01:10.124
location	1094	0	16	225	09:01:10.374
location	1095	0	16	225	09:01:10.623
location	1096	0	16	225	09:01:10.874
location	1097	0	16	225	09:01:11.124
location	1098	0	16	180	09:01:11.374
location	1099	0	16	180	09:01:11.624
location	1100	0	16	180	09:01:11.874
location	1101	0	16	180	09:01:12.124
location	1102	0	16	180	09:01:12.375
location	1103	0	16	180	09:01:12.624
location	1104	0	16	180	09:01:12.874
location	1105	0	16	180	09:01:13.124
location	1106	0	16	180	09:01:13.374
location	1107	0	16	180	09:01:13.624
location	1108	0	16	180	09:01:13.874
location	1109	0	16	180	09:01:14.124
location	1110	0	16	180	09:01:14.375
location	1111	0	16	180	09:01:14.624
location	1112	0	16	180	09:01:14.874
location	1113	0	16	180	09:01:15.124
location	1114	0	16	180	09:01:15.374
location	1115	0	16	180	09:01:15.626
location	1116	0	16	180	09:01:15.874
location	1117	0	16	180	09:01:16.125
location	1118	0	16	180	09:01:16.374
location	1119	0	16	180	09:01:16.624
location	1120	0	16	180	09:01:16.875
location	1121	0	16	180	09:01:17.124
location	1122	0	16	180	09:01:17.374
location	1123	0	16	180	09:01:17.625
location	1124	0	16	180	09:01:17.874
location	1125	0	16	180	09:01:18.124
location	1126	0	16	180	09:01:18.374
location	1127	0	16	180	09:01:18.624
location	1128	0	16	180	09:01:18.874
location	1129	0	16	180	09:01:19.124
location	1130	0	16	180	09:01:19.374
location	1131	0	16	180	09:01:19.624
location	1132	0	16	180	09:01:19.874
location	1133	0	16	180	09:01:20.124
location	1134	0	16	180	09:01:20.374
location	1135	0	17	180	09:01:20.624
location	1136	0	17	180	09:01:20.874
location	1137	0	17	180	09:01:21.124
location	1138	0	17	180	09:01:21.374
location	1139	0	18	180	09:01:21.624
location	1140	0	18	180	09:01:21.874
location	1141	0	18	180	09:01:22.124
location	1142	0	18	180	09:01:22.374
location	1143	0	18	180	09:01:22.624
location	1144	0	18	180	09:01:22.874
location	1145	0	18	180	09:01:23.124
location	1146	0	18	180	09:01:23.374
location	1147	0	18	180	09:01:23.624
location	1148	0	18	180	09:01:23.875
location	1149	0	19	180	09:01:24.124
location	1150	0	19	180	09:01:24.374
location	1151	0	19	180	09:01:24.624
location	1152	0	19	180	09:01:24.874
location	1153	0	19	180	09:01:25.124
location	1154	0	19	180	09:01:25.372
location	1155	0	19	180	09:01:25.622
location	1156	0	19	180	09:01:25.874
location	1157	0	19	180	09:01:26.124
location	1158	0	19	180	09:01:26.374
location	1159	0	19	180	09:01:26.624
location	1160	0	19	135	09:01:26.874
location	1161	0	19	135	09:01:27.124
location	1162	0	19	135	09:01:27.374
location	1163	0	19	135	09:01:27.624
location	1164	0	19	135	09:01:27.874
location	1165	0	19	135	09:01:28.124
location	1166	0	19	135	09:01:28.374
location	1167	0	19	135	09:01:28.624
location	1168	0	19	135	09:01:28.874
location	1169	0	19	135	09:01:29.124
location	1170	0	19	90	09:01:29.374
location	1171	0	19	90	09:01:29.625
location	1172	0	19	90	09:01:29.875
location	1173	0	19	90	09:01:30.125
location	1174	0	19	45	09:01:30.375
location	1175	0	19	45	09:01:30.628
location	1176	0	19	45	09:01:30.877
location	1177	0	19	45	09:01:31.128
location	1178	0	19	45	09:01:31.378
location	1179	0	19	45	09:01:31.626
location	1180	0	19	45	09:01:31.877
location	1181	0	19	45	09:01:32.129
location	1182	0	19	45	09:01:32.378
location	1183	0	19	45	09:01:32.628
location	1184	0	19	45	09:01:32.878
location	1185	0	19	45	09:01:33.128
location	1186	0	19	45	09:01:33.378
location	1187	0	19	45	09:01:33.628
location	1188	0	19	45	09:01:33.878
location	1189	0	19	45	09:01:34.128
location	1190	0	19	45	09:01:34.378
location	1191	0	19	45	09:01:34.628
location	1192	0	19	45	09:01:34.877
location	1193	0	19	45	09:01:35.127
location	1194	0	19	45	09:01:35.378
location	1195	0	19	45	09:01:35.628
location	1196	0	19	45	09:01:35.876
location	1197	0	19	90	09:01:36.128
location	1198	0	19	90	09:01:36.376
location	1199	0	19	90	09:01:36.625
location	1200	0	19	135	09:01:36.875
location	1201	0	19	135	09:01:37.124
location	1202	0	19	135	09:01:37.374
location	1203	0	19	135	09:01:37.624
location	1204	0	19	135	09:01:37.874
location	1205	0	19	135	09:01:38.124
location	1206	0	19	135	09:01:38.374
location	1207	0	19	135	09:01:38.624
location	1208	0	19	135	09:01:38.874
location	1209	0	19	135	09:01:39.124
location	1210	0	19	135	09:01:39.374
location	1211	0	19	90	09:01:39.624
location	1212	0	19	90	09:01:39.875
location	1213	0	19	90	09:01:40.125
location	1214	0	19	45	09:01:40.376
location	1215	0	19	45	09:01:40.628
location	1216	0	19	45	09:01:40.878
location	1217	0	19	45	09:01:41.127
location	1218	0	19	45	09:01:41.377
location	1219	0	19	45	09:01:41.626
location	1220	0	19	0	09:01:41.877
location	1221	0	19	0	09:01:42.127
location	1222	0	19	0	09:01:42.377
location	1223	0	19	0	09:01:42.628
location	1224	0	19	0	09:01:42.878
location	1225	0	18	0	09:01:43.127
location	1226	0	18	0	09:01:43.377
location	1227	0	18	0	09:01:43.627
location	1228	0	18	0	09:01:43.876
location	1229	0	18	0	09:01:44.127
location	1230	0	17	0	09:01:44.377
location	1231	0	17	0	09:01:44.627
location	1232	0	17	0	09:01:44.877
location	1233	0	17	0	09:01:45.127
location	1234	0	17	0	09:01:45.377
location	1235	0	17	0	09:01:45.627
location	1236	0	17	0	09:01:45.877
location	1237	0	17	45	09:01:46.127
location	1238	0	17	45	09:01:46.377
location	1239	0	17	90	09:01:46.628
location	1240	0	17	90	09:01:46.875
location	1241	0	17	90	09:01:47.125
location	1242	0	17	90	09:01:47.375
location	1243	0	17	135	09:01:47.625
location	1244	0	17	135	09:01:47.874
location	1245	0	17	135	09:01:48.124
location	1246	0	17	135	09:01:48.374
location	1247	0	17	135	09:01:48.626
location	1248	0	17	135	09:01:48.874
location	1249	0	17	135	09:01:49.125
location	1250	0	17	135	09:01:49.374
location	1251	0	17	135	09:01:49.625
location	1252	0	17	135	09:01:49.874
location	1253	0	17	135	09:01:50.125
location	1254	0	17	135	09:01:50.374
location	1255	0	17	135	09:01:50.624
location	1256	0	17	135	09:01:50.874
location	1257	0	17	135	09:01:51.124
location	1258	0	17	135	09:01:51.374
location	1259	0	17	90	09:01:51.624
location	1260	0	17	90	09:01:51.875
location	1261	0	17	90	09:01:52.125
location	1262	0	17	90	09:01:52.376
location	1263	0	17	90	09:01:52.625
location	1264	0	17	135	09:01:52.876
location	1265	0	17	135	09:01:53.124
location	1266	0	17	135	09:01:53.374
location	1267	0	17	135	09:01:53.624
location	1268	0	17	135	09:01:53.874
location	1269	0	17	180	09:01:54.125
location	1270	0	17	180	09:01:54.374
location	1271	0	17	180	09:01:54.624
location	1272	0	17	180	09:01:54.874
location	1273	0	17	180	09:01:55.124
location	1274	0	18	180	09:01:55.374
location	1275	0	18	180	09:01:55.624
location	1276	0	18	180	09:01:55.874
location	1277	0	19	180	09:01:56.124
location	1278	0	19	180	09:01:56.374
location	1279	0	19	180	09:01:56.624
location	1280	0	20	180	09:01:56.874
location	1281	0	20	180	09:01:57.123
location	1282	0	20	180	09:01:57.374
location	1283	0	20	135	09:01:57.624
location	1284	0	20	135	09:01:57.874
location	1285	0	20	135	09:01:58.124
location	1286	0	20	90	09:01:58.373
location	1287	0	20	90	09:01:58.625
location	1288	0	20	90	09:01:58.875
location	1289	0	20	90	09:01:59.124
location	1290	0	20	90	09:01:59.374
location	1291	1	20	90	09:01:59.625
location	1292	1	20	90	09:01:59.875
location	1293	2	20	90	09:02:00.124
location	1294	2	20	90	09:02:00.374
location	1295	2	20	90	09:02:00.624
location	1296	3	20	90	09:02:00.874
location	1297	3	20	90	09:02:01.124
location	1298	3	20	90	09:02:01.373
location	1299	3	20	90	09:02:01.624
location	1300	3	20	90	09:02:01.874
location	1301	3	20	90	09:02:02.124
location	1302	4	20	90	09:02:02.373
location	1303	4	20	90	09:02:02.624
location	1304	4	20	45	09:02:02.873
location	1305	4	20	45	09:02:03.126
location	1306	4	20	45	09:02:03.376
location	1307	4	20	45	09:02:03.626
location	1308	4	20	0	09:02:03.876
location	1309	4	20	0	09:02:04.128
location	1310	4	20	0	09:02:04.377
location	1311	4	20	0	09:02:04.628
location	1312	4	20	0	09:02:04.878
location	1313	4	20	0	09:02:05.128
location	1314	4	20	0	09:02:05.376
location	1315	4	19	0	09:02:05.628
location	1316	4	19	0	09:02:05.879
location	1317	4	19	0	09:02:06.128
location	1318	4	18	0	09:02:06.376
location	1319	4	18	0	09:02:06.628
location	1320	4	18	0	09:02:06.877
location	1321	4	18	0	09:02:07.128
location	1322	4	18	0	09:02:07.376
location	1323	4	17	0	09:02:07.628
location	1324	4	17	0	09:02:07.878
location	1325	4	17	0	09:02:08.128
location	1326	4	17	0	09:02:08.377
location	1327	4	16	0	09:02:08.628
location	1328	4	16	0	09:02:08.877
location	1329	4	16	0	09:02:09.127
location	1330	4	16	315	09:02:09.377
location	1331	4	16	315	09:02:09.625
location	1332	4	16	315	09:02:09.875
location	1333	4	16	315	09:02:10.125
location	1334	4	16	315	09:02:10.375
location	1335	4	16	270	09:02:10.625
location	1336	4	16	270	09:02:10.874
location	1337	4	16	270	09:02:11.124
location	1338	4	16	270	09:02:11.375
location	1339	4	16	270	09:02:11.624
location	1340	4	16	270	09:02:11.874
location	1341	3	16	270	09:02:12.124
location	1342	3	16	270	09:02:12.375
location	1343	3	16	270	09:02:12.624
location	1344	3	16	270	09:02:12.874
location	1345	2	16	270	09:02:13.124
location	1346	2	16	270	09:02:13.374
location	1347	2	16	270	09:02:13.624
location	1348	1	16	270	09:02:13.874
location	1349	1	16	270	09:02:14.124
location	1350	1	16	270	09:02:14.374
location	1351	1	16	270	09:02:14.624
location	1352	1	16	270	09:02:14.874
location	1353	1	16	270	09:02:15.124
location	1354	0	16	270	09:02:15.375
location	1355	0	16	270	09:02:15.624
location	1356	0	16	225	09:02:15.874
location	1357	0	16	225	09:02:16.124
location	1358	0	16	225	09:02:16.373
location	1359	0	16	225	09:02:16.624
location	1360	0	16	225	09:02:16.874
location	1361	0	16	180	09:02:17.123
location	1362	0	16	180	09:02:17.375
location	1363	0	16	180	09:02:17.624
location	1364	0	16	180	09:02:17.874
location	1365	0	17	180	09:02:18.124
location	1366	0	17	180	09:02:18.374
location	1367	0	17	180	09:02:18.624
location	1368	0	18	180	09:02:18.874
location	1369	0	18	180	09:02:19.124
location	1370	0	18	180	09:02:19.374
location	1371	0	18	180	09:02:19.624
location	1372	0	18	180	09:02:19.874
location	1373	0	18	180	09:02:20.124
location	1374	0	19	180	09:02:20.374
location	1375	0	19	180	09:02:20.623
location	1376	0	19	180	09:02:20.874
location	1377	0	19	180	09:02:21.123
location	1378	0	20	180	09:02:21.375
location	1379	0	20	180	09:02:21.624
location	1380	0	20	135	09:02:21.874
location	1381	0	20	135	09:02:22.124
location	1382	0	20	135	09:02:22.374
location	1383	0	20	135	09:02:22.624
location	1384	0	20	90	09:02:22.873
location	1385	0	20	90	09:02:23.124
location	1386	0	20	90	09:02:23.374
location	1387	0	20	90	09:02:23.624
location	1388	1	20	90	09:02:23.875
location	1389	1	20	90	09:02:24.124
location	1390	1	20	90	09:02:24.374
location	1391	2	20	90	09:02:24.624
location	1392	2	20	90	09:02:24.874
location	1393	3	20	90	09:02:25.124
location	1394	3	20	90	09:02:25.374
location	1395	3	20	90	09:02:25.624
location	1396	4	20	90	09:02:25.871
location	1397	4	20	90	09:02:26.122
location	1398	4	20	90	09:02:26.373
location	1399	4	20	45	09:02:26.623
location	1400	4	20	45	09:02:26.877
location	1401	4	20	45	09:02:27.127
location	1402	4	20	45	09:02:27.376
location	1403	4	20	45	09:02:27.626
location	1404	4	20	45	09:02:27.876
location	1405	4	20	0	09:02:28.126
location	1406	4	20	0	09:02:28.378
location	1407	4	20	0	09:02:28.628
location	1408	4	20	0	09:02:28.877
location	1409	4	19	0	09:02:29.128
location	1410	4	19	0	09:02:29.377
location	1411	4	19	0	09:02:29.628
location	1412	4	19	0	09:02:29.877
location	1413	4	18	0	09:02:30.128
location	1414	4	18	0	09:02:30.378
location	1415	4	18	0	09:02:30.628
location	1416	4	17	0	09:02:30.877
location	1417	4	17	0	09:02:31.128
location	1418	4	17	0	09:02:31.376
location	1419	4	17	0	09:02:31.626
location	1420	4	17	0	09:02:31.876
location	1421	4	16	0	09:02:32.126
location	1422	4	16	0	09:02:32.379
location	1423	4	16	315	09:02:32.627
location	1424	4	16	315	09:02:32.876
location	1425	4	16	315	09:02:33.126
location	1426	4	16	315	09:02:33.375
location	1427	4	16	315	09:02:33.625
location	1428	4	16	270	09:02:33.875
location	1429	4	16	270	09:02:34.124
location	1430	4	16	270	09:02:34.374
location	1431	4	16	270	09:02:34.624
location	1432	4	16	270	09:02:34.874
location	1433	4	16	270	09:02:35.124
location	1434	4	16	270	09:02:35.374
location	1435	4	16	270	09:02:35.624
location	1436	4	16	270	09:02:35.874
location	1437	4	16	270	09:02:36.125
location	1438	4	16	270	09:02:36.374
location	1439	4	16	270	09:02:36.624
location	1440	4	16	270	09:02:36.874
location	1441	4	16	270	09:02:37.125
location	1442	4	16	270	09:02:37.374
location	1443	4	16	270	09:02:37.624
location	1444	4	16	270	09:02:37.876
location	1445	4	16	270	09:02:38.125
location	1446	4	16	270	09:02:38.374
location	1447	4	16	270	09:02:38.624
location	1448	4	16	270	09:02:38.874
location	1449	4	16	270	09:02:39.124
location	1450	4	16	270	09:02:39.374
location	1451	4	16	270	09:02:39.625
location	1452	4	16	270	09:02:39.874
location	1453	4	16	270	09:02:40.125
location	1454	4	16	270	09:02:40.374
location	1455	4	16	270	09:02:40.624
location	1456	4	16	270	09:02:40.875
location	1457	4	16	270	09:02:41.124
location	1458	4	16	270	09:02:41.375
location	1459	4	16	270	09:02:41.624
location	1460	4	16	270	09:02:41.874
location	1461	4	16	270	09:02:42.124
location	1462	4	16	270	09:02:42.374
location	1463	4	16	270	09:02:42.624
location	1464	4	16	270	09:02:42.874
location	1465	4	16	270	09:02:43.124
location	1466	4	16	270	09:02:43.374
location	1467	4	16	270	09:02:43.624
location	1468	4	16	270	09:02:43.874
location	1469	4	16	270	09:02:44.124
location	1470	4	16	270	09:02:44.375
location	1471	4	16	270	09:02:44.624
location	1472	4	16	270	09:02:44.874
location	1473	4	16	270	09:02:45.124
location	1474	4	16	270	09:02:45.374
location	1475	4	16	270	09:02:45.625
location	1476	4	16	270	09:02:45.874
location	1477	4	16	270	09:02:46.125
location	1478	4	16	270	09:02:46.375
location	1479	4	16	270	09:02:46.624
location	1480	4	16	270	09:02:46.874
location	1481	4	16	270	09:02:47.125
location	1482	4	16	270	09:02:47.374
location	1483	4	16	270	09:02:47.624
location	1484	4	16	270	09:02:47.874
location	1485	4	16	270	09:02:48.124
location	1486	4	16	270	09:02:48.374
location	1487	4	16	270	09:02:48.624
location	1488	4	16	270	09:02:48.874
location	1489	4	16	270	09:02:49.124
location	1490	4	16	270	09:02:49.374
location	1491	4	16	270	09:02:49.624
location	1492	4	16	270	09:02:49.874
location	1493	4	16	270	09:02:50.124
location	1494	4	16	270	09:02:50.374
location	1495	4	16	270	09:02:50.625
location	1496	4	16	270	09:02:50.874
location	1497	4	16	270	09:02:51.124
location	1498	4	16	270	09:02:51.375
location	1499	4	16	270	09:02:51.624
location	1500	4	16	270	09:02:51.874
location	1501	4	16	270	09:02:52.124
location	1502	4	16	270	09:02:52.374
location	1503	4	16	270	09:02:52.624
location	1504	4	16	270	09:02:52.874
location	1505	4	16	270	09:02:53.124
location	1506	4	16	270	09:02:53.374
location	1507	4	16	270	09:02:53.624
location	1508	4	16	270	09:02:53.874
location	1509	4	16	270	09:02:54.124
location	1510	4	16	270	09:02:54.375
location	1511	4	16	270	09:02:54.624
location	1512	4	16	270	09:02:54.874
location	1513	4	16	270	09:02:55.124
location	1514	4	16	270	09:02:55.374
location	1515	4	16	270	09:02:55.624
location	1516	4	16	270	09:02:55.875
location	1517	4	16	270	09:02:56.125
location	1518	4	16	270	09:02:56.374
location	1519	4	16	270	09:02:56.624
location	1520	4	16	270	09:02:56.873
location	1521	4	16	270	09:02:57.124
location	1522	4	16	270	09:02:57.375
location	1523	4	16	270	09:02:57.624
location	1524	4	16	270	09:02:57.874
location	1525	4	16	270	09:02:58.124
location	1526	4	16	270	09:02:58.374
location	1527	4	16	270	09:02:58.624
location	1528	4	16	270	09:02:58.874
location	1529	4	16	270	09:02:59.124
location	1530	4	16	270	09:02:59.374
location	1531	4	16	270	09:02:59.624
location	1532	4	16	270	09:02:59.874
location	1533	4	16	270	09:03:00.123
location	1534	4	16	270	09:03:00.375
location	1535	4	16	270	09:03:00.626
location	1536	4	16	270	09:03:00.875
location	1537	4	16	270	09:03:01.124
location	1538	4	16	270	09:03:01.374
location	1539	4	16	270	09:03:01.625
location	1540	4	16	270	09:03:01.875
location	1541	4	16	270	09:03:02.125
location	1542	4	16	270	09:03:02.374
location	1543	4	16	270	09:03:02.625
location	1544	4	16	270	09:03:02.874
location	1545	4	16	270	09:03:03.124
location	1546	4	16	270	09:03:03.374
location	1547	4	16	270	09:03:03.624
location	1548	4	16	270	09:03:03.874
location	1549	4	16	270	09:03:04.124
location	1550	4	16	270	09:03:04.374
location	1551	4	16	270	09:03:04.625
location	1552	4	16	270	09:03:04.874
location	1553	4	16	270	09:03:05.124
location	1554	4	16	270	09:03:05.374
location	1555	4	16	270	09:03:05.624
location	1556	4	16	270	09:03:05.874
location	1557	4	16	270	09:03:06.124
location	1558	4	16	270	09:03:06.374
location	1559	4	16	270	09:03:06.625
location	1560	4	16	270	09:03:06.874
location	1561	4	16	270	09:03:07.124
location	1562	4	16	270	09:03:07.374
location	1563	4	16	270	09:03:07.624
location	1564	4	16	270	09:03:07.875
location	1565	4	16	270	09:03:08.124
location	1566	4	16	270	09:03:08.374
location	1567	4	16	270	09:03:08.625
location	1568	4	16	270	09:03:08.874
location	1569	4	16	270	09:03:09.124
location	1570	4	16	270	09:03:09.374
location	1571	4	16	270	09:03:09.624
location	1572	4	16	270	09:03:09.875
location	1573	4	16	270	09:03:10.124
location	1574	4	16	270	09:03:10.374
location	1575	4	16	270	09:03:10.625
location	1576	4	16	270	09:03:10.875
location	1577	4	16	270	09:03:11.125
location	1578	4	16	270	09:03:11.374
location	1579	4	16	270	09:03:11.625
location	1580	4	16	270	09:03:11.874
location	1581	4	16	270	09:03:12.125
location	1582	4	16	270	09:03:12.374
location	1583	4	16	270	09:03:12.624
location	1584	4	16	270	09:03:12.874
location	1585	4	16	270	09:03:13.124
location	1586	4	16	270	09:03:13.374
location	1587	4	16	270	09:03:13.624
location	1588	4	16	270	09:03:13.875
location	1589	4	16	270	09:03:14.124
location	1590	4	16	270	09:03:14.375
location	1591	4	16	270	09:03:14.624
location	1592	4	16	270	09:03:14.875
location	1593	4	16	270	09:03:15.124
location	1594	4	16	270	09:03:15.374
location	1595	4	16	270	09:03:15.624
location	1596	4	16	270	09:03:15.874
location	1597	4	16	270	09:03:16.125
