State		Iter	X	Y 	Angle	Timestamp
location	0	0	0	0	10:41:49.277
location	1	0	0	0	10:41:49.525
location	2	0	0	0	10:41:49.775
location	3	0	0	0	10:41:50.023
location	4	0	0	0	10:41:50.273
location	5	0	0	0	10:41:50.525
location	6	0	0	0	10:41:50.774
location	7	0	0	0	10:41:51.024
location	8	0	0	0	10:41:51.274
location	9	0	0	0	10:41:51.525
location	10	0	0	0	10:41:51.774
location	11	0	0	0	10:41:52.024
location	12	0	0	0	10:41:52.276
location	13	0	0	0	10:41:52.524
location	14	0	0	0	10:41:52.774
location	15	0	0	0	10:41:53.024
location	16	0	0	0	10:41:53.274
location	17	0	0	0	10:41:53.525
location	18	0	0	0	10:41:53.775
location	19	0	0	0	10:41:54.023
location	20	0	0	315	10:41:54.277
location	21	0	0	315	10:41:54.523
location	22	0	0	315	10:41:54.772
location	23	0	0	315	10:41:55.022
location	24	0	0	315	10:41:55.272
location	25	0	0	315	10:41:55.522
location	26	0	0	315	10:41:55.772
location	27	0	0	315	10:41:56.022
location	28	0	0	315	10:41:56.272
location	29	0	0	315	10:41:56.522
location	30	0	0	270	10:41:56.772
location	31	0	0	270	10:41:57.020
location	32	0	0	270	10:41:57.271
location	33	0	0	270	10:41:57.521
location	34	0	0	315	10:41:57.771
location	35	0	0	315	10:41:58.022
location	36	0	0	315	10:41:58.272
location	37	0	0	315	10:41:58.522
location	38	0	0	315	10:41:58.772
location	39	0	0	315	10:41:59.022
location	40	0	0	315	10:41:59.271
location	41	0	0	315	10:41:59.522
location	42	0	0	270	10:41:59.772
location	43	0	0	270	10:42:00.023
location	44	1	20	270	10:42:00.271
location	45	1	20	270	10:42:00.521
location	46	0	20	270	10:42:00.771
location	47	0	20	270	10:42:01.020
location	48	0	20	270	10:42:01.270
location	49	0	20	315	10:42:01.520
location	50	0	20	315	10:42:01.771
location	51	0	20	315	10:42:02.022
location	52	0	20	0	10:42:02.271
location	53	0	20	0	10:42:02.525
location	54	0	20	0	10:42:02.775
location	55	0	20	0	10:42:03.024
location	56	0	20	0	10:42:03.273
location	57	0	20	0	10:42:03.525
location	58	0	20	0	10:42:03.775
location	59	0	19	0	10:42:04.023
location	60	0	19	0	10:42:04.274
location	61	0	18	0	10:42:04.526
location	62	0	18	0	10:42:04.773
location	63	0	18	0	10:42:05.024
location	64	0	18	0	10:42:05.274
location	65	0	18	0	10:42:05.524
location	66	0	18	0	10:42:05.774
location	67	0	18	0	10:42:06.023
location	68	0	18	0	10:42:06.274
location	69	0	18	0	10:42:06.523
location	70	0	18	0	10:42:06.774
location	71	0	18	0	10:42:07.024
location	72	0	18	0	10:42:07.274
location	73	0	17	0	10:42:07.523
location	74	0	17	0	10:42:07.775
location	75	0	16	0	10:42:08.024
location	76	0	16	0	10:42:08.273
location	77	0	16	0	10:42:08.523
location	78	0	16	0	10:42:08.773
location	79	0	16	45	10:42:09.024
location	80	0	16	45	10:42:09.274
location	81	0	16	45	10:42:09.524
location	82	0	16	45	10:42:09.774
location	83	0	16	90	10:42:10.024
location	84	0	16	90	10:42:10.272
location	85	0	16	90	10:42:10.522
location	86	0	16	90	10:42:10.772
location	87	0	16	90	10:42:11.022
location	88	0	16	90	10:42:11.272
location	89	0	16	90	10:42:11.522
location	90	0	16	90	10:42:11.772
location	91	0	16	90	10:42:12.022
location	92	0	16	90	10:42:12.272
location	93	0	16	90	10:42:12.524
location	94	0	16	90	10:42:12.772
location	95	0	16	90	10:42:13.022
location	96	0	16	90	10:42:13.271
location	97	0	16	90	10:42:13.524
location	98	0	16	90	10:42:13.771
location	99	1	16	90	10:42:14.023
location	100	2	16	90	10:42:14.271
location	101	2	16	90	10:42:14.522
location	102	2	16	90	10:42:14.771
location	103	2	16	90	10:42:15.021
location	104	2	16	90	10:42:15.271
location	105	2	16	90	10:42:15.522
location	106	2	16	90	10:42:15.771
location	107	2	16	90	10:42:16.022
location	108	2	16	90	10:42:16.271
location	109	2	16	90	10:42:16.522
location	110	2	16	45	10:42:16.771
location	111	2	16	45	10:42:17.023
location	112	2	16	45	10:42:17.273
location	113	2	16	0	10:42:17.524
location	114	2	16	0	10:42:17.774
location	115	2	16	315	10:42:18.024
location	116	2	16	315	10:42:18.271
location	117	2	16	315	10:42:18.522
location	118	2	16	315	10:42:18.771
location	119	2	16	315	10:42:19.022
location	120	2	16	270	10:42:19.272
location	121	2	16	270	10:42:19.521
location	122	2	16	270	10:42:19.771
location	123	2	16	225	10:42:20.021
location	124	2	16	225	10:42:20.271
location	125	2	16	225	10:42:20.521
location	126	2	16	225	10:42:20.771
location	127	2	16	180	10:42:21.021
location	128	2	16	180	10:42:21.271
location	129	2	16	180	10:42:21.521
location	130	2	16	180	10:42:21.771
location	131	2	16	180	10:42:22.022
location	132	2	16	225	10:42:22.271
location	133	2	16	225	10:42:22.520
location	134	2	16	225	10:42:22.771
location	135	2	16	225	10:42:23.023
location	136	2	16	225	10:42:23.271
location	137	2	16	180	10:42:23.521
location	138	2	16	180	10:42:23.771
location	139	2	16	180	10:42:24.021
location	140	2	16	180	10:42:24.270
location	141	2	16	180	10:42:24.521
location	142	2	16	180	10:42:24.771
location	143	2	16	180	10:42:25.022
location	144	2	16	180	10:42:25.271
location	145	2	16	180	10:42:25.521
location	146	2	16	180	10:42:25.772
location	147	2	16	180	10:42:26.022
location	148	2	16	180	10:42:26.271
location	149	2	16	180	10:42:26.521
location	150	2	16	180	10:42:26.770
location	151	2	16	180	10:42:27.021
location	152	2	16	180	10:42:27.271
location	153	2	16	180	10:42:27.521
location	154	2	16	180	10:42:27.771
location	155	2	16	180	10:42:28.021
location	156	2	16	180	10:42:28.271
location	157	2	16	180	10:42:28.522
location	158	2	16	180	10:42:28.771
location	159	2	16	180	10:42:29.021
location	160	2	16	180	10:42:29.271
location	161	2	16	180	10:42:29.521
location	162	2	16	180	10:42:29.771
location	163	2	16	180	10:42:30.022
location	164	2	16	180	10:42:30.271
location	165	2	16	180	10:42:30.521
location	166	2	16	180	10:42:30.773
location	167	2	16	180	10:42:31.021
location	168	2	16	180	10:42:31.271
location	169	2	16	180	10:42:31.521
location	170	2	16	180	10:42:31.771
location	171	2	16	180	10:42:32.021
location	172	2	16	180	10:42:32.271
location	173	2	16	180	10:42:32.521
location	174	2	16	180	10:42:32.771
location	175	2	16	180	10:42:33.021
location	176	2	16	180	10:42:33.271
location	177	2	16	180	10:42:33.521
location	178	2	16	180	10:42:33.771
location	179	2	16	180	10:42:34.022
location	180	2	16	180	10:42:34.271
location	181	2	16	180	10:42:34.521
location	182	2	16	180	10:42:34.771
location	183	2	16	180	10:42:35.021
location	184	2	16	180	10:42:35.271
location	185	2	16	180	10:42:35.521
location	186	2	16	180	10:42:35.770
location	187	2	16	180	10:42:36.022
location	188	2	16	180	10:42:36.271
location	189	2	16	180	10:42:36.522
location	190	2	16	180	10:42:36.771
location	191	2	16	180	10:42:37.021
location	192	2	16	180	10:42:37.271
location	193	2	16	180	10:42:37.522
location	194	2	16	180	10:42:37.771
location	195	2	16	180	10:42:38.021
location	196	2	16	180	10:42:38.271
location	197	2	16	180	10:42:38.523
location	198	2	16	180	10:42:38.771
location	199	2	16	180	10:42:39.021
location	200	2	16	180	10:42:39.271
location	201	2	16	180	10:42:39.521
location	202	2	16	180	10:42:39.771
location	203	2	16	180	10:42:40.021
location	204	2	16	180	10:42:40.271
location	205	2	16	180	10:42:40.521
location	206	2	16	180	10:42:40.771
location	207	2	16	180	10:42:41.021
location	208	2	16	180	10:42:41.271
location	209	2	16	180	10:42:41.521
location	210	2	16	180	10:42:41.772
location	211	2	16	180	10:42:42.021
location	212	2	16	180	10:42:42.272
location	213	2	16	180	10:42:42.521
location	214	2	16	180	10:42:42.771
location	215	2	16	180	10:42:43.021
location	216	2	16	180	10:42:43.271
location	217	2	16	180	10:42:43.521
location	218	2	16	180	10:42:43.771
location	219	2	16	180	10:42:44.022
location	220	2	16	180	10:42:44.271
location	221	2	16	180	10:42:44.521
location	222	2	16	180	10:42:44.771
location	223	2	16	180	10:42:45.022
location	224	2	16	180	10:42:45.271
location	225	2	16	180	10:42:45.521
location	226	2	16	180	10:42:45.771
location	227	2	16	180	10:42:46.021
location	228	2	16	180	10:42:46.270
location	229	2	16	180	10:42:46.520
location	230	2	16	180	10:42:46.771
location	231	2	16	180	10:42:47.021
location	232	2	16	180	10:42:47.270
location	233	2	16	180	10:42:47.521
location	234	2	16	180	10:42:47.771
location	235	2	16	180	10:42:48.022
location	236	2	16	180	10:42:48.271
location	237	2	16	180	10:42:48.521
location	238	2	16	135	10:42:48.771
location	239	2	16	135	10:42:49.021
location	240	2	16	135	10:42:49.271
location	241	2	16	135	10:42:49.521
location	242	2	16	135	10:42:49.770
location	243	2	16	135	10:42:50.021
location	244	2	16	135	10:42:50.271
location	245	2	16	135	10:42:50.521
location	246	2	16	90	10:42:50.771
location	247	2	16	90	10:42:51.022
location	248	2	16	90	10:42:51.271
location	249	3	16	90	10:42:51.521
location	250	4	16	90	10:42:51.771
location	251	4	16	90	10:42:52.021
location	252	4	16	135	10:42:52.271
location	253	4	16	135	10:42:52.521
location	254	4	16	180	10:42:52.771
location	255	4	16	180	10:42:53.021
location	256	4	16	180	10:42:53.272
location	257	4	16	180	10:42:53.522
location	258	4	16	180	10:42:53.772
location	259	4	16	180	10:42:54.022
location	260	4	16	180	10:42:54.271
location	261	4	16	180	10:42:54.522
location	262	4	16	180	10:42:54.771
location	263	4	17	180	10:42:55.021
location	264	4	18	180	10:42:55.271
location	265	4	18	180	10:42:55.521
location	266	4	18	225	10:42:55.770
location	267	4	18	225	10:42:56.021
location	268	4	18	270	10:42:56.272
location	269	4	18	270	10:42:56.522
location	270	4	18	270	10:42:56.772
location	271	4	18	270	10:42:57.022
location	272	4	18	270	10:42:57.271
location	273	4	18	270	10:42:57.521
location	274	4	18	270	10:42:57.771
location	275	4	18	270	10:42:58.022
location	276	4	18	270	10:42:58.271
location	277	4	18	270	10:42:58.522
location	278	4	18	270	10:42:58.771
location	279	4	18	270	10:42:59.021
location	280	4	18	270	10:42:59.271
location	281	4	18	270	10:42:59.521
location	282	4	18	270	10:42:59.771
location	283	4	18	270	10:43:00.022
location	284	4	18	270	10:43:00.270
location	285	4	18	270	10:43:00.520
location	286	4	18	270	10:43:00.772
location	287	4	18	270	10:43:01.022
location	288	4	18	225	10:43:01.272
location	289	4	18	225	10:43:01.521
location	290	4	18	180	10:43:01.771
location	291	4	18	180	10:43:02.020
location	292	4	18	180	10:43:02.271
location	293	4	19	180	10:43:02.521
location	294	4	19	180	10:43:02.771
location	295	4	20	180	10:43:03.021
location	296	4	20	180	10:43:03.271
location	297	4	20	180	10:43:03.521
location	298	4	20	225	10:43:03.771
location	299	4	20	225	10:43:04.021
location	300	4	20	270	10:43:04.271
location	301	4	20	270	10:43:04.520
location	302	4	20	270	10:43:04.771
location	303	3	20	270	10:43:05.021
location	304	3	20	270	10:43:05.271
location	305	2	20	270	10:43:05.521
location	306	1	20	270	10:43:05.771
location	307	1	20	270	10:43:06.021
location	308	0	20	270	10:43:06.271
location	309	0	20	270	10:43:06.520
location	310	0	20	315	10:43:06.771
location	311	0	20	315	10:43:07.022
location	312	0	20	315	10:43:07.270
location	313	0	20	315	10:43:07.521
location	314	0	20	315	10:43:07.771
location	315	0	20	315	10:43:08.022
location	316	0	20	0	10:43:08.270
location	317	0	20	0	10:43:08.525
location	318	0	20	0	10:43:08.774
location	319	0	20	0	10:43:09.024
location	320	0	19	0	10:43:09.276
location	321	0	19	0	10:43:09.524
location	322	0	18	0	10:43:09.774
location	323	0	18	0	10:43:10.024
location	324	0	18	0	10:43:10.273
location	325	0	18	45	10:43:10.524
location	326	0	18	45	10:43:10.772
location	327	0	18	45	10:43:11.024
location	328	0	18	90	10:43:11.273
location	329	0	18	90	10:43:11.522
location	330	0	18	90	10:43:11.772
location	331	0	18	90	10:43:12.022
location	332	0	18	90	10:43:12.272
location	333	0	18	90	10:43:12.522
location	334	0	18	90	10:43:12.772
location	335	0	18	90	10:43:13.022
location	336	0	18	90	10:43:13.272
location	337	0	18	45	10:43:13.521
location	338	0	18	45	10:43:13.774
location	339	0	18	0	10:43:14.024
location	340	0	18	0	10:43:14.274
location	341	0	18	0	10:43:14.524
location	342	0	17	0	10:43:14.773
location	343	0	16	0	10:43:15.023
location	344	0	16	0	10:43:15.273
location	345	0	16	0	10:43:15.523
location	346	0	16	45	10:43:15.772
location	347	0	16	45	10:43:16.024
location	348	0	16	90	10:43:16.273
location	349	0	16	90	10:43:16.522
location	350	0	16	90	10:43:16.771
location	351	0	16	90	10:43:17.022
location	352	1	16	90	10:43:17.272
location	353	1	16	90	10:43:17.521
location	354	2	16	90	10:43:17.772
location	355	2	16	90	10:43:18.021
location	356	2	16	90	10:43:18.271
location	357	2	16	90	10:43:18.521
location	358	2	16	90	10:43:18.771
location	359	3	16	90	10:43:19.021
location	360	4	16	90	10:43:19.271
location	361	4	16	90	10:43:19.520
location	362	4	16	90	10:43:19.770
location	363	4	16	135	10:43:20.021
location	364	4	16	135	10:43:20.271
location	365	4	16	180	10:43:20.520
location	366	4	16	180	10:43:20.770
location	367	4	16	180	10:43:21.021
location	368	4	16	180	10:43:21.270
location	369	4	16	180	10:43:21.521
location	370	4	16	180	10:43:21.770
location	371	4	16	180	10:43:22.022
location	372	4	16	180	10:43:22.272
location	373	4	16	180	10:43:22.520
location	374	4	16	180	10:43:22.770
location	375	4	16	180	10:43:23.021
location	376	4	16	180	10:43:23.270
location	377	4	16	180	10:43:23.521
location	378	4	16	180	10:43:23.771
location	379	4	16	180	10:43:24.021
location	380	4	16	180	10:43:24.271
location	381	4	16	180	10:43:24.521
location	382	4	16	180	10:43:24.771
location	383	4	16	180	10:43:25.020
location	384	4	16	180	10:43:25.271
location	385	4	16	180	10:43:25.521
location	386	4	16	180	10:43:25.771
location	387	4	16	180	10:43:26.021
location	388	4	16	180	10:43:26.270
location	389	4	16	180	10:43:26.521
location	390	4	16	180	10:43:26.771
location	391	4	16	180	10:43:27.020
location	392	4	16	180	10:43:27.270
location	393	4	16	180	10:43:27.521
location	394	4	16	180	10:43:27.771
location	395	4	16	180	10:43:28.021
location	396	4	16	180	10:43:28.270
location	397	4	16	180	10:43:28.521
location	398	4	16	180	10:43:28.771
location	399	4	16	180	10:43:29.022
location	400	4	16	180	10:43:29.270
location	401	4	16	180	10:43:29.521
location	402	4	16	180	10:43:29.771
location	403	4	16	180	10:43:30.021
