State		Iter	X	Y 	Angle	Timestamp
location	0	0	0	0	10:10:57.198
location	1	0	0	0	10:10:57.446
location	2	0	0	0	10:10:57.695
location	3	0	0	0	10:10:57.945
location	4	0	0	0	10:10:58.195
location	5	0	0	0	10:10:58.444
location	6	0	0	0	10:10:58.694
location	7	0	0	0	10:10:58.945
location	8	0	0	0	10:10:59.194
location	9	0	0	0	10:10:59.446
location	10	0	0	0	10:10:59.696
location	11	0	0	0	10:10:59.945
location	12	0	0	0	10:11:00.192
location	13	0	0	45	10:11:00.449
location	14	0	0	90	10:11:00.695
location	15	0	0	90	10:11:00.942
location	16	3	20	90	10:11:01.193
location	17	4	20	90	10:11:01.442
location	18	4	20	90	10:11:01.691
location	19	4	20	45	10:11:01.942
location	20	4	20	0	10:11:02.194
location	21	4	20	0	10:11:02.445
location	22	4	19	0	10:11:02.696
location	23	4	18	0	10:11:02.946
location	24	4	17	0	10:11:03.196
location	25	4	17	0	10:11:03.445
location	26	4	17	315	10:11:03.695
location	27	4	17	315	10:11:03.946
location	28	4	17	270	10:11:04.193
location	29	4	17	225	10:11:04.442
location	30	4	17	225	10:11:04.692
location	31	4	17	180	10:11:04.942
location	32	4	17	180	10:11:05.192
location	33	4	18	180	10:11:05.442
location	34	4	18	180	10:11:05.692
location	35	4	18	225	10:11:05.942
location	36	4	18	270	10:11:06.192
location	37	4	18	270	10:11:06.442
location	38	4	18	270	10:11:06.692
location	39	4	18	270	10:11:06.943
location	40	4	18	270	10:11:07.192
location	41	4	18	270	10:11:07.442
EnterDialog		42	4	18	2	10:11:07.695
location	42	4	18	270	10:11:07.697
location	43	4	18	270	10:11:07.944
location	44	4	18	270	10:11:08.194
location	45	4	18	270	10:11:08.444
NPCDialog	46	2	1	0	10:11:08.547
location	46	4	18	270	10:11:08.694
location	47	4	18	270	10:11:08.944
location	48	4	18	270	10:11:09.194
location	49	4	18	270	10:11:09.444
location	50	4	18	270	10:11:09.694
NPCDialog	51	2	2	0	10:11:09.712
location	51	4	18	270	10:11:09.943
location	52	4	18	270	10:11:10.192
location	53	4	18	270	10:11:10.443
location	54	4	18	270	10:11:10.692
location	55	4	18	315	10:11:10.944
location	56	4	18	0	10:11:11.194
location	57	4	18	0	10:11:11.445
location	58	4	17	0	10:11:11.696
location	59	4	16	0	10:11:11.945
location	60	4	16	0	10:11:12.195
location	61	4	16	315	10:11:12.444
location	62	4	16	315	10:11:12.693
location	63	4	16	270	10:11:12.943
location	64	4	16	270	10:11:13.192
location	65	3	16	270	10:11:13.442
location	66	3	16	270	10:11:13.692
location	67	2	16	270	10:11:13.942
location	68	2	16	270	10:11:14.192
location	69	2	16	225	10:11:14.442
location	70	2	16	225	10:11:14.691
location	71	2	16	180	10:11:14.943
location	72	2	16	180	10:11:15.192
location	73	2	16	180	10:11:15.443
location	74	2	16	180	10:11:15.692
EnterDialog		75	2	16	1	10:11:15.943
location	75	2	16	180	10:11:15.945
location	76	2	16	180	10:11:16.194
location	77	2	16	180	10:11:16.444
location	78	2	16	180	10:11:16.694
location	79	2	16	180	10:11:16.944
location	80	2	16	180	10:11:17.194
location	81	2	16	180	10:11:17.444
location	82	2	16	180	10:11:17.694
location	83	2	16	180	10:11:17.944
NPCDialog	84	1	1	0	10:11:18.161
location	84	2	16	180	10:11:18.195
location	85	2	16	180	10:11:18.444
NPCDialog	86	1	2	0	10:11:18.677
location	86	2	16	180	10:11:18.692
location	87	2	16	180	10:11:18.942
location	88	2	16	180	10:11:19.192
location	89	2	16	180	10:11:19.442
location	90	2	16	180	10:11:19.692
location	91	2	16	225	10:11:19.943
location	92	2	16	225	10:11:20.192
location	93	2	16	270	10:11:20.442
location	94	2	16	270	10:11:20.691
location	95	1	16	270	10:11:20.942
location	96	0	16	270	10:11:21.191
location	97	0	16	270	10:11:21.441
location	98	0	16	225	10:11:21.691
location	99	0	16	180	10:11:21.941
location	100	0	16	180	10:11:22.192
location	101	0	17	180	10:11:22.442
location	102	0	18	180	10:11:22.692
location	103	0	18	180	10:11:22.941
location	104	0	18	135	10:11:23.192
location	105	0	18	90	10:11:23.442
location	106	0	18	45	10:11:23.693
location	107	0	18	45	10:11:23.945
location	108	0	18	45	10:11:24.195
location	109	0	18	90	10:11:24.448
location	110	0	18	90	10:11:24.693
location	111	0	18	135	10:11:24.943
location	112	0	18	135	10:11:25.192
location	113	0	18	180	10:11:25.443
location	114	0	18	180	10:11:25.692
location	115	0	18	225	10:11:25.942
location	116	0	18	225	10:11:26.191
location	117	0	18	225	10:11:26.441
location	118	0	18	180	10:11:26.691
location	119	0	18	180	10:11:26.942
location	120	0	19	180	10:11:27.191
location	121	0	20	180	10:11:27.442
location	122	0	20	180	10:11:27.692
location	123	0	20	135	10:11:27.941
location	124	0	20	90	10:11:28.192
location	125	0	20	90	10:11:28.442
location	126	0	20	90	10:11:28.691
location	127	1	20	90	10:11:28.941
location	128	2	20	90	10:11:29.192
location	129	2	20	90	10:11:29.442
location	130	3	20	90	10:11:29.692
location	131	4	20	90	10:11:29.942
location	132	4	20	90	10:11:30.191
location	133	4	20	90	10:11:30.441
location	134	4	20	90	10:11:30.691
location	135	4	20	90	10:11:30.941
location	136	4	20	90	10:11:31.191
location	137	4	20	45	10:11:31.441
location	138	4	20	0	10:11:31.694
location	139	4	20	0	10:11:31.946
location	140	4	19	0	10:11:32.194
location	141	4	18	0	10:11:32.430
location	142	4	18	0	10:11:32.680
location	143	4	18	315	10:11:32.948
location	144	4	18	270	10:11:33.194
location	145	4	18	270	10:11:33.442
location	146	4	18	270	10:11:33.692
location	147	4	18	315	10:11:33.943
location	148	4	18	315	10:11:34.194
location	149	4	18	0	10:11:34.444
location	150	4	18	0	10:11:34.696
location	151	4	17	0	10:11:34.945
location	152	4	16	0	10:11:35.195
location	153	4	16	315	10:11:35.445
location	154	4	16	270	10:11:35.693
location	155	4	16	225	10:11:35.943
location	156	4	16	225	10:11:36.192
location	157	4	16	225	10:11:36.442
location	158	4	16	270	10:11:36.692
location	159	4	16	270	10:11:36.942
location	160	3	16	270	10:11:37.192
location	161	2	16	270	10:11:37.442
location	162	2	16	270	10:11:37.692
location	163	2	16	225	10:11:37.942
location	164	2	16	180	10:11:38.192
location	165	2	16	180	10:11:38.443
location	166	2	16	180	10:11:38.693
location	167	2	16	180	10:11:38.943
location	168	2	16	180	10:11:39.192
location	169	2	16	180	10:11:39.442
location	170	2	16	180	10:11:39.692
location	171	2	16	180	10:11:39.942
location	172	2	16	180	10:11:40.192
location	173	2	16	180	10:11:40.444
location	174	2	16	180	10:11:40.692
location	175	2	16	180	10:11:40.942
location	176	2	16	180	10:11:41.193
location	177	2	16	180	10:11:41.442
location	178	2	16	180	10:11:41.692
location	179	2	16	180	10:11:41.942
location	180	2	16	180	10:11:42.193
location	181	2	16	180	10:11:42.443
location	182	2	16	180	10:11:42.693
location	183	2	16	180	10:11:42.942
location	184	2	16	180	10:11:43.192
location	185	2	16	180	10:11:43.441
location	186	2	16	180	10:11:43.692
location	187	2	16	180	10:11:43.943
location	188	2	16	180	10:11:44.192
location	189	2	16	180	10:11:44.442
location	190	2	16	180	10:11:44.693
location	191	2	16	180	10:11:44.942
location	192	2	16	180	10:11:45.192
location	193	2	16	180	10:11:45.442
location	194	2	16	180	10:11:45.692
location	195	2	16	180	10:11:45.943
location	196	2	16	180	10:11:46.193
location	197	2	16	180	10:11:46.442
