State		Iter	X	Y 	Angle	Timestamp
Instruct		Start	begin-Starbucks	end-Macdonald	steps12	12:16:12.833
EndInstruct		End	begin-Starbucks	end-Macdonald	steps12	12:16:15.833
EndConsider		Start	begin-Starbucks	end-Macdonald	steps12	12:16:15.849
EndConsider		End	begin-Starbucks	end-Macdonald	steps12	12:16:19.849
DistJudge		Start	begin-Starbucks	end-Macdonald	steps12	12:16:19.867
DistJudge		End	begin-Starbucks	end-Macdonald	7step	12:16:26.533
location	0	3	0	180	12:16:29.682
location	1	3	0	180	12:16:29.932
location	2	3	0	135	12:16:30.182
location	3	3	0	135	12:16:30.432
location	4	3	0	90	12:16:30.681
location	5	3	0	90	12:16:30.930
location	6	3	0	90	12:16:31.179
location	7	4	0	90	12:16:31.430
location	8	4	0	90	12:16:31.680
location	9	5	0	90	12:16:31.929
location	10	5	0	90	12:16:32.179
location	11	6	0	90	12:16:32.429
location	12	6	0	90	12:16:32.679
location	13	6	0	90	12:16:32.928
location	14	7	0	90	12:16:33.180
location	15	7	0	90	12:16:33.429
location	16	7	0	90	12:16:33.679
location	17	7	0	135	12:16:33.929
location	18	7	0	135	12:16:34.180
location	19	7	0	180	12:16:34.430
location	20	7	0	180	12:16:34.682
location	21	7	1	180	12:16:34.932
location	22	7	2	180	12:16:35.181
location	23	7	2	180	12:16:35.432
location	24	7	3	180	12:16:35.682
location	25	7	3	180	12:16:35.931
location	26	7	4	180	12:16:36.181
location	27	7	4	180	12:16:36.431
location	28	7	5	180	12:16:36.682
location	29	7	5	180	12:16:36.931
location	30	7	6	180	12:16:37.183
location	31	7	6	180	12:16:37.431
location	32	7	6	225	12:16:37.680
location	33	7	6	270	12:16:37.931
location	34	7	6	315	12:16:38.180
location	35	7	6	315	12:16:38.430
location	36	7	6	315	12:16:38.680
NpcDialog		37	7	6	1	12:16:38.932
location	37	7	6	315	12:16:38.935
location	38	7	6	315	12:16:39.181
location	39	7	6	315	12:16:39.429
location	40	7	6	315	12:16:39.678
location	41	7	6	315	12:16:39.931
location	42	7	6	315	12:16:40.181
location	43	7	6	315	12:16:40.432
location	44	7	6	315	12:16:40.681
location	45	7	6	315	12:16:40.931
NpcDialog	46	1	0	1	12:16:40.966
location	46	7	6	315	12:16:41.181
Endtrial	——————1——————————12:16:59.364
Instruct		Start	begin-Target	end-Barnes&Noble	steps23	12:16:59.380
EndInstruct		End	begin-Target	end-Barnes&Noble	steps23	12:17:02.381
EndConsider		Start	begin-Target	end-Barnes&Noble	steps23	12:17:02.397
EndConsider		End	begin-Target	end-Barnes&Noble	steps23	12:17:06.397
DistJudge		Start	begin-Target	end-Barnes&Noble	steps23	12:17:06.414
DistJudge		End	begin-Target	end-Barnes&Noble	20step	12:17:14.665
location	0	0	3	90	12:17:17.681
location	1	0	3	90	12:17:17.931
location	2	0	3	90	12:17:18.180
location	3	0	3	45	12:17:18.430
location	4	0	3	45	12:17:18.679
location	5	0	3	45	12:17:18.929
location	6	0	3	0	12:17:19.179
location	7	0	3	0	12:17:19.427
location	8	0	2	0	12:17:19.680
location	9	0	1	0	12:17:19.928
location	10	0	1	0	12:17:20.178
location	11	0	1	0	12:17:20.428
location	12	0	0	0	12:17:20.679
location	13	0	0	0	12:17:20.927
location	14	0	0	45	12:17:21.178
location	15	0	0	45	12:17:21.429
location	16	0	0	90	12:17:21.678
location	17	0	0	90	12:17:21.930
location	18	1	0	90	12:17:22.180
location	19	2	0	90	12:17:22.431
location	20	2	0	90	12:17:22.680
location	21	3	0	90	12:17:22.930
location	22	3	0	90	12:17:23.179
location	23	4	0	90	12:17:23.430
location	24	4	0	90	12:17:23.679
location	25	5	0	90	12:17:23.929
location	26	5	0	90	12:17:24.178
location	27	6	0	90	12:17:24.428
location	28	6	0	90	12:17:24.679
location	29	6	0	90	12:17:24.929
location	30	7	0	90	12:17:25.179
location	31	7	0	90	12:17:25.429
location	32	7	0	135	12:17:25.679
location	33	7	0	135	12:17:25.931
location	34	7	0	180	12:17:26.180
location	35	7	0	180	12:17:26.432
location	36	7	1	180	12:17:26.682
location	37	7	1	180	12:17:26.931
location	38	7	2	180	12:17:27.181
location	39	7	2	180	12:17:27.432
location	40	7	3	180	12:17:27.681
location	41	7	3	180	12:17:27.931
location	42	7	4	180	12:17:28.181
location	43	7	4	180	12:17:28.431
location	44	7	5	180	12:17:28.681
location	45	7	5	180	12:17:28.930
location	46	7	6	180	12:17:29.180
location	47	7	6	180	12:17:29.431
location	48	7	7	180	12:17:29.681
location	49	7	7	180	12:17:29.930
location	50	7	8	180	12:17:30.180
location	51	7	8	180	12:17:30.430
location	52	7	9	180	12:17:30.680
location	53	7	9	180	12:17:30.929
location	54	7	10	180	12:17:31.179
location	55	7	10	180	12:17:31.429
location	56	7	11	180	12:17:31.680
location	57	7	11	180	12:17:31.929
location	58	7	11	135	12:17:32.179
location	59	7	11	135	12:17:32.428
location	60	7	11	135	12:17:32.678
location	61	7	11	90	12:17:32.930
location	62	7	11	90	12:17:33.178
location	63	8	11	90	12:17:33.429
location	64	8	11	90	12:17:33.678
location	65	8	11	90	12:17:33.929
location	66	9	11	90	12:17:34.179
location	67	9	11	90	12:17:34.429
location	68	9	11	45	12:17:34.678
location	69	9	11	45	12:17:34.929
location	70	9	11	0	12:17:35.179
location	71	9	11	0	12:17:35.431
location	72	9	11	0	12:17:35.681
NpcDialog		73	9	11	2	12:17:35.931
location	73	9	11	0	12:17:35.934
location	74	9	11	0	12:17:36.184
location	75	9	11	0	12:17:36.433
location	76	9	11	0	12:17:36.684
location	77	9	11	0	12:17:36.933
location	78	9	11	0	12:17:37.184
location	79	9	11	0	12:17:37.433
location	80	9	11	0	12:17:37.683
NpcDialog	81	2	0	1	12:17:37.833
location	81	9	11	0	12:17:37.933
Endtrial	——————2——————————12:17:56.114
Instruct		Start	begin-Macdonald	end-Target	steps16	12:17:56.130
EndInstruct		End	begin-Macdonald	end-Target	steps16	12:17:59.130
EndConsider		Start	begin-Macdonald	end-Target	steps16	12:17:59.146
EndConsider		End	begin-Macdonald	end-Target	steps16	12:18:03.146
DistJudge		Start	begin-Macdonald	end-Target	steps16	12:18:03.164
DistJudge		End	begin-Macdonald	end-Target	14step	12:18:08.096
location	0	7	6	315	12:18:11.180
location	1	7	6	315	12:18:11.429
location	2	7	6	315	12:18:11.679
location	3	7	6	0	12:18:11.929
location	4	7	6	0	12:18:12.179
location	5	7	6	0	12:18:12.430
location	6	7	5	0	12:18:12.679
location	7	7	5	0	12:18:12.929
location	8	7	4	0	12:18:13.180
location	9	7	4	0	12:18:13.429
location	10	7	3	0	12:18:13.679
location	11	7	3	0	12:18:13.928
location	12	7	2	0	12:18:14.179
location	13	7	2	0	12:18:14.429
location	14	7	1	0	12:18:14.679
location	15	7	1	0	12:18:14.928
location	16	7	1	0	12:18:15.178
location	17	7	0	0	12:18:15.428
location	18	7	0	0	12:18:15.678
location	19	7	0	315	12:18:15.928
location	20	7	0	315	12:18:16.178
location	21	7	0	270	12:18:16.428
location	22	7	0	270	12:18:16.679
location	23	6	0	270	12:18:16.928
location	24	6	0	270	12:18:17.179
location	25	5	0	270	12:18:17.429
location	26	5	0	270	12:18:17.679
location	27	4	0	270	12:18:17.929
location	28	4	0	270	12:18:18.179
location	29	3	0	270	12:18:18.429
location	30	3	0	270	12:18:18.679
location	31	2	0	270	12:18:18.929
location	32	2	0	270	12:18:19.178
location	33	1	0	270	12:18:19.429
location	34	1	0	270	12:18:19.678
location	35	0	0	270	12:18:19.929
location	36	0	0	270	12:18:20.178
location	37	0	0	225	12:18:20.428
location	38	0	0	225	12:18:20.679
location	39	0	0	225	12:18:20.929
location	40	0	0	180	12:18:21.178
location	41	0	0	180	12:18:21.431
location	42	0	1	180	12:18:21.681
location	43	0	1	180	12:18:21.930
location	44	0	2	180	12:18:22.181
location	45	0	2	180	12:18:22.431
location	46	0	2	180	12:18:22.681
location	47	0	3	180	12:18:22.931
location	48	0	3	180	12:18:23.181
location	49	0	3	135	12:18:23.431
location	50	0	3	90	12:18:23.682
location	51	0	3	90	12:18:23.931
location	52	0	3	90	12:18:24.181
NpcDialog		53	0	3	5	12:18:24.431
location	53	0	3	90	12:18:24.435
location	54	0	3	90	12:18:24.682
location	55	0	3	90	12:18:24.933
location	56	0	3	90	12:18:25.183
location	57	0	3	90	12:18:25.433
location	58	0	3	90	12:18:25.683
NpcDialog	59	5	0	1	12:18:25.917
location	59	0	3	90	12:18:25.933
Endtrial	——————3——————————12:18:26.080
Instruct		Start	begin-DunkinDonuts	end-Starbucks	steps6	12:18:26.097
EndInstruct		End	begin-DunkinDonuts	end-Starbucks	steps6	12:18:29.098
EndConsider		Start	begin-DunkinDonuts	end-Starbucks	steps6	12:18:29.115
EndConsider		End	begin-DunkinDonuts	end-Starbucks	steps6	12:18:33.098
DistJudge		Start	begin-DunkinDonuts	end-Starbucks	steps6	12:18:33.114
DistJudge		End	begin-DunkinDonuts	end-Starbucks	5step	12:18:40.015
location	0	9	0	180	12:18:43.182
location	1	9	0	180	12:18:43.432
location	2	9	0	225	12:18:43.682
location	3	9	0	270	12:18:43.932
location	4	9	0	270	12:18:44.180
location	5	8	0	270	12:18:44.430
location	6	8	0	270	12:18:44.679
location	7	7	0	270	12:18:44.929
location	8	7	0	270	12:18:45.179
location	9	6	0	270	12:18:45.429
location	10	6	0	270	12:18:45.679
location	11	5	0	270	12:18:45.929
location	12	5	0	270	12:18:46.178
location	13	5	0	270	12:18:46.428
location	14	4	0	270	12:18:46.679
location	15	4	0	270	12:18:46.928
location	16	3	0	270	12:18:47.179
location	17	3	0	270	12:18:47.429
location	18	3	0	225	12:18:47.679
location	19	3	0	180	12:18:47.932
location	20	3	0	180	12:18:48.182
NpcDialog		21	3	0	3	12:18:48.433
location	21	3	0	180	12:18:48.437
location	22	3	0	180	12:18:48.685
location	23	3	0	180	12:18:48.932
location	24	3	0	180	12:18:49.182
location	25	3	0	180	12:18:49.432
NpcDialog	26	3	0	1	12:18:49.553
location	26	3	0	180	12:18:49.685
Endtrial	——————4——————————12:19:07.865
Instruct		Start	begin-Barnes&Noble	end-KFC	steps7	12:19:07.881
EndInstruct		End	begin-Barnes&Noble	end-KFC	steps7	12:19:10.880
EndConsider		Start	begin-Barnes&Noble	end-KFC	steps7	12:19:10.899
EndConsider		End	begin-Barnes&Noble	end-KFC	steps7	12:19:14.898
DistJudge		Start	begin-Barnes&Noble	end-KFC	steps7	12:19:14.914
DistJudge		End	begin-Barnes&Noble	end-KFC	9step	12:19:21.031
location	0	9	11	0	12:19:24.180
location	1	9	11	0	12:19:24.430
location	2	9	11	0	12:19:24.680
location	3	9	11	0	12:19:24.931
location	4	9	11	0	12:19:25.181
location	5	9	11	0	12:19:25.430
location	6	9	11	0	12:19:25.681
location	7	9	11	45	12:19:25.930
location	8	9	11	45	12:19:26.178
location	9	9	11	90	12:19:26.428
location	10	9	11	90	12:19:26.679
location	11	10	11	90	12:19:26.928
location	12	10	11	90	12:19:27.178
location	13	11	11	90	12:19:27.428
location	14	11	11	90	12:19:27.677
location	15	11	11	45	12:19:27.928
location	16	11	11	45	12:19:28.179
location	17	11	11	0	12:19:28.428
location	18	11	11	0	12:19:28.679
location	19	11	10	0	12:19:28.930
location	20	11	10	0	12:19:29.179
location	21	11	9	0	12:19:29.431
location	22	11	9	0	12:19:29.679
location	23	11	8	0	12:19:29.930
location	24	11	7	0	12:19:30.180
location	25	11	7	0	12:19:30.429
location	26	11	7	0	12:19:30.678
location	27	11	7	0	12:19:30.929
location	28	11	6	0	12:19:31.178
location	29	11	6	0	12:19:31.428
location	30	11	6	0	12:19:31.679
location	31	11	6	315	12:19:31.929
location	32	11	6	270	12:19:32.180
location	33	11	6	270	12:19:32.430
NpcDialog		34	11	6	6	12:19:32.681
location	34	11	6	270	12:19:32.686
location	35	11	6	270	12:19:32.934
location	36	11	6	270	12:19:33.183
location	37	11	6	270	12:19:33.432
location	38	11	6	270	12:19:33.683
NpcDialog	39	6	0	1	12:19:33.832
location	39	11	6	270	12:19:33.933
Endtrial	——————5——————————12:19:52.114
Instruct		Start	begin-BestBuy	end-DunkinDonuts	steps14	12:19:52.130
EndInstruct		End	begin-BestBuy	end-DunkinDonuts	steps14	12:19:55.129
EndConsider		Start	begin-BestBuy	end-DunkinDonuts	steps14	12:19:55.146
EndConsider		End	begin-BestBuy	end-DunkinDonuts	steps14	12:19:59.145
DistJudge		Start	begin-BestBuy	end-DunkinDonuts	steps14	12:19:59.163
DistJudge		End	begin-BestBuy	end-DunkinDonuts	14step	12:20:04.479
location	0	4	9	270	12:20:07.679
location	1	4	9	270	12:20:07.928
location	2	4	9	315	12:20:08.178
location	3	4	9	315	12:20:08.430
location	4	4	9	0	12:20:08.678
location	5	4	9	0	12:20:08.929
location	6	4	8	0	12:20:09.179
location	7	4	7	0	12:20:09.430
location	8	4	7	0	12:20:09.679
location	9	4	6	0	12:20:09.930
location	10	4	6	0	12:20:10.178
location	11	4	6	45	12:20:10.428
location	12	4	6	45	12:20:10.679
location	13	4	6	90	12:20:10.929
location	14	4	6	90	12:20:11.179
location	15	5	6	90	12:20:11.429
location	16	6	6	90	12:20:11.679
location	17	6	6	90	12:20:11.929
location	18	6	6	90	12:20:12.179
location	19	7	6	90	12:20:12.428
location	20	7	6	90	12:20:12.678
location	21	7	6	90	12:20:12.928
location	22	7	6	45	12:20:13.179
location	23	7	6	45	12:20:13.428
location	24	7	6	45	12:20:13.678
location	25	7	6	0	12:20:13.930
location	26	7	6	0	12:20:14.180
location	27	7	5	0	12:20:14.430
location	28	7	5	0	12:20:14.678
location	29	7	4	0	12:20:14.930
location	30	7	4	0	12:20:15.178
location	31	7	3	0	12:20:15.428
location	32	7	3	0	12:20:15.679
location	33	7	2	0	12:20:15.929
location	34	7	2	0	12:20:16.178
location	35	7	1	0	12:20:16.428
location	36	7	1	0	12:20:16.678
location	37	7	1	0	12:20:16.927
location	38	7	0	0	12:20:17.178
location	39	7	0	0	12:20:17.427
location	40	7	0	45	12:20:17.678
location	41	7	0	90	12:20:17.928
location	42	7	0	90	12:20:18.179
location	43	8	0	90	12:20:18.429
location	44	8	0	90	12:20:18.678
location	45	9	0	90	12:20:18.929
location	46	9	0	90	12:20:19.179
location	47	9	0	90	12:20:19.428
location	48	9	0	90	12:20:19.679
location	49	9	0	90	12:20:19.927
location	50	9	0	90	12:20:20.177
location	51	9	0	135	12:20:20.428
location	52	9	0	180	12:20:20.678
location	53	9	0	180	12:20:20.931
location	54	9	0	180	12:20:21.182
location	55	9	0	180	12:20:21.432
NpcDialog		56	9	0	7	12:20:21.682
location	56	9	0	180	12:20:21.686
location	57	9	0	180	12:20:21.934
location	58	9	0	180	12:20:22.183
location	59	9	0	180	12:20:22.431
location	60	9	0	180	12:20:22.683
location	61	9	0	180	12:20:22.935
location	62	9	0	180	12:20:23.184
NpcDialog	63	7	0	1	12:20:23.400
location	63	9	0	180	12:20:23.432
Endtrial	——————6——————————12:20:23.580
Instruct		Start	begin-KFC	end-HomeDepot	steps25	12:20:23.598
EndInstruct		End	begin-KFC	end-HomeDepot	steps25	12:20:26.597
EndConsider		Start	begin-KFC	end-HomeDepot	steps25	12:20:26.614
EndConsider		End	begin-KFC	end-HomeDepot	steps25	12:20:30.598
DistJudge		Start	begin-KFC	end-HomeDepot	steps25	12:20:30.614
DistJudge		End	begin-KFC	end-HomeDepot	22step	12:20:36.748
location	0	11	6	270	12:20:39.930
location	1	11	6	270	12:20:40.180
location	2	11	6	315	12:20:40.430
location	3	11	6	0	12:20:40.680
location	4	11	6	0	12:20:40.929
location	5	11	5	0	12:20:41.179
location	6	11	4	0	12:20:41.428
location	7	11	3	0	12:20:41.678
location	8	11	3	0	12:20:41.927
location	9	11	2	0	12:20:42.177
location	10	11	2	0	12:20:42.428
location	11	11	1	0	12:20:42.678
location	12	11	1	0	12:20:42.927
location	13	11	0	0	12:20:43.177
location	14	11	0	0	12:20:43.428
location	15	11	0	315	12:20:43.677
location	16	11	0	315	12:20:43.928
location	17	11	0	270	12:20:44.178
location	18	11	0	270	12:20:44.429
location	19	10	0	270	12:20:44.679
location	20	9	0	270	12:20:44.929
location	21	8	0	270	12:20:45.179
location	22	7	0	270	12:20:45.429
location	23	6	0	270	12:20:45.679
location	24	6	0	270	12:20:45.928
location	25	5	0	270	12:20:46.179
location	26	5	0	270	12:20:46.428
location	27	4	0	270	12:20:46.678
location	28	3	0	270	12:20:46.928
location	29	3	0	270	12:20:47.179
location	30	2	0	270	12:20:47.428
location	31	2	0	270	12:20:47.678
location	32	1	0	270	12:20:47.928
location	33	1	0	270	12:20:48.177
location	34	0	0	270	12:20:48.428
location	35	0	0	270	12:20:48.677
location	36	0	0	225	12:20:48.927
location	37	0	0	225	12:20:49.178
location	38	0	0	180	12:20:49.429
location	39	0	0	180	12:20:49.681
location	40	0	1	180	12:20:49.931
location	41	0	2	180	12:20:50.180
location	42	0	2	180	12:20:50.431
location	43	0	3	180	12:20:50.680
location	44	0	3	180	12:20:50.930
location	45	0	4	180	12:20:51.180
location	46	0	4	180	12:20:51.429
location	47	0	5	180	12:20:51.680
location	48	0	5	180	12:20:51.929
location	49	0	6	180	12:20:52.179
location	50	0	6	180	12:20:52.429
location	51	0	7	180	12:20:52.679
location	52	0	7	180	12:20:52.929
location	53	0	8	180	12:20:53.180
location	54	0	8	180	12:20:53.429
location	55	0	8	135	12:20:53.679
location	56	0	8	135	12:20:53.930
location	57	0	8	90	12:20:54.181
location	58	0	8	90	12:20:54.430
NpcDialog		59	0	8	4	12:20:54.680
location	59	0	8	90	12:20:54.685
location	60	0	8	90	12:20:54.932
location	61	0	8	90	12:20:55.182
location	62	0	8	90	12:20:55.433
NpcDialog	63	4	0	1	12:20:55.566
location	63	0	8	90	12:20:55.683
